,Rank,id,Week 1,Week 2,Week 3,Week 4,Week 5,Week 6,Week 7,Week 8,Week 9,Week 10,Week 11,Week 12,Week 13,Week 14,Week 15,Week 16,Week 17,Week 18,Week 19,Week 20,Gender,Age_Group
0,1,4582186,0,0,0,0,0,0,0,0,0,0,0,0,0,0,0,0,0,0,0,0,F,0_19
1,2,2268580,6.92,5.38,0,0,0.77,0.77,6.15,3.08,5.38,3.08,5.38,5.38,6.15,5.38,6.15,7.69,4.62,8.46,14.62,6.92,F,0_19
2,3,28652376,0.77,0.77,0,2.31,6.15,3.85,6.15,5.38,3.08,6.92,10,12.31,9.23,12.31,7.69,10.77,12.31,8.46,13.08,8.46,F,0_19
0,6,14164411,8.46,0,0,0,0,0,0,0,0,0,0,0,0,0,0,5.38,5.38,4.62,6.92,3.08,F,20_24
1,9,4231136,0,11.54,3.85,1.54,13.08,5.38,11.54,5.38,2.31,5.38,6.92,9.23,13.85,5.38,10,4.62,13.08,11.54,14.62,7.69,F,20_24
2,16,17974402,0,10.77,6.92,7.69,7.69,9.23,7.69,10.77,9.23,11.54,6.15,6.92,8.46,6.15,7.69,1.54,10,6.92,8.46,8.46,F,20_24
3,18,18098699,0,0,0,0,0,0,0,0,0,0,0,0,0,0,0,0,0,0,0,0,F,20_24
4,20,7493381,5.38,7.69,9.23,7.69,6.92,3.85,10.77,8.46,7.69,10,5.38,10,11.54,6.92,7.69,12.31,3.85,5.38,6.92,13.08,F,20_24
5,21,41670903,0,0,0,0,0,0,0,0,0,0,0,0,0,0,0,0,0,0,0,0.81,F,20_24
6,24,22425216,0,0,0.77,0,2.31,0,0,1.54,2.31,4.62,0,3.08,0,0.77,6.92,9.23,10,10,11.54,8.46,F,20_24
7,25,7253162,7.69,6.15,6.15,6.92,10.77,13.08,13.85,11.54,7.69,10.77,3.08,7.69,8.46,6.92,6.92,5.38,10,9.23,6.92,12.31,F,20_24
8,29,27519401,0,11.54,10.77,10,13.85,10.77,8.46,11.54,14.62,13.08,12.31,12.31,10,13.08,11.54,14.62,11.54,9.23,8.46,8.46,F,20_24
9,30,7858550,10.77,5.38,9.23,0,3.85,7.69,6.92,9.23,12.31,12.31,15.38,13.85,10,11.54,16.15,16.92,15.38,13.85,6.92,10,F,20_24
10,31,22780689,0,0,0,0.77,13.85,14.62,10.77,4.62,3.85,3.85,3.08,2.31,9.23,9.23,13.85,10,7.69,9.23,13.08,9.23,F,20_24
11,32,22498406,0,16.15,15.38,16.92,9.23,14.62,14.62,10.77,8.46,12.31,6.15,12.31,8.46,12.31,16.15,10,10,10.77,10,8.46,F,20_24
12,34,8260034,8.46,9.23,2.31,0.77,4.62,9.23,2.31,4.62,0.77,1.54,5.38,0,1.54,4.62,0,3.08,5.38,3.08,0.77,2.31,F,20_24
13,35,4788351,1.62,0.69,5.31,1.62,6.23,9.23,3.92,6.92,3.92,2.31,4.62,6.92,4.62,6.23,3.92,20.77,4.62,3.92,0,0,F,20_24
14,43,18823002,0.77,4.62,6.92,6.15,5.38,7.69,9.23,10,9.23,11.54,10,7.69,5.38,5.38,6.15,4.62,8.46,10.77,10,10.77,F,20_24
15,45,15720572,3.81,4.62,10.04,0,1.5,0.81,3.12,6.92,3.81,8.42,8.42,6.92,2.31,6.12,4.62,4.62,10.73,8.42,6.12,5.42,F,20_24
16,46,7582025,7.69,0,0,0,0,0,0,0,0,0,0,0,0,0,0,0,0,0,0,4,F,20_24
17,48,26027728,0,10.77,7.69,9.23,9.23,8.46,5.38,13.08,4.62,6.15,8.46,9.23,10.77,7.69,10,10,10,12.31,10.77,6.15,F,20_24
0,4,8294292,10,3.08,10,3.08,10,15.38,16.15,12.31,10.77,6.15,8.46,16.92,16.15,10,11.54,2.31,16.15,7.69,13.85,9.23,F,25_34
1,5,7560433,13.15,5.31,9.23,17.77,16.85,14.54,16.15,16.85,15.46,13.85,16.15,6.23,13.15,11.54,9.92,8.54,16.15,17.77,16.85,12.23,F,25_34
2,6,6725745,0.69,3,8.54,9.23,11.54,8.54,8.54,7.62,8.54,9.23,9.23,19.15,7.62,6.23,9.92,7.62,5.31,9.92,16.15,6.23,F,25_34
3,8,25165601,0,3.12,0.81,3.12,3.12,7.73,1.5,0.81,0.81,3.81,4.62,0,0.81,0,0.81,3.12,3.81,2.31,1.5,3.81,F,25_34
4,9,26400335,15,12.69,12.69,8.08,10.38,1.15,10.38,13.85,0,0,0,2.31,4.62,10.38,0,0,0,10.38,4.62,12.69,F,25_34
5,10,11800911,9.23,8.46,8.46,6.15,8.46,8.46,8.46,8.46,6.15,10.77,10,12.31,13.08,13.08,16.15,13.08,16.15,14.62,12.31,9.23,F,25_34
6,12,1688321,8.46,16.92,18.46,13.08,10,6.15,13.08,17.69,17.69,17.69,14.62,20.77,20,13.85,14.62,18.46,28.46,36.15,23.85,22.31,F,25_34
7,13,27479916,0.77,6.15,1.54,10.77,11.54,13.85,12.31,14.62,14.62,14.62,13.08,12.31,16.15,13.85,10.77,16.92,18.46,18.46,10.77,14.62,F,25_34
8,21,745971,0,0,0,0,4.58,23.15,7,0,0,0,0,0,0,0,0,0,0,0,0,0,F,25_34
9,22,18865876,0,3.85,4.62,5.38,3.85,7.69,6.92,4.62,6.15,11.54,12.31,6.92,10.77,6.15,1.54,0.77,5.38,6.15,7.69,4.62,F,25_34
10,23,7726458,11.54,13.08,10,10,10.77,14.62,11.54,10,15.38,12.31,13.08,11.54,13.85,12.31,9.23,16.15,8.46,10.77,15.38,10.77,F,25_34
11,25,11019013,0,0,0,0,0,0,0,0,0,0,0,0,0,0,0,0,0,0,0,0,F,25_34
12,26,28809104,7,7,7.81,9.96,10.77,0,7,10.77,8.35,10.77,7.81,9.96,23.15,10.77,11.58,8.35,12.38,13.73,4.58,9.96,F,25_34
13,28,7493381,5.38,6.15,8.46,8.46,12.31,10,6.15,10,7.69,8.46,3.85,9.23,9.23,8.46,8.46,10.77,10,13.85,6.15,6.15,F,25_34
14,29,9515655,16.85,9.92,6.23,9.23,15.46,9.92,5.31,6.92,6.23,6.23,3.92,2.31,7.62,6.92,6.92,12.23,7.62,9.92,3.92,5.31,F,25_34
15,31,26303897,6.92,13.85,14.62,14.62,13.08,12.31,8.46,7.69,12.31,0.77,5.38,8.46,10,8.46,10.77,11.54,16.15,13.85,12.31,3.08,F,25_34
16,34,39703793,0,5.38,10,1.54,2.31,2.31,0,0,0,0,0,0,0,0,0,0,3.85,5.38,0,1.54,F,25_34
17,35,2847169,13.19,1.62,0,0.81,0,4.58,12.38,1.62,2.96,23.15,9.96,0,0,0,7.81,2.96,1.62,5.38,6.19,0,F,25_34
18,36,4227042,9.92,8.54,6.23,7.62,6.92,8.54,4.62,13.15,6.92,5.31,9.23,3,4.62,3.92,7.62,9.92,8.54,10.85,3,8.54,F,25_34
19,40,12312831,1.62,13.19,9.15,0,7.81,14.54,22.35,23.15,10.77,19.92,15.35,20.73,10.77,25.31,10.77,17.77,18.58,9.96,11.58,13.19,F,25_34
20,41,30987781,1.54,1.54,0.77,0,0,1.54,4.62,0,3.08,3.08,3.85,5.38,1.54,1.54,4.62,2.31,6.92,3.85,4.62,0,F,25_34
21,42,3406726,11.54,3.92,3,11.54,14.54,13.85,13.15,12.23,13.15,19.15,20.77,21.46,19.15,9.23,4.62,20.08,19.15,20.08,12.23,11.54,F,25_34
22,43,16738260,10,8.46,7.69,10,11.54,10,11.54,12.31,12.31,11.54,13.08,13.08,12.31,14.62,13.08,13.85,13.85,15.38,13.08,8.46,F,25_34
23,44,7009539,11.54,7.62,6.23,6.23,6.92,7.62,3.92,6.23,3.92,19.15,16.15,9.92,6.23,10.85,13.15,13.85,4.62,11.54,9.92,6.23,F,25_34
24,45,6962263,3.08,9.23,11.54,15.38,15.38,11.54,16.15,13.85,9.23,16.92,18.46,18.46,16.15,8.46,10.77,17.69,18.46,13.08,12.31,17.69,F,25_34
25,46,2670167,0,0,0,0,0,0,0,0,0,0,0,0,0,0,0,0,0,0,0,0,F,25_34
26,47,7680101,10.85,10.85,5.31,15.46,9.23,3,15.46,21.46,12.23,10.85,15.46,16.85,9.92,13.85,12.23,13.15,6.92,20.77,14.54,8.54,F,25_34
27,48,620068,5.42,9.23,3.12,0.81,8.42,1.5,0,6.12,1.5,3.12,7.73,3.81,6.12,4.62,2.31,0.81,6.12,5.42,4.62,7.73,F,25_34
28,52,2738510,0,16.15,10,13.08,13.08,0.77,7.69,11.54,13.85,10,16.15,10.77,15.38,10,3.08,16.15,16.92,16.92,10,11.54,F,25_34
29,53,3597286,5.38,10.77,13.08,4.62,7.69,3.85,13.85,8.46,8.46,13.85,12.31,10,7.69,3.08,4.62,8.46,12.31,10.77,10.77,7.69,F,25_34
30,54,3252460,6.92,0,0,0,0,0,0,0,0,0,0,0,0,5.38,13.85,8.46,5.38,4.62,3.85,1.54,F,25_34
31,55,15853348,3.08,6.92,12.31,9.23,16.92,7.69,14.62,10,9.23,3.08,12.31,13.85,14.62,10.77,13.08,8.46,13.85,16.15,15.38,9.23,F,25_34
32,59,1547539,13.19,0,0,0,0,0,0,0,0,0,0,0,0,0,0,0,0,0,5.38,11.58,F,25_34
33,60,21219293,0,6.92,11.54,10,6.92,9.23,12.31,2.31,7.69,9.23,6.92,10.77,10,6.15,1.54,10.77,15.38,12.31,10.77,12.31,F,25_34
34,61,7036032,2.31,7.69,10,9.23,9.23,8.46,8.46,7.69,9.23,6.92,6.92,10,10.77,12.31,10.77,10,10.77,10.77,6.15,3.85,F,25_34
35,62,25407510,0,5.31,6.23,6.23,6.23,9.23,3.92,7.62,6.92,3.92,7.62,6.23,5.31,13.15,3.92,8.54,7.62,9.23,11.54,19.15,F,25_34
36,63,8202188,8.46,13.85,9.23,6.15,4.62,9.23,13.85,13.08,11.54,13.08,10.77,6.92,14.62,2.31,6.92,10.77,10,12.31,11.54,6.92,F,25_34
37,64,205387,8.35,6.19,4.58,3.77,2.42,4.58,12.38,8.35,9.15,11.58,10.77,5.38,2.42,7.81,2.42,2.42,7.81,7.81,0.81,7.81,F,25_34
38,65,302682,2.31,2.31,9.23,0,0.77,3.08,0.77,3.85,5.38,6.92,8.46,0.77,6.92,11.54,8.46,3.85,0.77,5.38,3.85,1.54,F,25_34
39,65,307958,2.31,0,0.81,7.73,6.92,8.42,2.31,0,3.81,6.92,2.31,3.12,8.42,10.73,9.23,2.31,8.42,10.73,10.04,4.62,F,25_34
40,68,7839621,0,0,0,0,0,0,0,0,0,0,0,0,0,0,0,0,0,0,0,0,F,25_34
41,69,1770110,9.23,8.46,8.46,2.31,10,9.23,12.31,5.38,10,9.23,9.23,8.46,2.31,0.77,10,12.31,10,13.08,10,4.62,F,25_34
42,72,2736586,0,0,0,0,0,0,0,0,0,0,0,0,0,0,0,0,0,0,0,0,F,25_34
44,74,38388751,6.15,3.08,4.62,5.38,2.31,3.08,2.31,4.62,6.15,6.15,3.85,4.62,2.31,3.85,0,3.08,6.92,7.69,8.46,6.92,F,25_34
45,75,646090,6.15,0.77,0.77,5.38,0.77,3.08,0.77,0,0,0,0,0,1.54,0,0,0,0,0,0,6.92,F,25_34
46,76,7435442,5.38,10,6.92,12.31,7.69,13.08,15.38,16.15,10,13.85,1.54,6.15,11.54,7.69,6.92,9.23,9.23,12.31,15.38,5.38,F,25_34
47,79,21337326,0,5.38,6.92,10.77,7.69,6.92,7.69,8.46,10.77,14.62,10,8.46,12.31,3.08,3.08,3.85,6.92,5.38,10,5.38,F,25_34
48,80,203511,3,5.31,3.92,3.92,4.62,6.92,5.31,6.23,3.92,7.62,8.54,5.31,4.62,8.54,2.31,0,1.62,6.23,3.92,5.31,F,25_34
49,84,8839118,8.46,13.08,13.08,10.77,13.08,11.54,12.31,10,13.85,8.46,13.08,11.54,13.85,7.69,10.77,8.46,10,13.85,13.08,7.69,F,25_34
50,86,1829263,10,8.46,11.54,6.92,13.08,12.31,15.38,14.62,8.46,16.92,2.31,9.23,10,10,12.31,12.31,10,15.38,12.31,7.69,F,25_34
51,88,10721665,0,13.08,13.85,10,13.85,3.08,8.46,10.77,12.31,13.08,13.85,10,10.77,11.54,13.08,9.23,8.46,9.23,13.08,5.38,F,25_34
52,90,37919528,0,12.31,7.69,8.46,13.85,16.15,10,8.46,4.62,17.69,14.62,12.31,13.08,10,14.62,8.46,7.69,18.46,17.69,9.23,F,25_34
53,91,764698,2.31,6.15,11.54,0,2.31,8.46,4.62,6.92,0,6.92,5.38,11.54,12.31,9.23,11.54,16.15,10,7.69,6.15,13.08,F,25_34
54,96,8977117,3,0.69,6.92,13.15,20.77,21.46,16.15,16.15,13.85,14.54,16.85,15.46,12.23,13.15,12.23,10.85,12.23,21.46,17.77,14.54,F,25_34
55,97,7250932,4.62,9.92,0,0,3.92,6.92,4.62,10.85,8.54,6.92,7.62,6.92,10.85,9.92,7.62,6.23,10.85,11.54,6.92,11.54,F,25_34
56,98,19259779,0,10,10.77,2.31,0,0,0,0,0,0,0,0,0,0,0,0,3.08,8.46,7.69,13.08,F,25_34
57,99,30759327,0,4.62,5.38,6.92,5.38,4.62,5.38,10,10,10,4.62,11.54,7.69,8.46,6.15,10,12.31,9.23,10,4.62,F,25_34
58,104,29874679,0,0,0,0,0,0,0,0,0,0,0,0,0,0,0,0,0,0,0,0,F,25_34
59,106,4249312,0,0,0,0,0,0,0,0,0,0,0,0,0,0,0,0,0,0,0,0,F,25_34
60,108,1951131,4.62,0,0,0,0,0,0,0,0,0,6.92,6.12,6.12,5.42,6.92,0.81,6.92,4.62,3.81,1.5,F,25_34
61,110,8272718,0,17.69,10.77,7.69,6.92,13.08,7.69,8.46,8.46,10.77,10,13.08,10,6.15,11.54,9.23,12.31,15.38,12.31,3.85,F,25_34
62,118,28440884,0,9.23,9.23,6.23,6.92,6.23,5.31,10.85,4.62,3.92,13.85,9.92,9.92,13.15,9.23,11.54,7.62,3,12.23,14.54,F,25_34
63,119,2653767,10.77,9.15,13.19,0,6.19,8.35,12.38,13.19,8.35,13.73,14.54,17.77,17.77,18.58,16.96,19.92,13.73,16.15,8.35,13.19,F,25_34
64,120,13307375,0,5.38,3.08,5.38,4.62,22.31,7.69,8.46,13.08,5.38,7.69,3.08,19.23,0,6.92,12.31,23.08,13.08,12.31,13.85,F,25_34
65,121,2028830,1.5,0,0,1.5,2.31,1.5,2.31,5.42,2.31,4.62,7.73,4.62,6.92,6.92,5.42,9.23,5.42,3.12,4.62,8.42,F,25_34
66,124,1676396,0.92,6.15,7.08,0,0.92,7.08,13.85,14.77,15.38,19.38,16.92,7.08,8.62,15.38,17.54,16.31,10.77,17.54,11.69,10.15,F,25_34
67,127,32079115,2.31,10.77,12.31,14.62,10,10,0,9.23,7.69,10.77,8.46,13.08,8.46,9.23,11.54,8.46,11.54,10.77,13.08,4.62,F,25_34
68,129,14276886,10,6.92,13.08,1.54,4.62,5.38,6.92,13.08,9.23,10,11.54,11.54,11.54,13.08,6.92,9.23,13.08,10.77,13.85,11.54,F,25_34
69,130,3877499,3.85,0.77,3.08,2.31,3.08,3.08,1.54,3.08,2.31,6.92,2.31,1.54,0,5.38,5.38,6.15,6.92,2.31,4.62,3.08,F,25_34
70,132,1402315,7.85,9.23,7.85,6,6.92,12.92,13.85,12.46,7.85,7.85,7.85,13.85,12.46,4.62,12.46,13.85,12.92,10.62,9.23,6,F,25_34
71,134,6544197,6.15,6.15,8.46,6.15,5.38,6.92,8.46,9.23,11.54,8.46,5.38,10,7.69,9.23,7.69,6.92,3.85,10,8.46,3.85,F,25_34
72,136,8696732,5.42,8.42,8.42,6.92,3.81,10.04,10.04,6.92,7.73,7.73,9.23,6.92,4.62,3.12,9.23,7.73,1.5,5.42,3.12,6.12,F,25_34
73,137,26771240,0,0,0,0,0,0,0,0,0,0,0,0,0,0,0,0,0,0,0,0,F,25_34
74,138,20902887,4.62,1.5,0,0,1.5,0,0,1.5,2.31,4.62,1.5,6.12,0,0,1.5,0.81,0,0,0,0,F,25_34
75,139,12283261,0,3.85,10.77,0.77,0.77,4.62,4.62,10.77,1.54,12.31,10.77,6.92,2.31,3.85,0,0,0,0.77,9.23,8.46,F,25_34
76,140,20499176,0,3.81,5.42,7.73,4.62,4.62,3.12,8.42,0,2.31,1.5,3.12,6.92,5.42,10.04,3.12,10.04,6.12,5.42,3.81,F,25_34
77,141,6348331,6.92,10,5.38,2.31,10.77,10.77,7.69,7.69,10.77,6.15,7.69,9.23,13.08,9.23,7.69,8.46,7.69,8.46,7.69,13.85,F,25_34
78,144,597092,0,0,0,0,0,3.12,7.73,0,0,0,0,0,0,0,0,0,0,0,0,0,F,25_34
79,145,3376949,0,0,0,0,0,0,0,0,0,0,0,0,0,0,0,0,0,0,0,0,F,25_34
80,147,3560997,0,0,11.54,12.31,10,10.77,10.77,13.85,13.85,10,11.54,10.77,9.23,11.54,10,9.23,9.23,6.92,3.85,6.15,F,25_34
81,152,7568354,5.42,2.31,0.81,4.62,5.42,3.12,2.31,0,0,0.81,9.23,0,0,1.5,1.5,2.31,0.81,3.81,2.31,1.5,F,25_34
82,154,14825498,0,10,0,3.08,8.46,10.77,5.38,11.54,11.54,13.08,14.62,15.38,16.15,13.85,10.77,15.38,10.77,9.23,0,13.08,F,25_34
83,159,408826,1.5,4.62,9.23,3.81,4.62,6.12,6.12,6.12,6.92,6.92,3.12,3.81,3.12,8.42,7.73,6.12,7.73,7.73,2.31,3.12,F,25_34
84,162,4547249,0,0,3.08,4.62,0.77,7.69,10.77,6.15,7.69,6.92,4.62,0,6.15,3.85,5.38,4.62,6.92,10,6.92,3.08,F,25_34
85,163,20368203,0,10,4.62,11.54,10.77,6.15,2.31,7.69,9.23,7.69,7.69,5.38,11.54,12.31,15.38,16.92,5.38,13.85,13.85,9.23,F,25_34
86,166,26831737,12.23,0,0,0,0,0,0,0,0,0,0,0,0,0,0,0,0,0,12.23,9.92,F,25_34
87,167,3965607,10.77,10,6.15,6.92,15.38,10,11.54,10,10.77,10,0,0,7.69,10.77,13.08,10.77,7.69,10,14.62,9.23,F,25_34
88,169,26789015,6.15,0,0,0,0,0,0,0,0,0,0,0,0,11.54,0,0,9.23,7.69,9.23,6.92,F,25_34
89,171,18751274,0,1.54,3.85,4.62,9.23,1.54,3.08,3.85,5.38,6.15,3.08,2.31,7.69,8.46,5.38,1.54,1.54,0,0,0,F,25_34
90,173,4317709,0,0,0,0,0,0,0,0,0,0,0,0,0,0,0,0,0,0,0,0,F,25_34
91,175,631876,11.54,8.46,7.69,4.62,8.46,10.77,7.69,6.92,10,6.92,11.54,6.15,10.77,9.23,10,14.62,3.85,14.62,8.46,6.92,F,25_34
92,176,6505598,0.81,0.81,0,0,0,0,0,0,2.31,4.62,1.5,5.42,3.12,7.73,4.62,2.31,9.23,6.12,3.81,5.42,F,25_34
93,177,20587735,0,0,0,0,0,0,0,0,0,0,0,0,0,0,0,0,0,0,0,0,F,25_34
94,178,17449696,0.69,1.62,20.08,0,1.62,0.69,4.62,5.31,3.92,2.31,0.69,0,3.92,6.92,4.62,9.92,14.54,6.23,10.85,2.31,F,25_34
95,180,13608653,5.38,8.46,5.38,3.08,4.62,3.85,7.69,9.23,10,7.69,7.69,16.15,8.46,12.31,10.77,10,10,16.15,16.15,12.31,F,25_34
1,2,7750235,10,11.54,10.77,4.62,10,10,10,14.62,7.69,11.54,2.31,9.23,11.54,13.08,13.85,10,16.15,13.08,16.15,11.54,F,35_44
4,6,19515952,0,0,0,0,0,0,0,0,0,0,0,0,0,0,0,0,0,0,0,0,F,35_44
5,7,356358,0,13.15,9.92,11.54,11.54,9.23,6.92,9.92,13.85,11.54,14.54,13.85,13.15,14.54,15.46,15.46,15.46,14.54,13.15,14.54,F,35_44
7,9,8370121,7.81,7,8.35,7,7.81,14.54,17.77,19.92,9.15,23.96,16.15,20.73,12.38,11.58,7,21.54,15.35,7,9.96,6.19,F,35_44
8,10,18260272,0,0,0,0,0,0,0,0,0,3.08,0,2.31,0,10,6.15,15.38,1.54,7.69,6.15,6.92,F,35_44
9,12,8149665,8.54,9.23,6.92,7.62,10.85,8.54,13.15,6.23,9.23,8.54,12.23,20.77,7.62,6.92,8.54,14.54,15.46,10.85,7.62,12.23,F,35_44
10,13,3797919,9.15,14.54,16.15,13.73,16.96,8.35,11.58,1.62,7.81,2.96,14.54,19.92,19.12,23.96,18.58,9.96,9.15,19.92,15.35,17.77,F,35_44
12,19,7857123,6.92,4.62,3.08,3.85,5.38,10,4.62,8.46,5.38,7.69,12.31,6.92,9.23,8.46,13.85,6.92,5.38,11.54,9.23,5.38,F,35_44
13,21,1547539,3.08,13.08,11.54,10.77,12.31,5.38,8.46,3.08,11.54,10.77,13.08,13.08,12.31,13.08,11.54,12.31,10.77,16.15,7.69,9.23,F,35_44
14,23,14721337,13.85,6.92,11.54,10.85,8.54,9.23,6.92,14.54,20.77,9.92,15.46,7.62,11.54,21.46,9.92,14.54,11.54,16.15,10.85,7.62,F,35_44
15,24,3823169,0.77,6.15,6.92,4.62,9.23,10,9.23,8.46,2.31,12.31,0,3.08,4.62,8.46,5.38,10.77,6.15,4.62,6.15,4.62,F,35_44
16,25,26938842,0,6.92,6.92,10.85,11.54,13.15,13.15,6.23,16.15,8.54,19.15,14.54,14.54,13.15,6.92,14.54,14.54,14.54,6.23,13.15,F,35_44
17,28,148287,20.08,9.23,11.54,8.54,6.23,11.54,3,10.85,13.15,6.92,9.23,9.92,9.92,14.54,9.92,13.15,12.23,11.54,5.31,11.54,F,35_44
18,29,26191738,0,17.77,14.54,16.15,16.15,16.15,15.35,12.38,23.15,13.19,0,4.58,13.73,15.35,11.58,15.35,16.15,18.58,10.77,11.58,F,35_44
19,32,182287,1.5,0,0,1.5,1.5,0.81,3.12,4.62,2.31,1.5,2.31,0.81,1.5,2.31,2.31,3.12,3.12,1.5,2.31,1.5,F,35_44
20,34,27492965,3.08,8.46,10,7.69,6.92,10.77,9.23,11.54,13.85,12.31,14.62,15.38,15.38,15.38,8.46,5.38,3.08,12.31,16.92,6.15,F,35_44
21,35,14079075,3.08,6.15,5.38,3.08,0,0,0,0,3.85,5.38,10,12.31,16.15,10,3.85,7.69,8.46,8.46,3.08,3.08,F,35_44
22,36,10937038,0,0,0,0,0,0,0,0,0,0,0,0,0,0,0,0,0,0,0,0,F,35_44
23,37,4412469,0.77,10,11.54,11.54,10,12.31,10,7.69,6.92,13.08,13.85,10,12.31,12.31,8.46,11.54,1.54,8.46,9.23,6.92,F,35_44
24,38,349170,3.08,0,5.38,2.31,1.54,1.54,6.15,9.23,3.08,2.31,3.85,2.31,5.38,10,6.15,9.23,10.77,10,7.69,5.38,F,35_44
25,39,4218798,12.23,5.31,19.15,6.92,6.23,12.23,13.85,12.23,9.23,11.54,2.31,4.62,9.23,9.23,9.92,9.92,12.23,11.54,13.15,8.54,F,35_44
26,41,37760556,3.77,0,0,0,0,0,0,0,0,0,0,0,0,0,0,0,0,0,0,2.42,F,35_44
27,42,2591823,0,0,0,0,0,0,0,0,0,0,0,0,0,0,0,0,0,0,0,0,F,35_44
28,43,124425,0,0,3.81,0,3.12,2.31,1.5,8.42,5.42,6.92,7.73,9.23,10.04,0.81,6.12,3.81,3.81,1.5,0,6.12,F,35_44
29,44,18180125,22.46,7.69,10.77,10.77,13.85,9.23,24.62,10.77,13.85,7.08,12.31,2.46,8.62,12.31,9.23,6.15,9.23,11.69,11.69,8.62,F,35_44
30,45,12752415,5.31,0,0,0,0,0,0,0,0,0,0,0,19.15,3.92,14.54,13.85,18.46,15.46,9.92,15.46,F,35_44
31,47,9366141,0,0,0,0,0,0,0,0,0,0,0,0,0,0,0,0,0,0,0,0,F,35_44
32,49,172034,3.85,0,0,0,0,0,0,0,0,0,0,0,0,0,0,0,0,3.08,3.08,5.38,F,35_44
33,51,25921774,10.85,0,0,0,0,0,0,0,0,0,0,0,0,0,0,0,0,0,12.23,7.62,F,35_44
34,52,5995426,0,0,0,0,0,0,0,0,0,0,0,0,0,0,0,0,0,0,0,0,F,35_44
35,53,2068058,11.54,8.46,11.54,8.46,6.15,5.38,13.08,9.23,13.08,9.23,7.69,1.54,10,8.46,13.08,15.38,6.92,15.38,10.77,7.69,F,35_44
36,56,769985,3.85,4.62,3.08,6.15,3.85,7.69,8.46,6.15,6.92,8.46,7.69,9.23,8.46,6.92,13.08,7.69,3.08,6.15,10,3.85,F,35_44
37,61,13436203,0,10.15,1.54,5.54,10.15,3.08,15.38,1.54,17.54,13.85,13.23,10.15,0,7.69,10.15,10.15,13.23,12.31,4.62,4.62,F,35_44
38,63,1861652,3.85,10,9.23,7.69,6.15,4.62,16.92,6.92,10.77,6.92,10.77,9.23,10,17.69,2.31,6.15,3.08,0.77,1.54,3.85,F,35_44
39,64,4023266,16,1.5,15.5,28.5,30,37,17.5,31.5,29,24.5,24.5,49,31.5,24,16,11,31,27,19,14,F,35_44
40,65,3487920,2.31,10,6.15,10.77,8.46,9.23,12.31,12.31,12.31,6.92,10.77,11.54,13.08,13.08,8.46,11.54,12.31,9.23,9.23,11.54,F,35_44
41,71,1958651,0,0,0,0,0,0,0,0,0,0,0,0,0,0,0,0,0,0,0,0,F,35_44
42,72,1886022,1.54,5.38,13.85,13.85,11.54,16.15,18.46,14.62,13.08,11.54,2.31,4.62,2.31,9.23,10.77,7.69,6.15,15.38,18.46,12.31,F,35_44
43,74,10741697,3.12,0,0,0,0.81,0,0,0,0.81,0.81,4.62,0,9.23,5.42,3.12,1.5,4.62,10.73,5.42,6.12,F,35_44
44,76,3544396,0,0,0,0,0,0,0,0,0,0,0,0,0,0,5.38,0,2.31,0,0,0,F,35_44
45,77,296546,4.62,9.23,8.46,3.08,6.92,12.31,10.77,6.15,12.31,11.54,10,11.54,12.31,10,11.54,6.92,15.38,13.85,8.46,17.69,F,35_44
46,79,7615658,0,0,0,0,0,0,0,0,0,0,0,0,0,0,0,0,0,0,0,0,F,35_44
47,80,6066,4.62,0,0,0,0,0,0,0,0,1.54,0,0,0,0,0,0,0,0,0,0,F,35_44
48,83,49128481,0,0,0,0,0,0,0,0,0,0,0,0,0,0,0,0,0,0,0,0,F,35_44
49,84,13304647,13.08,16.92,18.46,8.46,12.31,12.31,12.31,10.77,11.54,3.85,9.23,10.77,10.77,12.31,12.31,11.54,13.08,10,6.15,10,F,35_44
50,85,13887062,0,0,0,0,0,3.08,4.62,3.85,4.62,11.54,11.54,10.77,14.62,8.46,6.92,13.08,13.08,11.54,11.54,8.46,F,35_44
51,87,15642345,5.38,1.54,0,0,1.54,6.15,3.85,1.54,4.62,6.92,6.15,1.54,5.38,4.62,4.62,5.38,8.46,0,6.15,3.85,F,35_44
52,88,4608755,0.81,3.81,4.62,1.5,3.12,3.12,5.42,3.81,6.92,7.73,0.81,0,8.42,8.42,6.92,6.12,5.42,9.23,7.73,4.62,F,35_44
53,90,18047093,0,0,0,0,0,0,0,0,0,0,0,0,0,0,0,0,0,0,0,0,F,35_44
54,91,200428,11.54,8.46,14.62,8.46,11.54,10.77,5.38,10.77,7.69,12.31,10.77,8.46,12.31,12.31,10.77,12.31,6.15,9.23,12.31,9.23,F,35_44
55,93,21399228,0,0,0,0.77,6.92,11.54,0,1.54,6.15,6.15,8.46,10.77,13.08,9.23,12.31,10,13.08,10,12.31,6.92,F,35_44
56,94,29204019,1.5,2.31,6.12,6.12,6.92,7.73,4.62,8.42,3.81,5.42,2.31,4.62,4.62,6.92,0.81,3.81,8.42,2.31,6.12,1.5,F,35_44
57,95,1460905,7.69,10,14.62,16.92,15.38,14.62,14.62,14.62,16.15,16.15,14.62,16.92,17.69,10.77,16.92,18.46,15.38,16.15,15.38,13.08,F,35_44
58,97,5502085,10.77,7.69,6.92,7.69,8.46,9.23,10.77,10,7.69,8.46,16.15,13.85,10,11.54,10.77,10.77,9.23,8.46,5.38,12.31,F,35_44
59,98,8710957,0,0,0,0,0,0,0,0,0,0,0,0,0,0,0,0,0,0,0,0,F,35_44
60,99,739881,0,6.92,6.92,4.62,8.42,8.42,8.42,3.12,5.42,9.23,9.23,6.92,7.73,7.73,6.92,8.42,7.73,0.81,4.62,4.62,F,35_44
61,102,783700,4.62,5.38,0.77,5.38,3.85,6.15,5.38,5.38,2.31,2.31,3.85,8.46,2.31,10,8.46,3.85,11.54,8.46,5.38,0.77,F,35_44
62,104,1648628,0,0,0,0,0,0,0,0,0,0,0,0,0,0,0,0,0,0,0,0,F,35_44
63,105,15301435,6.19,4.58,6.19,6.19,7,7.81,3.77,5.38,4.58,6.19,2.96,7,7,2.42,2.96,2.42,0,5.38,9.15,4.58,F,35_44
64,107,2325742,12,4,8,16,8,12,8,12,8,12,0,4,8,12,12,12,8,4,12,4,F,35_44
65,108,2483782,0.69,15.46,14.54,9.92,9.92,14.54,5.31,13.15,9.23,10.85,12.23,12.23,11.54,10.85,10.85,8.54,9.23,12.23,7.62,5.31,F,35_44
66,109,1667805,4.62,6.15,3.08,10,8.46,10,12.31,7.69,11.54,11.54,11.54,10.77,9.23,6.92,11.54,13.08,10,11.54,3.08,0,F,35_44
67,111,4269490,4.62,3.92,2.31,15.46,0,3.92,0,11.54,8.54,0,7.62,6.23,7.62,5.31,9.92,6.23,8.54,6.92,6.92,6.23,F,35_44
68,112,1833620,0,0,0,0,0,0,0,0,0,0,0,0,0,0,0,0,0,0,0,0,F,35_44
69,113,3466732,0,0,0,0,0,0,0,0,0,0,3.85,10,7.69,4.62,5.38,3.85,9.23,8.46,8.46,3.08,F,35_44
70,114,527871,11.54,0,0,0,0,0,0,0,0,0,0,0,10,12.31,6.92,13.08,15.38,13.85,6.15,13.08,F,35_44
71,115,3373261,5.38,6.15,10.77,7.69,6.92,8.46,0,4.62,5.38,5.38,5.38,5.38,8.46,0,0,12.31,0,0,8.46,2.31,F,35_44
72,118,4257279,7.69,6.15,5.38,3.85,7.69,7.69,7.69,6.92,9.23,5.38,7.69,5.38,9.23,13.08,10.77,5.38,13.85,9.23,8.46,6.15,F,35_44
73,119,5033871,10.77,11.54,7.69,13.08,8.46,10,10,9.23,13.08,8.46,6.15,5.38,2.31,4.62,12.31,9.23,13.85,12.31,10,10,F,35_44
74,122,343219,5.38,10.77,9.23,3.85,3.08,9.23,0.77,2.31,9.23,0,2.31,5.38,6.15,3.85,1.54,0,0,0,0,0,F,35_44
75,125,14320652,1.54,5.38,6.15,7.69,1.54,5.38,6.15,6.15,10.77,8.46,10.77,10,7.69,10.77,13.85,11.54,9.23,10.77,6.15,7.69,F,35_44
76,126,12541583,0,9.23,0.81,1.5,0,3.12,0,0,0,1.5,4.62,3.81,0.81,3.12,0,3.12,3.81,3.81,1.5,1.5,F,35_44
77,129,179268,11.58,12.38,16.96,16.15,9.15,9.15,23.15,11.58,13.73,13.73,7,11.58,7.81,13.73,15.35,15.35,19.12,19.92,13.19,11.58,F,35_44
78,130,15144098,0,0,0,0,0,0,0,0,0,0,0,0,0,0,0,0,0,0,0,0,F,35_44
79,131,216443,6.15,2.31,0,5.38,3.08,3.08,2.31,3.08,6.92,1.54,0,5.38,7.69,9.23,4.62,7.69,10,5.38,2.31,1.54,F,35_44
80,132,37053834,5.42,0,0,0,0,0,0,0,0,0,0,0,0,0,0,0,6.12,7.73,1.5,1.5,F,35_44
81,133,36497661,3.08,8.46,7.69,10.77,10.77,7.69,10.77,11.54,13.85,12.31,10,7.69,13.85,14.62,13.85,14.62,9.23,16.15,16.92,10,F,35_44
82,136,2815256,0,6.92,7.69,0.77,1.54,7.69,8.46,7.69,10.77,9.23,10.77,7.69,9.23,10.77,10.77,6.15,6.92,8.46,10,4.62,F,35_44
83,137,4548904,0,0,0,0,0,0,0,0,0,0,0,0,0,0,0,0,0,0,0,0,F,35_44
84,139,2028830,3,7.62,7.62,0,0,18.46,2.31,3,6.23,3.92,6.23,3,7.62,4.62,15.46,3,6.23,4.62,9.23,0,F,35_44
85,141,50188,0,0,0,0,0,0,0,0,0,0,0,0,0,0,0,0,0,0,0,0,F,35_44
86,143,12000976,1.54,6.15,11.54,9.23,6.15,10.77,11.54,0,0,1.54,0,5.38,9.23,14.62,10.77,12.31,7.69,6.92,8.46,6.15,F,35_44
87,144,3341596,0,5.54,0,1.54,0,5.54,0.92,3.08,0.92,7.08,5.54,3.08,29.23,4,4.62,7.08,1.54,5.54,0,4,F,35_44
88,145,23064749,0,0,0,0,0,0,0,0,0,0,0,0,0,0,0,0,0,0,0,0,F,35_44
89,146,1258817,0,0,6.15,6.15,5.38,8.46,11.54,1.54,13.85,5.38,4.62,10.77,13.08,4.62,6.92,5.38,12.31,10,5.38,4.62,F,35_44
90,148,2660553,3.08,2.31,0.77,5.38,5.38,4.62,9.23,9.23,8.46,3.85,9.23,0,7.69,1.54,4.62,9.23,9.23,10,1.54,11.54,F,35_44
91,149,21707452,0,0,0,0,0,0,0,0,0,0,0,0,0,0,0,0,0,0,0,0,F,35_44
92,150,3473874,12.31,15.38,8.46,14.62,15.38,12.31,6.92,11.54,0,3.85,7.69,6.15,8.46,10.77,4.62,8.46,10,10.77,7.69,7.69,F,35_44
93,151,4692420,0,11.77,11.77,0,588.46,11.77,11.77,5.88,5.88,11.77,5.88,5.88,5.88,5.88,5.88,11.77,5.88,5.88,5.88,5.88,F,35_44
94,153,325619,4.62,2.31,7.69,4.62,5.38,8.46,6.15,15.38,1.54,6.15,6.92,6.15,2.31,6.92,6.15,3.85,5.38,9.23,7.69,4.62,F,35_44
95,159,3591597,1.54,12.31,2.31,12.31,8.46,6.92,10.77,12.31,13.08,14.62,7.69,10.77,8.46,14.62,16.15,12.31,13.85,13.85,11.54,6.92,F,35_44
96,160,512658,0.81,1.5,3.12,3.81,3.12,6.12,3.81,1.5,6.12,6.92,4.62,7.73,3.12,4.62,6.12,3.81,2.31,0.81,1.5,0.81,F,35_44
97,169,1778276,1.54,7.69,6.15,6.15,6.15,0,6.92,9.23,0.77,0.77,4.62,5.38,7.69,2.31,4.62,7.69,10.77,3.85,2.31,14.62,F,35_44
98,170,26117807,8.46,8.46,6.92,6.92,6.15,6.15,5.38,6.92,6.15,6.92,4.62,6.15,6.92,4.62,10,7.69,6.92,10.77,7.69,7.69,F,35_44
99,171,5798077,3.85,0.77,4.62,5.38,6.92,6.92,7.69,6.15,6.15,6.15,8.46,7.69,10.77,8.46,6.92,6.92,3.85,7.69,7.69,3.08,F,35_44
100,172,2455657,0,0,0,0,0,0,0,0,0,0,0,0,0,0,0,0,0,0,0,0,F,35_44
101,173,15377324,0,0,0,0,0,0,0,0,0,0,0,0,0,0,0,0,0,0,0,0,F,35_44
102,174,12056171,0.77,4.62,3.85,4.62,3.08,6.92,7.69,1.54,7.69,6.92,5.38,7.69,10,13.08,6.92,9.23,8.46,8.46,6.15,3.08,F,35_44
103,175,3336296,8.46,7.69,7.69,6.15,0,0,6.15,6.92,4.62,10,4.62,10,9.23,10.77,11.54,14.62,16.15,18.46,9.23,8.46,F,35_44
0,1,50988887,0,0,0,0,0,0,0,0,0,0,0,0,0,1.54,0,1.54,3.85,0,0,0,F,45_54
1,5,182287,20.77,16.15,14.54,13.85,9.23,12.23,6.23,12.23,12.23,9.23,10.85,16.85,17.77,13.85,8.54,8.54,15.46,13.85,11.54,12.23,F,45_54
2,6,20298280,0,0,0,0,0,0,0,0,0,0,0,0,0,0,0,0,0,0,0,0,F,45_54
3,8,4269490,3,17.77,15.46,16.15,16.85,16.85,10.85,3.92,13.85,14.54,12.23,18.46,20.08,17.77,15.46,10.85,18.46,19.15,17.77,13.85,F,45_54
4,10,349170,7.69,6.92,9.23,6.15,12.31,8.46,8.46,6.92,6.92,6.15,10,0,3.85,10,12.31,13.08,11.54,7.69,13.08,6.92,F,45_54
5,11,17443224,0,0,0,0,0,0,0,0,0,0,0,0,0,0,0,0,0,0,0,0,F,45_54
6,12,1622304,4.62,3.08,6.15,5.38,4.62,9.23,5.38,1.54,3.85,8.46,9.23,7.69,12.31,10.77,8.46,18.46,10,11.54,9.23,6.15,F,45_54
7,13,7021253,0,0,0,0,0,0,0,0,0,0,0,0,0,0,0,0,0,0,0,0,F,45_54
8,15,23582630,0,32.15,24.54,5.5,37.65,5.5,6.35,21.58,7.62,37.65,19.88,23.27,8.46,25.38,20.73,12.27,17.77,19.88,30.04,23.69,F,45_54
9,16,5480780,7.62,13.15,12.23,20.08,18.46,9.92,13.85,10.85,7.62,11.54,7.62,8.54,12.23,10.85,8.54,13.15,10.85,9.92,13.15,3,F,45_54
10,17,2484858,9.23,15.38,10,7.69,16.92,14.62,13.08,0,3.85,10.77,13.85,6.92,6.92,9.23,10.77,12.31,16.92,7.69,7.69,6.15,F,45_54
11,19,815138,6.92,8.46,5.38,12.31,9.23,10.77,9.23,7.69,4.62,10,0.77,5.38,7.69,3.85,10,7.69,12.31,10,8.46,10,F,45_54
12,20,8249172,5.38,7.69,10.77,0,1.54,6.15,6.15,6.92,10.77,12.31,13.85,15.38,14.62,10.77,11.54,12.31,16.15,16.92,10,10.77,F,45_54
13,21,5846756,0,0,0,0,0,0,0,0,0,0,0,0,0,0,0,0,0,0,0,0,F,45_54
14,23,2730442,0,6.92,7.69,10,10,10.77,10,12.31,9.23,6.15,8.46,10.77,10.77,8.46,13.08,13.08,10,13.85,10.77,8.46,F,45_54
15,25,36634360,6.23,1.62,2.31,3.92,6.23,6.92,1.62,3,4.62,6.23,7.62,2.31,4.62,2.31,1.62,0.69,0,0.69,3.92,2.31,F,45_54
16,27,19690536,4.62,6.92,16.92,13.08,7.69,10,0,0,0,1.54,9.23,16.92,9.23,10,1.54,11.54,11.54,11.54,10,0.77,F,45_54
17,28,21195212,4.62,5.38,2.31,6.15,3.85,8.46,13.08,11.54,13.08,7.69,13.08,10.77,12.31,7.69,10,10.77,12.31,7.69,9.23,8.46,F,45_54
18,29,28635479,12.31,0,0,0,0,0,0,0,0,0,0,0.77,7.69,10,9.23,10.77,7.69,10.77,4.62,2.31,F,45_54
19,30,3905310,0,0,0,0,0,0,0,0,0,0,0,0,0,0,0,0,0,0,0,0,F,45_54
20,31,2000937,0.96,12.5,7.69,5.77,9.62,12.5,12.5,13.46,13.46,9.62,11.54,12.5,13.46,12.5,13.46,13.46,13.46,13.46,13.46,11.54,F,45_54
21,34,124425,7.62,8.46,11,5.08,14.38,16.92,11,10.15,9.31,13.54,6.77,80.38,11.85,15.23,10.15,5.08,10.15,15.23,13.54,8.46,F,45_54
22,38,1866015,0,0,0,0,0,0,0,0,0,0,0,0,0,0,0,0,0,0,0,0,F,45_54
23,40,2014292,0,9.23,7.73,4.62,10.04,4.62,8.42,6.92,6.92,7.73,9.23,6.12,7.73,8.42,9.23,10.04,6.92,3.81,0.81,4.62,F,45_54
24,41,3132661,1.54,12.31,9.23,11.54,11.54,7.69,13.08,12.31,18.46,1.54,5.38,10.77,10.77,10,9.23,11.54,0.77,9.23,10.77,10,F,45_54
25,42,2397782,5.31,6.23,5.31,17.77,9.23,11.54,7.62,12.23,10.85,10.85,9.92,7.62,19.15,15.46,14.54,7.62,10.85,9.92,11.54,9.23,F,45_54
26,43,25921774,0.77,6.15,7.69,10.77,11.54,10.77,16.92,11.54,15.38,13.85,13.08,10,12.31,9.23,10,12.31,10.77,13.85,14.62,8.46,F,45_54
27,46,35292829,0,6.92,3.85,3.85,4.62,5.38,1.54,3.08,4.62,6.92,1.54,6.15,7.69,7.69,6.15,6.15,13.08,9.23,7.69,2.31,F,45_54
28,47,48456864,11.54,6.92,7.69,9.23,10,10,8.46,8.46,8.46,4.62,6.15,9.23,11.54,1.54,5.38,9.23,9.23,16.15,11.54,7.69,F,45_54
29,48,3553464,0,0,0,0,0,0,0,0,0,0,0,0,0,0,0,0,0,0,0,0,F,45_54
30,50,2325742,0,7.81,9.96,10.77,14.54,16.96,24.5,14.54,8.35,9.96,1.62,6.19,4.58,9.15,9.96,9.15,9.15,9.96,9.96,6.19,F,45_54
31,53,1123512,0,0,0,0,0,0,0,0,0,0,0,0,0,0,0,0,0,0,0,0,F,45_54
32,56,6165495,0,0,0,0,0,0,0,0,0,0,0,0,0,0,0,0,0,0,0,0,F,45_54
33,59,5419838,0,0,0,0,0,0,0,0,0,0,0,0,0,0,0,0,0,0,0,0,F,45_54
34,60,644098,5.38,7,7,8.35,3.77,23.96,10.77,10.77,10.77,8.35,7,7.81,9.96,11.58,6.19,9.15,10.77,8.35,4.58,16.15,F,45_54
35,61,971525,9.23,6.23,9.23,13.15,16.85,14.54,8.54,16.85,10.85,9.92,10.85,9.23,13.85,20.77,16.15,12.23,11.54,12.23,14.54,11.54,F,45_54
36,65,11599548,0,0,0,8.46,0,0,0,0,0,0,4.62,4.62,7.69,2.31,8.46,2.31,3.85,0,5.38,6.92,F,45_54
37,66,22251819,14.54,9.15,3.77,5.38,2.96,3.77,6.19,3.77,2.42,23.96,16.15,17.77,19.12,16.96,18.58,13.19,10.77,12.38,14.54,9.96,F,45_54
38,67,7380405,12.31,6.15,6.92,2.31,6.15,10,10.77,12.31,11.54,11.54,10,10,9.23,9.23,14.62,14.62,16.15,16.15,13.85,9.23,F,45_54
39,68,18309343,9.23,16.92,12.31,5.38,3.85,5.38,15.38,10,16.15,16.92,16.92,13.85,16.92,16.15,14.62,18.46,13.85,17.69,8.46,13.08,F,45_54
40,69,1667805,3.08,8.46,11.54,13.85,15.38,16.15,15.38,12.31,7.69,11.54,2.31,7.69,9.23,9.23,10,15.38,10.77,10.77,10,6.15,F,45_54
41,71,4887281,1.62,6.92,5.31,10.85,6.23,6.92,5.31,6.23,13.85,7.62,0.69,6.23,9.23,7.62,9.23,6.23,5.31,5.31,9.23,2.31,F,45_54
42,72,13403562,12.31,6.15,7.69,6.92,4.62,13.08,11.54,10,9.23,13.85,10.77,9.23,10.77,3.08,6.92,8.46,11.54,11.54,6.15,14.62,F,45_54
43,73,3554756,0,0,0,0,0,0,0,0,0,0,0,0,0,0,0,0,0,0,0,0,F,45_54
44,76,2550106,13.15,18.46,16.15,13.15,7.62,5.31,6.92,8.54,12.23,20.77,20.77,11.54,14.54,13.85,22.38,17.77,22.38,15.46,18.46,12.23,F,45_54
45,78,263912,13.73,11.58,13.73,14.54,14.54,17.77,17.77,23.15,13.19,13.73,13.73,15.35,14.54,13.73,16.96,13.19,14.54,11.58,5.38,13.19,F,45_54
46,79,14566745,12.38,3.77,3.23,5.38,4.85,3.23,2.15,3.77,5.38,5.92,3.23,3.23,2.15,3.77,5.38,1.62,3.77,0.54,0,4.85,F,45_54
47,80,300097,0,0,0,0,0,0,0,0,0,0,0,0,0,0,0,0,0,0,0,0,F,45_54
48,82,2018968,8.46,6.92,4.62,6.92,0.77,8.46,7.69,7.69,10,17.69,10.77,12.31,10,13.85,8.46,11.54,12.31,11.54,4.62,13.08,F,45_54
49,83,306299,8.46,9.23,10,4.62,10,9.23,4.62,10,7.69,8.46,6.92,9.23,10.77,8.46,13.85,16.92,12.31,8.46,5.38,15.38,F,45_54
50,87,14640188,0,9.23,11.54,20.08,9.92,7.62,11.54,9.92,3,3.92,12.23,7.62,9.92,9.92,16.85,10.85,13.15,10.85,15.46,6.92,F,45_54
51,88,3043651,2.96,14.54,10.77,7.81,5.38,12.38,8.35,11.58,14.54,16.15,14.54,23.96,17.77,9.15,9.15,8.35,18.58,8.35,14.54,8.35,F,45_54
52,89,3364856,11.54,3.08,0,0.77,0,0,0,0.77,0.77,0,0.77,0,0,0.77,0,0,0,0,0,0.77,F,45_54
53,90,54202926,0,0,0,0,0,0,0,0,0,0,0,0,0,0,0,0,0,0,0,0,F,45_54
54,91,2218930,0,6.92,6.15,7.69,9.23,6.92,3.85,4.62,5.38,10,6.92,6.15,8.46,10,7.69,7.69,10.77,11.54,11.54,1.54,F,45_54
55,94,2019950,0,0,0,0,0,0,0,0,0,0,0,0,0,0,0,0,0,0,0,0,F,45_54
56,95,320432,0,7.69,3.85,6.92,7.69,6.92,3.85,6.92,3.85,10,12.31,9.23,10.77,13.08,6.15,13.08,8.46,13.08,1.54,6.15,F,45_54
57,96,10646947,0,0,0,0,0,0,0,0,0,0,0,0,0,0,0,0,0,0,0,0,F,45_54
58,99,4854005,6.15,12.31,13.08,10,8.46,10,12.31,10.77,12.31,0.77,8.46,11.54,11.54,12.31,8.46,7.69,13.85,11.54,10,16.15,F,45_54
59,101,17001407,3,16.85,15.46,6.92,10.85,21.46,13.85,16.85,11.54,9.92,4.62,9.92,13.15,10.85,13.15,9.23,20.08,18.46,16.15,8.54,F,45_54
60,102,5349946,0,2.31,0,0,1.62,9.92,5.31,12.23,0.69,9.92,12.23,2.31,0.69,9.23,14.54,10.85,14.54,4.62,5.31,0.69,F,45_54
61,104,272077,3.23,7.54,9.15,31.77,11.31,12.38,8.62,12.38,7.54,53.31,2.15,2.15,2.15,5.38,9.15,12.92,7.54,7,7.54,15.62,F,45_54
62,105,12046920,16.92,5.38,6.92,6.92,7.69,5.38,8.46,9.23,9.23,5.38,6.15,10.77,10,10.77,7.69,9.23,11.54,10.77,13.08,10,F,45_54
63,106,6322251,13.15,14.54,13.85,6.23,7.62,6.23,0,0,0,5.31,8.54,10.85,8.54,10.85,3.92,10.85,4.62,11.54,7.62,6.23,F,45_54
64,107,20929319,13.85,6.15,5.38,4.62,7.69,6.92,6.92,6.92,10.77,12.31,12.31,5.38,12.31,5.38,9.23,8.46,5.38,7.69,7.69,4.62,F,45_54
65,108,37755324,0.77,6.15,6.15,6.92,8.46,6.15,6.15,8.46,5.38,6.15,6.92,9.23,9.23,7.69,9.23,6.15,10,10,9.23,6.15,F,45_54
66,109,698332,6.15,6.92,3.08,10,6.15,10,12.31,5.38,8.46,13.08,7.69,8.46,13.85,8.46,12.31,10,10,6.15,11.54,9.23,F,45_54
67,112,19837,10.77,5.38,5.38,9.23,0,8.46,7.69,9.23,7.69,8.46,5.38,3.85,12.31,10,6.15,10.77,10.77,10.77,8.46,3.85,F,45_54
68,115,19911273,0,0,0,0,0,0,0,0,0,0,0,0,0,0,0,0,0,0,0,0,F,45_54
69,118,3987962,6.23,6.92,6.23,6.23,6.92,6.23,9.23,8.54,4.62,7.62,5.31,9.92,8.54,11.54,3.92,8.54,8.54,7.62,5.31,5.31,F,45_54
70,119,3783112,0,6.92,5.38,3.08,6.15,9.23,6.92,7.69,9.23,10.77,5.38,6.92,3.85,11.54,8.46,13.08,10,8.46,7.69,6.15,F,45_54
71,120,1417999,6.92,2.31,6.15,2.31,8.46,10,8.46,6.92,5.38,9.23,3.85,13.08,13.85,10.77,13.85,12.31,8.46,3.85,10.77,5.38,F,45_54
72,122,12805604,3.08,14.62,9.23,13.08,10.77,13.08,13.85,10.77,12.31,13.08,5.38,11.54,10.77,8.46,14.62,14.62,7.69,12.31,10.77,9.23,F,45_54
73,124,719656,0,5.38,1.54,3.08,3.85,2.31,10.77,10.77,5.38,6.92,5.38,1.54,6.15,7.69,10.77,10,7.69,13.85,11.54,1.54,F,45_54
74,125,550004,0,3.77,13.19,2.42,2.96,8.35,3.77,0.81,7.81,6.19,2.96,7,4.58,6.19,9.96,9.96,4.58,12.38,8.35,7.81,F,45_54
75,126,8206944,2.31,7.69,8.46,6.15,13.08,10,6.92,10.77,1.54,0.77,6.92,6.15,3.85,10.77,0,8.46,3.85,1.54,6.15,11.54,F,45_54
0,3,420414,5.38,4.62,10,8.46,6.15,10.77,4.62,8.46,9.23,3.85,5.38,0,3.08,5.38,10.77,6.92,1.54,9.23,8.46,5.38,F,55_64
1,5,41261846,3.08,6.15,3.85,0.77,5.38,0,4.62,0.77,0.77,0,2.31,2.31,0,0,7.69,3.08,3.08,1.54,0,6.92,F,55_64
2,6,3005935,0,0,0,0,0,0,0,0,0,0,0,0,0,0,0,0,0,0,0,0,F,55_64
3,7,3100218,0,0,0,0,0,0,0,0,0,0,0,0,0,0,0,0,0,0,0,0,F,55_64
4,8,33296952,0,3.85,2.31,4.62,1.54,3.08,0,1.54,0.77,2.31,3.08,3.85,4.62,4.62,0,0,1.54,0,3.85,0.77,F,55_64
5,13,30012765,0,6.92,3.85,3.85,3.85,3.08,10,5.38,5.38,10.77,7.69,5.38,10,7.69,8.46,5.38,9.23,11.54,5.38,4.62,F,55_64
6,14,17580895,9.23,15.38,13.08,13.08,9.23,1.54,7.69,10.77,7.69,11.54,12.31,16.92,9.23,16.92,14.62,10,9.23,16.92,13.08,10.77,F,55_64
7,15,6199157,8.54,10.85,9.92,8.54,2.31,20.08,0,1.62,8.54,3,6.92,8.54,9.23,9.23,13.15,9.23,12.23,14.54,11.54,6.92,F,55_64
8,16,4121799,0,0,0,0,0,0,0,0,0,0,0,0,0,0,0,0,0,0,0,0,F,55_64
9,17,306299,1.54,9.23,10,6.15,10,8.46,10.77,6.15,11.54,10.77,11.54,6.92,13.08,13.85,10,13.08,14.62,14.62,5.38,9.23,F,55_64
10,18,344735,8.46,7.69,0,6.15,9.23,5.38,8.46,9.23,5.38,4.62,8.46,6.92,8.46,9.23,13.85,13.85,12.31,13.85,13.08,9.23,F,55_64
11,20,49119008,6.12,1.5,0,0,0,0,0,0,0,0,0,0,0,0,0,0,0,0,3.12,2.31,F,55_64
12,23,16107330,6.92,6.15,10.77,10.77,8.46,9.23,0,0.77,3.85,5.38,5.38,8.46,13.08,10.77,13.08,9.23,7.69,12.31,9.23,9.23,F,55_64
13,25,48547151,10.77,3.08,29.23,0.92,10.77,19.38,18.46,17.54,14.77,24,17.54,15.38,26.15,3.08,9.23,2.46,7.69,7.08,7.08,7.69,F,55_64
14,26,8679657,9.23,10.77,4.62,6.15,5.38,8.46,7.69,12.31,6.15,3.85,10.77,7.69,3.85,13.08,13.08,15.38,8.46,16.92,12.31,5.38,F,55_64
15,27,5030742,0,6.92,7.69,4.62,7.69,11.54,6.92,12.31,10.77,4.62,13.08,7.69,12.31,2.31,10.77,7.69,7.69,7.69,6.15,5.38,F,55_64
16,28,15564659,5.38,2.31,6.15,6.92,9.23,8.46,6.92,8.46,8.46,6.92,18.46,0,7.69,8.46,12.31,11.54,0.77,5.38,7.69,8.46,F,55_64
17,29,22299259,0,11.54,10,8.46,9.23,10,6.15,3.08,6.92,10.77,7.69,12.31,12.31,10,13.85,9.23,7.69,14.62,9.23,8.46,F,55_64
18,31,29857653,7.69,17.69,9.23,10.77,10.77,6.92,13.85,6.92,11.54,10.77,14.62,7.69,10.77,7.69,6.92,16.15,3.08,10.77,16.92,8.46,F,55_64
19,32,21288994,1.54,6.92,7.69,7.69,6.92,5.38,7.69,7.69,8.46,8.46,9.23,10.77,7.69,8.46,10,10,7.69,7.69,8.46,6.92,F,55_64
20,33,2060463,0.77,11.54,12.31,15.38,11.54,6.92,10.77,0,2.31,6.15,6.92,8.46,6.15,12.31,10,10.77,10.77,10.77,10.77,5.38,F,55_64
21,34,7479,7.69,4.62,3.08,4.62,3.08,3.08,0.77,1.54,6.92,6.15,5.38,0.77,4.62,0,2.31,4.62,0.77,0,0,5.38,F,55_64
22,35,564785,10.77,6.19,4.58,6.19,25.31,3.77,5.38,7,5.38,2.42,4.58,9.15,9.15,4.58,11.58,13.73,10.77,5.38,13.19,2.96,F,55_64
23,37,17424387,4.62,0,0,0,0,0,0,0,0,0,0,0,10.77,0,10,11.54,7.69,10.77,4.62,16.15,F,55_64
24,38,30786356,0,0,0,0,0,0,0,0,0,0,0,0,0,0,0,0,0,0,0,0,F,55_64
25,39,1486911,7.62,6.92,12.23,10.85,9.23,13.85,3,7.62,3.92,7.62,12.23,11.54,13.15,13.85,14.54,13.15,12.23,13.15,12.23,8.54,F,55_64
26,41,736615,0.77,8.46,7.69,6.92,4.62,7.69,3.08,0,6.92,6.92,7.69,8.46,4.62,9.23,10,8.46,3.85,9.23,7.69,6.92,F,55_64
27,42,4784227,7.69,9.23,4.62,6.92,8.46,7.69,7.69,6.15,9.23,9.23,11.54,5.38,15.38,8.46,6.15,8.46,6.92,13.08,6.15,5.38,F,55_64
28,45,31213090,0,0,0,0,0,0,0,0,0,0,0,0,0,0,0,0,0,0,0,0,F,55_64
29,46,20338702,0,0,0,0,0,0,0,0,0,0,0,0,0,0,0,0,0,0,0,0,F,55_64
30,49,26885714,5.31,0,0,0,0,0,0,0,0,0,0,0,0,0,0,0,0,0,0,5.31,F,55_64
0,1,1115094,0.77,3.08,6.15,8.46,11.54,14.62,9.23,10,10.77,11.54,6.92,11.54,13.08,12.31,8.46,13.08,10,13.08,9.23,6.15,F,65_69
1,2,13204733,14.54,16.15,12.38,13.19,15.35,7,11.58,6.19,19.12,7,23.15,9.96,10.77,14.54,13.73,15.35,7,13.19,16.96,10.77,F,65_69
2,3,7479,0,2.31,9.92,0,0,4.62,7.62,5.31,6.23,6.92,8.54,5.31,5.31,3.92,3,12.23,4.62,4.62,10.85,3.92,F,65_69
3,4,1289508,0,6.15,7.69,10.77,12.31,6.15,9.23,10,11.54,6.15,10,13.08,12.31,10.77,11.54,7.69,4.62,6.92,14.62,6.92,F,65_69
4,5,2571326,7.69,7.69,9.23,5.38,10.77,6.92,10.77,5.38,7.69,8.46,9.23,9.23,9.23,12.31,6.92,12.31,10,6.92,5.38,4.62,F,65_69
5,6,1924229,6.15,2.31,6.15,5.38,6.92,7.69,7.69,8.46,11.54,6.92,10,6.15,13.08,10.77,13.08,10,10.77,10,8.46,14.62,F,65_69
