,Rank,id,Week1,Week2,Week3,Week4,Week5,Week6,Week7,Week8,Week9,Week10,Week11,Week12,Week13,Week14,Week15,Week16,Week17,Week18,Week19,Week20,Gender,Age_Group
0,1,1801334,11.69,11.69,10.15,14.77,13.85,19.38,18.46,0,16.92,23.08,25.54,5.54,1.54,9.23,7.69,4,10.77,8.62,6.15,2.46,M,0_19
1,2,17770854,0,0,0,0,0,0,0,0,0,0,0,0.77,0,1.54,0.77,4.62,0.77,1.54,0.77,0.77,M,0_19
2,4,24841551,0,4.62,4.62,2.31,11.54,4.62,3.08,6.15,10.77,5.38,2.31,1.54,9.23,0,2.31,1.54,1.54,4.62,1.54,0,M,0_19
3,5,28806053,0,3.77,0,0,0,0,3.23,23.69,25.31,39.31,12.92,49,51.69,22.08,16.69,7,23.69,16.69,5.92,4.85,M,0_19
4,6,5030217,3.12,9.23,0,0,2.31,5.42,0,0,1.5,0,0,0,0.81,0,0,6.12,6.12,6.92,6.92,5.42,M,0_19
5,7,15217952,0,0,0,16.08,0,0,0,0,0,0,16.08,0,16.08,16.08,16.08,16.08,16.08,16.08,16.08,16.08,M,0_19
