,Rank,id,Week 1,Week 2,Week 3,Week 4,Week 5,Week 6,Week 7,Week 8,Week 9,Week 10,Week 11,Week 12,Week 13,Week 14,Week 15,Week 16,Week 17,Week 18,Week 19,Week 20,Gender,Age_Group
1,2,7750235,10,11.54,10.77,4.62,10,10,10,14.62,7.69,11.54,2.31,9.23,11.54,13.08,13.85,10,16.15,13.08,16.15,11.54,F,35_44
4,6,19515952,0,0,0,0,0,0,0,0,0,0,0,0,0,0,0,0,0,0,0,0,F,35_44
5,7,356358,0,13.15,9.92,11.54,11.54,9.23,6.92,9.92,13.85,11.54,14.54,13.85,13.15,14.54,15.46,15.46,15.46,14.54,13.15,14.54,F,35_44
7,9,8370121,7.81,7,8.35,7,7.81,14.54,17.77,19.92,9.15,23.96,16.15,20.73,12.38,11.58,7,21.54,15.35,7,9.96,6.19,F,35_44
8,10,18260272,0,0,0,0,0,0,0,0,0,3.08,0,2.31,0,10,6.15,15.38,1.54,7.69,6.15,6.92,F,35_44
9,12,8149665,8.54,9.23,6.92,7.62,10.85,8.54,13.15,6.23,9.23,8.54,12.23,20.77,7.62,6.92,8.54,14.54,15.46,10.85,7.62,12.23,F,35_44
10,13,3797919,9.15,14.54,16.15,13.73,16.96,8.35,11.58,1.62,7.81,2.96,14.54,19.92,19.12,23.96,18.58,9.96,9.15,19.92,15.35,17.77,F,35_44
12,19,7857123,6.92,4.62,3.08,3.85,5.38,10,4.62,8.46,5.38,7.69,12.31,6.92,9.23,8.46,13.85,6.92,5.38,11.54,9.23,5.38,F,35_44
13,21,1547539,3.08,13.08,11.54,10.77,12.31,5.38,8.46,3.08,11.54,10.77,13.08,13.08,12.31,13.08,11.54,12.31,10.77,16.15,7.69,9.23,F,35_44
14,23,14721337,13.85,6.92,11.54,10.85,8.54,9.23,6.92,14.54,20.77,9.92,15.46,7.62,11.54,21.46,9.92,14.54,11.54,16.15,10.85,7.62,F,35_44
15,24,3823169,0.77,6.15,6.92,4.62,9.23,10,9.23,8.46,2.31,12.31,0,3.08,4.62,8.46,5.38,10.77,6.15,4.62,6.15,4.62,F,35_44
16,25,26938842,0,6.92,6.92,10.85,11.54,13.15,13.15,6.23,16.15,8.54,19.15,14.54,14.54,13.15,6.92,14.54,14.54,14.54,6.23,13.15,F,35_44
17,28,148287,20.08,9.23,11.54,8.54,6.23,11.54,3,10.85,13.15,6.92,9.23,9.92,9.92,14.54,9.92,13.15,12.23,11.54,5.31,11.54,F,35_44
18,29,26191738,0,17.77,14.54,16.15,16.15,16.15,15.35,12.38,23.15,13.19,0,4.58,13.73,15.35,11.58,15.35,16.15,18.58,10.77,11.58,F,35_44
19,32,182287,1.5,0,0,1.5,1.5,0.81,3.12,4.62,2.31,1.5,2.31,0.81,1.5,2.31,2.31,3.12,3.12,1.5,2.31,1.5,F,35_44
20,34,27492965,3.08,8.46,10,7.69,6.92,10.77,9.23,11.54,13.85,12.31,14.62,15.38,15.38,15.38,8.46,5.38,3.08,12.31,16.92,6.15,F,35_44
21,35,14079075,3.08,6.15,5.38,3.08,0,0,0,0,3.85,5.38,10,12.31,16.15,10,3.85,7.69,8.46,8.46,3.08,3.08,F,35_44
22,36,10937038,0,0,0,0,0,0,0,0,0,0,0,0,0,0,0,0,0,0,0,0,F,35_44
23,37,4412469,0.77,10,11.54,11.54,10,12.31,10,7.69,6.92,13.08,13.85,10,12.31,12.31,8.46,11.54,1.54,8.46,9.23,6.92,F,35_44
24,38,349170,3.08,0,5.38,2.31,1.54,1.54,6.15,9.23,3.08,2.31,3.85,2.31,5.38,10,6.15,9.23,10.77,10,7.69,5.38,F,35_44
25,39,4218798,12.23,5.31,19.15,6.92,6.23,12.23,13.85,12.23,9.23,11.54,2.31,4.62,9.23,9.23,9.92,9.92,12.23,11.54,13.15,8.54,F,35_44
26,41,37760556,3.77,0,0,0,0,0,0,0,0,0,0,0,0,0,0,0,0,0,0,2.42,F,35_44
27,42,2591823,0,0,0,0,0,0,0,0,0,0,0,0,0,0,0,0,0,0,0,0,F,35_44
28,43,124425,0,0,3.81,0,3.12,2.31,1.5,8.42,5.42,6.92,7.73,9.23,10.04,0.81,6.12,3.81,3.81,1.5,0,6.12,F,35_44
29,44,18180125,22.46,7.69,10.77,10.77,13.85,9.23,24.62,10.77,13.85,7.08,12.31,2.46,8.62,12.31,9.23,6.15,9.23,11.69,11.69,8.62,F,35_44
30,45,12752415,5.31,0,0,0,0,0,0,0,0,0,0,0,19.15,3.92,14.54,13.85,18.46,15.46,9.92,15.46,F,35_44
31,47,9366141,0,0,0,0,0,0,0,0,0,0,0,0,0,0,0,0,0,0,0,0,F,35_44
32,49,172034,3.85,0,0,0,0,0,0,0,0,0,0,0,0,0,0,0,0,3.08,3.08,5.38,F,35_44
33,51,25921774,10.85,0,0,0,0,0,0,0,0,0,0,0,0,0,0,0,0,0,12.23,7.62,F,35_44
34,52,5995426,0,0,0,0,0,0,0,0,0,0,0,0,0,0,0,0,0,0,0,0,F,35_44
35,53,2068058,11.54,8.46,11.54,8.46,6.15,5.38,13.08,9.23,13.08,9.23,7.69,1.54,10,8.46,13.08,15.38,6.92,15.38,10.77,7.69,F,35_44
36,56,769985,3.85,4.62,3.08,6.15,3.85,7.69,8.46,6.15,6.92,8.46,7.69,9.23,8.46,6.92,13.08,7.69,3.08,6.15,10,3.85,F,35_44
37,61,13436203,0,10.15,1.54,5.54,10.15,3.08,15.38,1.54,17.54,13.85,13.23,10.15,0,7.69,10.15,10.15,13.23,12.31,4.62,4.62,F,35_44
38,63,1861652,3.85,10,9.23,7.69,6.15,4.62,16.92,6.92,10.77,6.92,10.77,9.23,10,17.69,2.31,6.15,3.08,0.77,1.54,3.85,F,35_44
39,64,4023266,16,1.5,15.5,28.5,30,37,17.5,31.5,29,24.5,24.5,49,31.5,24,16,11,31,27,19,14,F,35_44
40,65,3487920,2.31,10,6.15,10.77,8.46,9.23,12.31,12.31,12.31,6.92,10.77,11.54,13.08,13.08,8.46,11.54,12.31,9.23,9.23,11.54,F,35_44
41,71,1958651,0,0,0,0,0,0,0,0,0,0,0,0,0,0,0,0,0,0,0,0,F,35_44
42,72,1886022,1.54,5.38,13.85,13.85,11.54,16.15,18.46,14.62,13.08,11.54,2.31,4.62,2.31,9.23,10.77,7.69,6.15,15.38,18.46,12.31,F,35_44
43,74,10741697,3.12,0,0,0,0.81,0,0,0,0.81,0.81,4.62,0,9.23,5.42,3.12,1.5,4.62,10.73,5.42,6.12,F,35_44
44,76,3544396,0,0,0,0,0,0,0,0,0,0,0,0,0,0,5.38,0,2.31,0,0,0,F,35_44
45,77,296546,4.62,9.23,8.46,3.08,6.92,12.31,10.77,6.15,12.31,11.54,10,11.54,12.31,10,11.54,6.92,15.38,13.85,8.46,17.69,F,35_44
46,79,7615658,0,0,0,0,0,0,0,0,0,0,0,0,0,0,0,0,0,0,0,0,F,35_44
47,80,6066,4.62,0,0,0,0,0,0,0,0,1.54,0,0,0,0,0,0,0,0,0,0,F,35_44
48,83,49128481,0,0,0,0,0,0,0,0,0,0,0,0,0,0,0,0,0,0,0,0,F,35_44
49,84,13304647,13.08,16.92,18.46,8.46,12.31,12.31,12.31,10.77,11.54,3.85,9.23,10.77,10.77,12.31,12.31,11.54,13.08,10,6.15,10,F,35_44
50,85,13887062,0,0,0,0,0,3.08,4.62,3.85,4.62,11.54,11.54,10.77,14.62,8.46,6.92,13.08,13.08,11.54,11.54,8.46,F,35_44
51,87,15642345,5.38,1.54,0,0,1.54,6.15,3.85,1.54,4.62,6.92,6.15,1.54,5.38,4.62,4.62,5.38,8.46,0,6.15,3.85,F,35_44
52,88,4608755,0.81,3.81,4.62,1.5,3.12,3.12,5.42,3.81,6.92,7.73,0.81,0,8.42,8.42,6.92,6.12,5.42,9.23,7.73,4.62,F,35_44
53,90,18047093,0,0,0,0,0,0,0,0,0,0,0,0,0,0,0,0,0,0,0,0,F,35_44
54,91,200428,11.54,8.46,14.62,8.46,11.54,10.77,5.38,10.77,7.69,12.31,10.77,8.46,12.31,12.31,10.77,12.31,6.15,9.23,12.31,9.23,F,35_44
55,93,21399228,0,0,0,0.77,6.92,11.54,0,1.54,6.15,6.15,8.46,10.77,13.08,9.23,12.31,10,13.08,10,12.31,6.92,F,35_44
56,94,29204019,1.5,2.31,6.12,6.12,6.92,7.73,4.62,8.42,3.81,5.42,2.31,4.62,4.62,6.92,0.81,3.81,8.42,2.31,6.12,1.5,F,35_44
57,95,1460905,7.69,10,14.62,16.92,15.38,14.62,14.62,14.62,16.15,16.15,14.62,16.92,17.69,10.77,16.92,18.46,15.38,16.15,15.38,13.08,F,35_44
58,97,5502085,10.77,7.69,6.92,7.69,8.46,9.23,10.77,10,7.69,8.46,16.15,13.85,10,11.54,10.77,10.77,9.23,8.46,5.38,12.31,F,35_44
59,98,8710957,0,0,0,0,0,0,0,0,0,0,0,0,0,0,0,0,0,0,0,0,F,35_44
60,99,739881,0,6.92,6.92,4.62,8.42,8.42,8.42,3.12,5.42,9.23,9.23,6.92,7.73,7.73,6.92,8.42,7.73,0.81,4.62,4.62,F,35_44
61,102,783700,4.62,5.38,0.77,5.38,3.85,6.15,5.38,5.38,2.31,2.31,3.85,8.46,2.31,10,8.46,3.85,11.54,8.46,5.38,0.77,F,35_44
62,104,1648628,0,0,0,0,0,0,0,0,0,0,0,0,0,0,0,0,0,0,0,0,F,35_44
63,105,15301435,6.19,4.58,6.19,6.19,7,7.81,3.77,5.38,4.58,6.19,2.96,7,7,2.42,2.96,2.42,0,5.38,9.15,4.58,F,35_44
64,107,2325742,12,4,8,16,8,12,8,12,8,12,0,4,8,12,12,12,8,4,12,4,F,35_44
65,108,2483782,0.69,15.46,14.54,9.92,9.92,14.54,5.31,13.15,9.23,10.85,12.23,12.23,11.54,10.85,10.85,8.54,9.23,12.23,7.62,5.31,F,35_44
66,109,1667805,4.62,6.15,3.08,10,8.46,10,12.31,7.69,11.54,11.54,11.54,10.77,9.23,6.92,11.54,13.08,10,11.54,3.08,0,F,35_44
67,111,4269490,4.62,3.92,2.31,15.46,0,3.92,0,11.54,8.54,0,7.62,6.23,7.62,5.31,9.92,6.23,8.54,6.92,6.92,6.23,F,35_44
68,112,1833620,0,0,0,0,0,0,0,0,0,0,0,0,0,0,0,0,0,0,0,0,F,35_44
69,113,3466732,0,0,0,0,0,0,0,0,0,0,3.85,10,7.69,4.62,5.38,3.85,9.23,8.46,8.46,3.08,F,35_44
70,114,527871,11.54,0,0,0,0,0,0,0,0,0,0,0,10,12.31,6.92,13.08,15.38,13.85,6.15,13.08,F,35_44
71,115,3373261,5.38,6.15,10.77,7.69,6.92,8.46,0,4.62,5.38,5.38,5.38,5.38,8.46,0,0,12.31,0,0,8.46,2.31,F,35_44
72,118,4257279,7.69,6.15,5.38,3.85,7.69,7.69,7.69,6.92,9.23,5.38,7.69,5.38,9.23,13.08,10.77,5.38,13.85,9.23,8.46,6.15,F,35_44
73,119,5033871,10.77,11.54,7.69,13.08,8.46,10,10,9.23,13.08,8.46,6.15,5.38,2.31,4.62,12.31,9.23,13.85,12.31,10,10,F,35_44
74,122,343219,5.38,10.77,9.23,3.85,3.08,9.23,0.77,2.31,9.23,0,2.31,5.38,6.15,3.85,1.54,0,0,0,0,0,F,35_44
75,125,14320652,1.54,5.38,6.15,7.69,1.54,5.38,6.15,6.15,10.77,8.46,10.77,10,7.69,10.77,13.85,11.54,9.23,10.77,6.15,7.69,F,35_44
76,126,12541583,0,9.23,0.81,1.5,0,3.12,0,0,0,1.5,4.62,3.81,0.81,3.12,0,3.12,3.81,3.81,1.5,1.5,F,35_44
77,129,179268,11.58,12.38,16.96,16.15,9.15,9.15,23.15,11.58,13.73,13.73,7,11.58,7.81,13.73,15.35,15.35,19.12,19.92,13.19,11.58,F,35_44
78,130,15144098,0,0,0,0,0,0,0,0,0,0,0,0,0,0,0,0,0,0,0,0,F,35_44
79,131,216443,6.15,2.31,0,5.38,3.08,3.08,2.31,3.08,6.92,1.54,0,5.38,7.69,9.23,4.62,7.69,10,5.38,2.31,1.54,F,35_44
80,132,37053834,5.42,0,0,0,0,0,0,0,0,0,0,0,0,0,0,0,6.12,7.73,1.5,1.5,F,35_44
81,133,36497661,3.08,8.46,7.69,10.77,10.77,7.69,10.77,11.54,13.85,12.31,10,7.69,13.85,14.62,13.85,14.62,9.23,16.15,16.92,10,F,35_44
82,136,2815256,0,6.92,7.69,0.77,1.54,7.69,8.46,7.69,10.77,9.23,10.77,7.69,9.23,10.77,10.77,6.15,6.92,8.46,10,4.62,F,35_44
83,137,4548904,0,0,0,0,0,0,0,0,0,0,0,0,0,0,0,0,0,0,0,0,F,35_44
84,139,2028830,3,7.62,7.62,0,0,18.46,2.31,3,6.23,3.92,6.23,3,7.62,4.62,15.46,3,6.23,4.62,9.23,0,F,35_44
85,141,50188,0,0,0,0,0,0,0,0,0,0,0,0,0,0,0,0,0,0,0,0,F,35_44
86,143,12000976,1.54,6.15,11.54,9.23,6.15,10.77,11.54,0,0,1.54,0,5.38,9.23,14.62,10.77,12.31,7.69,6.92,8.46,6.15,F,35_44
87,144,3341596,0,5.54,0,1.54,0,5.54,0.92,3.08,0.92,7.08,5.54,3.08,29.23,4,4.62,7.08,1.54,5.54,0,4,F,35_44
88,145,23064749,0,0,0,0,0,0,0,0,0,0,0,0,0,0,0,0,0,0,0,0,F,35_44
89,146,1258817,0,0,6.15,6.15,5.38,8.46,11.54,1.54,13.85,5.38,4.62,10.77,13.08,4.62,6.92,5.38,12.31,10,5.38,4.62,F,35_44
90,148,2660553,3.08,2.31,0.77,5.38,5.38,4.62,9.23,9.23,8.46,3.85,9.23,0,7.69,1.54,4.62,9.23,9.23,10,1.54,11.54,F,35_44
91,149,21707452,0,0,0,0,0,0,0,0,0,0,0,0,0,0,0,0,0,0,0,0,F,35_44
92,150,3473874,12.31,15.38,8.46,14.62,15.38,12.31,6.92,11.54,0,3.85,7.69,6.15,8.46,10.77,4.62,8.46,10,10.77,7.69,7.69,F,35_44
93,151,4692420,0,11.77,11.77,0,588.46,11.77,11.77,5.88,5.88,11.77,5.88,5.88,5.88,5.88,5.88,11.77,5.88,5.88,5.88,5.88,F,35_44
94,153,325619,4.62,2.31,7.69,4.62,5.38,8.46,6.15,15.38,1.54,6.15,6.92,6.15,2.31,6.92,6.15,3.85,5.38,9.23,7.69,4.62,F,35_44
95,159,3591597,1.54,12.31,2.31,12.31,8.46,6.92,10.77,12.31,13.08,14.62,7.69,10.77,8.46,14.62,16.15,12.31,13.85,13.85,11.54,6.92,F,35_44
96,160,512658,0.81,1.5,3.12,3.81,3.12,6.12,3.81,1.5,6.12,6.92,4.62,7.73,3.12,4.62,6.12,3.81,2.31,0.81,1.5,0.81,F,35_44
97,169,1778276,1.54,7.69,6.15,6.15,6.15,0,6.92,9.23,0.77,0.77,4.62,5.38,7.69,2.31,4.62,7.69,10.77,3.85,2.31,14.62,F,35_44
98,170,26117807,8.46,8.46,6.92,6.92,6.15,6.15,5.38,6.92,6.15,6.92,4.62,6.15,6.92,4.62,10,7.69,6.92,10.77,7.69,7.69,F,35_44
99,171,5798077,3.85,0.77,4.62,5.38,6.92,6.92,7.69,6.15,6.15,6.15,8.46,7.69,10.77,8.46,6.92,6.92,3.85,7.69,7.69,3.08,F,35_44
100,172,2455657,0,0,0,0,0,0,0,0,0,0,0,0,0,0,0,0,0,0,0,0,F,35_44
101,173,15377324,0,0,0,0,0,0,0,0,0,0,0,0,0,0,0,0,0,0,0,0,F,35_44
102,174,12056171,0.77,4.62,3.85,4.62,3.08,6.92,7.69,1.54,7.69,6.92,5.38,7.69,10,13.08,6.92,9.23,8.46,8.46,6.15,3.08,F,35_44
103,175,3336296,8.46,7.69,7.69,6.15,0,0,6.15,6.92,4.62,10,4.62,10,9.23,10.77,11.54,14.62,16.15,18.46,9.23,8.46,F,35_44
