,Rank,id,Week 1,Week 2,Week 3,Week 4,Week 5,Week 6,Week 7,Week 8,Week 9,Week 10,Week 11,Week 12,Week 13,Week 14,Week 15,Week 16,Week 17,Week 18,Week 19,Week 20,Gender,Age_Group
0,2,14347335,19.92,10.77,10.77,8.35,24.5,8.35,13.19,1.62,8.35,8.35,20.73,8.35,13.19,13.73,16.15,15.35,12.38,11.58,11.58,4.58,M,70_74
1,3,2373495,10,10,7.69,8.46,4.62,14.62,4.62,10.77,6.92,4.62,14.62,3.85,6.92,3.85,9.23,2.31,7.69,6.92,6.92,3.85,M,70_74
2,4,5928421,0,7.81,15.35,1.62,12.38,8.35,9.96,9.96,9.96,14.54,13.19,7.81,11.58,14.54,9.96,12.38,13.73,16.96,16.96,13.73,M,70_74
3,5,12545730,0.77,8.46,9.23,7.69,3.85,8.46,7.69,3.85,3.85,6.92,7.69,3.08,8.46,7.69,3.85,5.38,6.92,10.77,8.46,3.85,M,70_74
4,6,8690428,9.23,11.54,10,9.23,11.54,10,6.92,7.69,7.69,13.85,3.85,6.92,10.77,4.62,7.69,3.85,13.85,6.92,7.69,14.62,M,70_74
5,7,5936113,4.62,3.08,0,0,0,0,4.62,1.54,6.92,8.46,12.31,4.62,9.23,6.92,3.08,9.23,10.77,5.38,9.23,3.08,M,70_74
