,Rank,id,Week 1,Week 2,Week 3,Week 4,Week 5,Week 6,Week 7,Week 8,Week 9,Week 10,Week 11,Week 12,Week 13,Week 14,Week 15,Week 16,Week 17,Week 18,Week 19,Week 20,Gender,Age_Group
0,6,292661,0,6.15,7.08,5.54,4.62,0,19.38,24.62,24,7.69,18.46,21.54,20,4.62,13.23,13.85,20.92,6.15,10.77,10.77,M,20_24
1,7,3702784,0,7,11.58,13.73,15.35,11.58,16.96,14.54,7.81,8.35,18.58,16.15,12.38,7,6.19,13.19,13.19,13.73,1.62,5.38,M,20_24
2,8,779787,0,3.85,0,5.38,0.77,0.77,3.85,5.38,0.77,0,3.85,1.54,0.77,2.31,0.77,4.62,5.38,3.85,3.08,0.77,M,20_24
3,10,5730036,0,8.54,7.62,19.15,16.15,12.23,16.85,11.54,10.85,0,6.92,6.92,6.92,7.62,6.23,6.92,7.62,6.92,9.23,7.62,M,20_24
4,11,8989052,0,3,9.92,16.15,17.77,13.85,16.15,13.85,9.92,11.54,10.85,15.46,14.54,14.54,13.85,15.46,9.92,15.46,11.54,7.62,M,20_24
5,14,12533824,0,0,0,0,0,0,0,0,0,0,0,0,0,0,0,0,0,0,0,0,M,20_24
6,16,3875548,7,15.35,23.96,13.73,17.77,11.58,16.15,16.15,16.96,18.58,12.38,17.77,20.73,20.73,13.73,6.19,16.96,20.73,16.15,13.19,M,20_24
7,18,5387786,13.73,18.58,14.54,19.92,9.15,10.77,1.62,7,7.81,9.96,10.77,16.96,21.54,13.19,15.35,14.54,22.35,16.15,7.81,8.35,M,20_24
8,20,10210400,5.38,4.62,4.62,4.62,0.77,6.92,1.54,7.69,12.31,4.62,0,3.08,3.85,4.62,0,3.85,0,0,3.85,0,M,20_24
9,21,4349547,0,0,0,0,0,0,0,0,0,0,0,0,0,0,0,0,0,0,0,0,M,20_24
10,23,2164022,0,0,1.54,0,0.77,0,0,0,0,5.38,0.77,5.38,3.85,0,0,0,2.31,3.08,2.31,0,M,20_24
11,24,1780607,13.15,0,0,0,9.92,9.23,8.54,4.62,4.62,4.62,5.31,3.92,7.62,2.31,2.31,9.92,16.85,19.15,10.85,13.85,M,20_24
13,27,20364063,0,1.54,9.23,11.54,5.38,0,0,0,0,0,0,0,0,0,2.31,3.08,0,0,3.08,2.31,M,20_24
14,28,9388586,0,13.15,16.15,13.85,1.62,0,7.62,6.92,7.62,10.85,13.85,12.23,11.54,7.62,13.15,13.85,10.85,10.85,10.85,7.62,M,20_24
15,30,12485408,10.85,13.85,13.15,9.92,6.23,8.54,11.54,18.46,13.15,13.15,13.15,8.54,10.85,3.92,9.23,10.85,12.23,14.54,2.31,9.92,M,20_24
16,31,2199983,12.38,11.58,2.96,9.15,13.19,19.12,4.58,11.58,16.15,5.38,12.38,4.58,9.96,4.58,6.19,12.38,11.58,17.77,7,10.77,M,20_24
17,33,4667023,13.15,8.54,9.92,8.54,12.23,13.85,16.15,8.54,10.85,2.31,8.54,13.15,13.85,7.62,9.92,16.85,16.15,14.54,15.46,7.62,M,20_24
18,35,172947,0,0,0,0,0,0,0,0,0,0.81,0.81,1.5,0.81,0,0,1.5,0,1.5,1.5,5.42,M,20_24
19,36,1570419,2.96,18.58,10.77,9.15,26.12,15.35,19.92,23.96,9.96,11.58,18.58,2.42,8.35,6.19,6.19,9.15,10.77,3.77,9.15,3.77,M,20_24
20,38,1021479,0,8.54,9.92,4.62,9.92,13.15,9.92,6.92,11.54,0.69,3.92,3.92,4.62,7.62,4.62,21.46,3,4.62,2.31,5.31,M,20_24
21,39,12018153,0,0,0,0,0,0,0,0,0,0,0,0,0,0,0,0,0,0,0,0,M,20_24
22,40,9069033,0.81,1.5,6.92,0,6.92,3.81,1.5,0,0,0,0,0,1.5,1.5,3.12,4.62,4.62,5.42,5.42,10.73,M,20_24
23,41,1256549,2.31,7.69,10,0,0,3.85,7.69,4.62,0.77,3.08,8.46,10,10,11.54,11.54,13.08,8.46,9.23,8.46,6.15,M,20_24
24,42,6138376,0,3.85,0,0,0,1.54,0,0,3.08,0,3.08,0,2.31,0,0,0,0,0,0,3.85,M,20_24
25,45,4621873,0,9.23,6.92,4.62,6.15,6.92,8.46,5.38,4.62,15.38,10.77,6.92,8.46,1.54,4.62,5.38,8.46,6.92,6.15,4.62,M,20_24
26,46,5167173,7.69,9.23,4.62,3.08,5.38,8.46,0.77,0,2.31,6.92,9.23,10,10,2.31,5.38,3.85,4.62,3.08,9.23,3.08,M,20_24
27,51,157305,3.08,5.38,5.38,8.46,7.69,4.62,3.85,4.62,6.92,7.69,7.69,1.54,3.85,2.31,12.31,10,1.54,3.85,3.85,0.77,M,20_24
28,52,31536964,0,0,0,0,0,0.77,5.38,4.62,1.54,2.31,0.77,2.31,2.31,4.62,13.08,4.62,3.85,6.15,3.08,5.38,M,20_24
29,53,21413629,13.85,8.54,6.23,9.23,1.62,4.62,7.62,7.62,10.85,13.15,10.85,11.54,10.85,12.23,12.23,1.62,8.54,13.15,14.54,7.62,M,20_24
30,54,4384776,8.35,12.38,13.19,11.58,9.15,12.38,17.77,7.81,11.58,6.19,14.54,9.96,13.19,9.15,8.35,9.96,13.19,14.54,9.96,9.15,M,20_24
31,55,27561715,0,0,0,0,0,0,0,0,0,0,0,0,0,0,0,0,0,0,0,0,M,20_24
32,60,3218219,7.73,0.81,3.12,3.81,2.31,3.81,3.81,3.12,0,1.5,0.81,5.42,8.42,8.42,3.81,10.73,9.23,3.12,5.42,9.23,M,20_24
33,61,5839427,0,9.23,4.62,10,8.46,9.23,10,10.77,10,2.31,0.77,6.15,9.23,11.54,10,4.62,6.15,7.69,10,3.08,M,20_24
34,64,11810068,0.77,0,0,0,0,0,0,0,0,0,6.92,3.08,7.69,4.62,10,9.23,8.46,11.54,0,11.54,M,20_24
35,65,5937805,0,6.15,5.38,8.46,6.15,5.38,3.85,10,6.92,7.69,10.77,3.08,14.62,0.77,3.85,9.23,6.92,7.69,2.31,16.92,M,20_24
36,66,3942131,16.15,13.15,15.46,2.31,10.85,16.85,17.77,10.85,11.54,7.62,16.85,13.85,14.54,14.54,16.85,12.23,13.15,20.08,21.46,17.77,M,20_24
37,66,1621911,9.23,0,0,0,2.31,2.31,1.54,8.46,6.92,7.69,6.15,7.69,5.38,6.15,6.15,3.85,0,5.38,1.54,15.38,M,20_24
38,66,8679785,0,0,0,0,0,0,0,0,0,0,0,0,0,4.62,0,0,0,0,0,0,M,20_24
39,69,6116734,0.77,5.38,11.54,15.38,13.08,7.69,4.62,16.15,8.46,10.77,2.31,3.08,6.92,8.46,10.77,9.23,6.15,13.85,10,7.69,M,20_24
40,70,1954492,3.85,4.62,7.69,6.15,8.46,6.92,6.92,5.38,10.77,10,5.38,4.62,10.77,13.08,7.69,8.46,10.77,5.38,12.31,10,M,20_24
41,71,239617,0,2.31,5.38,0,0,0,4.62,6.92,10,3.08,12.31,8.46,6.92,1.54,10,4.62,10.77,6.15,5.38,0.77,M,20_24
42,73,601898,0,0,8.46,3.08,3.08,5.38,10,8.46,11.54,9.23,9.23,3.08,6.15,0.77,9.23,6.92,8.46,6.92,3.08,0.77,M,20_24
43,74,3518815,8.46,4.62,16.15,13.85,10,11.54,0,0,5.38,1.54,8.46,7.69,9.23,6.92,10.77,10.77,9.23,7.69,6.92,7.69,M,20_24
44,76,692965,0,3.85,9.23,6.15,5.38,3.08,5.38,5.38,6.15,9.23,0.77,6.15,2.31,3.08,6.15,0,6.92,4.62,4.62,11.54,M,20_24
45,77,51870110,0,0,0,0,0,0,0,0,0,0,0,0,0,0,0,0,0,0,0,0,M,20_24
46,78,2153981,3.85,10,10,10,13.08,3.85,8.46,4.62,0,7.69,0,0,0,6.92,0,0,0,0,0,0,M,20_24
47,79,35207108,0,10,10,10,7.69,8.46,10,6.92,6.15,10,0,4.62,6.15,3.85,8.46,6.15,7.69,10,6.15,5.38,M,20_24
48,81,6242371,5.38,7.69,10.77,10,10.77,9.23,10.77,9.23,3.85,7.69,10,7.69,7.69,13.08,11.54,10,7.69,10,13.08,3.08,M,20_24
50,85,4851200,0,4.62,7.69,3.85,9.23,8.46,5.38,12.31,13.08,8.46,3.85,7.69,6.15,7.69,6.92,9.23,3.85,7.69,6.15,3.85,M,20_24
51,86,702128,0,1.54,3.85,0,0,1.54,0,3.08,2.31,4.62,3.08,6.92,5.38,4.62,4.62,3.85,1.54,3.85,3.85,13.08,M,20_24
52,89,1015126,0,0,0,0,0,0,0,0,0,0.77,3.08,0,2.31,0,6.92,3.85,5.38,0.77,2.31,6.92,M,20_24
53,91,6413415,13.19,25.31,13.19,0,0,3.77,16.15,9.15,11.58,13.19,10.77,16.15,10.77,12.38,13.19,16.15,15.35,13.73,7.81,11.58,M,20_24
54,93,1713821,7.69,6.15,7.69,8.46,4.62,6.92,5.38,8.46,5.38,8.46,10.77,9.23,6.15,8.46,13.08,10.77,8.46,10.77,4.62,10.77,M,20_24
55,94,12630622,0,8.46,6.92,6.92,6.92,6.92,6.92,4.62,8.46,5.38,6.92,6.92,5.38,8.46,3.85,7.69,11.54,7.69,6.15,9.23,M,20_24
56,95,1377711,0,6.92,2.31,10.04,0,0,2.31,6.92,7.73,6.92,1.5,2.31,3.12,1.5,5.42,3.12,0,0,9.23,5.42,M,20_24
57,96,13778950,0,0,0,0.77,0.77,0,0.77,0,0,0,0,0,0,2.31,0,0.77,0.77,0,1.54,0,M,20_24
58,97,10660185,0,0,3.08,2.31,3.85,4.62,2.31,3.85,2.31,4.62,1.54,3.85,5.38,0.77,3.85,5.38,3.85,12.31,3.85,4.62,M,20_24
59,98,6173424,2.31,1.5,3.81,1.5,1.5,3.81,4.62,0.81,4.62,3.12,3.81,0,6.12,6.12,2.31,7.73,6.12,7.73,2.31,0,M,20_24
