,Rank,id,Week 1,Week 2,Week 3,Week 4,Week 5,Week 6,Week 7,Week 8,Week 9,Week 10,Week 11,Week 12,Week 13,Week 14,Week 15,Week 16,Week 17,Week 18,Week 19,Week 20,Gender,Age_Group
0,1,430673,13.85,11.69,11.69,19.38,17.54,9.23,1.54,18.46,13.23,16.92,7.69,24,26.15,20.92,25.54,13.23,10.77,21.54,22.46,20.92,M,35_44
1,2,39073830,0,6.92,3.85,10.77,13.85,6.92,6.15,0,10.77,7.69,3.85,10.77,10,13.08,15.38,13.85,6.15,6.15,10.77,6.15,M,35_44
2,3,10736261,10.77,3.85,7.69,7.69,10.77,12.31,8.46,9.23,12.31,7.69,13.08,12.31,12.31,9.23,13.85,14.62,16.92,13.08,16.15,8.46,M,35_44
3,4,7841557,0,3.81,2.31,4.62,4.62,3.12,0,0,0.81,0,5.42,7.73,10.04,7.73,9.23,8.42,0,2.31,5.42,5.42,M,35_44
5,9,120662,19.15,9.92,13.15,9.92,9.92,10.85,5.31,10.85,13.15,9.92,11.54,12.23,11.54,15.46,10.85,13.15,13.85,13.15,4.62,11.54,M,35_44
6,10,121448,6.15,9.23,10.77,9.23,6.92,13.85,3.08,6.92,13.08,12.31,11.54,4.62,5.38,0.77,2.31,7.69,10,9.23,4.62,11.54,M,35_44
7,11,1696826,0.81,12.38,11.58,13.73,13.73,9.96,11.58,13.19,13.19,5.38,10.77,10.77,22.35,23.96,6.19,13.73,14.54,15.35,14.54,11.58,M,35_44
8,13,10093,0,0,1.62,0.69,5.31,3,3.92,0,1.62,0.69,6.92,4.62,6.92,0.69,1.62,20.77,3,0,0.69,0,M,35_44
10,16,2547773,0,20.08,16.15,3.92,3,3.92,1.62,3,1.62,0,0,0,0.69,0,0,0.69,1.62,4.62,6.92,7.62,M,35_44
11,17,8289026,0,18.58,15.35,9.96,16.15,13.73,16.96,11.58,15.35,16.96,17.77,13.73,13.19,23.96,26.12,23.15,11.58,23.96,22.35,15.35,M,35_44
12,19,2517751,11.54,9.23,10,11.54,7.69,7.69,2.31,5.38,5.38,0.77,5.38,8.46,7.69,3.08,8.46,6.15,6.92,6.15,1.54,8.46,M,35_44
13,25,2517859,9.96,11.58,13.19,9.96,7.81,1.62,2.42,4.58,6.19,8.35,7,6.19,8.35,9.15,10.77,23.96,4.58,9.96,6.19,12.38,M,35_44
14,26,31887288,1.62,14.54,14.54,14.54,9.92,4.62,13.85,19.15,14.54,6.23,4.62,17.77,14.54,7.62,11.54,6.23,13.15,14.54,12.23,8.54,M,35_44
15,28,207131,0,0,0,0,0,0,0,0,0,0,0,0,0,0,0,0,0,0,0,0,M,35_44
16,29,1119411,2.31,2.31,2.31,3.12,3.12,5.42,6.12,6.92,7.73,5.42,5.42,5.42,6.92,4.62,6.92,6.92,5.42,4.62,3.81,3.81,M,35_44
17,30,18459205,6.15,2.31,3.08,3.85,2.31,6.15,6.92,3.85,8.46,6.92,2.31,3.08,7.69,11.54,9.23,3.08,9.23,10.77,7.69,6.92,M,35_44
18,32,1432505,0,0,0,0,0,0,0,0,0,0,0,0,0,0,0,0,0,0,0,0,M,35_44
19,34,9304415,6.15,8.46,8.46,7.69,7.69,10,11.54,9.23,6.92,11.54,10,10.77,10.77,9.23,10.77,6.15,8.46,7.69,11.54,2.31,M,35_44
20,35,3695050,1.54,3.85,9.23,6.15,2.31,7.69,7.69,5.38,8.46,2.31,6.15,5.38,3.85,10,10.77,8.46,9.23,7.69,4.62,3.85,M,35_44
21,36,229546,8.35,2.96,2.42,2.42,0,0,2.96,5.38,9.15,9.96,7.81,8.35,12.38,7.81,5.38,5.38,26.12,9.96,7.81,3.77,M,35_44
22,37,142444,0,0,0,0,0,0,0,0,0,0,0,0,0,0,0,0,0,0,0,0,M,35_44
23,38,11537236,7,5.38,7.81,7,16.96,7.81,10.77,14.54,22.35,16.15,14.54,5.38,16.15,10.77,15.35,9.15,18.58,13.73,10.77,10.77,M,35_44
24,41,8138647,9,15.5,4.5,0,1,0,3,1,9,4.5,5.5,5.5,7.5,8.5,1.5,4,5.5,9,8.5,6,M,35_44
25,43,12672478,0,20.77,17.65,13.15,27,20.77,29.08,33.92,17.65,20.77,15.23,21.46,20.77,20.77,19.38,16.96,10.04,19.38,19.38,9.35,M,35_44
26,44,33755417,10.77,5.38,16.15,8.46,5.38,35.38,14.62,36.15,6.15,17.69,12.31,28.46,13.08,8.46,16.92,4.62,11.54,12.31,16.15,11.54,M,35_44
27,45,1917123,13.19,9.96,12.38,0,9.96,12.38,15.35,21.54,19.12,11.58,17.77,16.96,11.58,12.38,17.77,16.96,13.73,16.15,13.73,12.38,M,35_44
28,46,1757706,6.15,9.23,5.38,9.23,7.69,13.85,12.31,18.46,18.46,12.31,16.15,12.31,9.23,4.62,9.23,10,12.31,10.77,11.54,9.23,M,35_44
29,47,15067972,13.85,17.69,13.85,7.69,15.38,11.54,13.08,6.92,8.46,13.85,11.54,16.15,13.08,16.15,10,15.38,13.85,16.15,13.85,10.77,M,35_44
30,47,2384575,7.73,5.42,0.81,8.42,6.92,6.92,10.73,7.73,9.23,0,3.81,4.62,9.23,6.12,6.92,6.12,3.81,9.23,7.73,3.12,M,35_44
31,49,25906370,12.31,10,6.92,8.46,5.38,9.23,6.15,6.15,13.08,14.62,15.38,9.23,10.77,5.38,16.15,9.23,6.15,10.77,13.08,5.38,M,35_44
32,50,8013765,20.73,6.77,9.31,0,0,8.46,10.15,10.15,11.42,4.65,12.27,10.15,13.96,10.58,16.92,14.81,14.81,9.31,13.12,13.96,M,35_44
33,51,6402784,5.38,5.38,7.69,3.08,0,3.08,7.69,5.38,4.62,2.31,0,6.15,6.15,6.15,5.38,7.69,4.62,8.46,6.92,0,M,35_44
34,52,26641095,1.5,0.81,1.5,0.81,0,0,0,0,0,0.81,0,0,0,0,0,0,0.81,0,1.5,0.81,M,35_44
35,53,16259692,2.31,16.15,16.15,10,10,3.85,8.46,3.85,16.92,10,10,16.92,12.31,7.69,13.85,18.46,14.62,16.92,16.92,3.08,M,35_44
36,56,2408534,8.46,11.54,7.69,10.77,11.54,4.62,11.54,10,11.54,5.38,10,14.62,8.46,10.77,4.62,14.62,15.38,15.38,8.46,7.69,M,35_44
37,57,1133191,6.19,7,9.96,4.58,10.77,8.35,2.96,3.77,9.15,12.38,13.19,16.96,7.81,15.35,16.15,9.15,13.19,12.38,16.15,11.58,M,35_44
38,59,3034059,4.62,8.62,9.23,6.15,6.15,10.77,5.54,4,10.77,12.31,10.15,9.23,6.15,6.15,10.77,10.77,0,16.92,7.08,5.54,M,35_44
39,60,3787172,0,0,0,0,0,0,0,0,0,0,0,0,0,0,0,0,0,0,0,0,M,35_44
40,61,1049645,4.62,9.92,9.23,3,7.62,12.23,14.54,12.23,12.23,10.85,13.15,13.15,10.85,9.23,11.54,19.15,14.54,12.23,13.85,6.23,M,35_44
41,62,3689794,6.15,16.15,14.62,7.69,11.54,14.62,11.54,9.23,12.31,8.46,5.38,12.31,13.85,16.15,6.92,16.15,13.08,13.08,12.31,11.54,M,35_44
42,62,4234382,6.92,9.92,4.62,8.54,9.92,3.92,4.62,8.54,9.23,9.92,9.92,3.92,11.54,11.54,5.31,8.54,4.62,7.62,11.54,5.31,M,35_44
43,65,43143574,0,0,0,0,0,0,0,0,0,0,0,0,0,0,0,0,0,0,9.23,0,M,35_44
44,66,3342349,10.77,11.69,6.15,9.23,11.69,12.31,5.54,12.31,12.31,7.08,11.69,9.23,13.23,8.62,16.92,9.23,13.23,6.15,12.31,16.92,M,35_44
45,67,1779684,11.58,7,8.35,7,8.35,6.19,13.73,8.35,7.81,7,10.77,11.58,12.38,17.77,7,8.35,11.58,13.19,5.38,9.15,M,35_44
46,68,1682310,0,0,4.62,1.54,4.62,1.54,4.62,4.62,4.62,5.38,6.92,4.62,9.23,6.15,5.38,4.62,4.62,13.85,8.46,7.69,M,35_44
47,70,26214532,3.85,0,0,0,0,0,0,0,0.77,7.69,6.92,1.54,3.08,7.69,9.23,4.62,10,8.46,9.23,10.77,M,35_44
48,71,291894,9.23,8.54,20.77,5.31,14.54,7.62,9.92,10.85,11.54,16.15,11.54,13.85,18.46,13.85,14.54,16.85,14.54,14.54,13.15,11.54,M,35_44
49,74,5250091,6.92,14.54,5.31,15.46,10.85,6.23,9.23,2.31,3,7.62,7.62,6.23,2.31,12.23,3,9.92,6.23,15.46,5.31,6.23,M,35_44
50,75,2183361,8.46,0.77,0,0,2.31,0.77,5.38,10.77,10,4.62,12.31,8.46,10.77,9.23,13.08,12.31,14.62,10.77,10.77,2.31,M,35_44
51,77,4064328,0,13.85,10.85,12.23,17.77,12.23,12.23,16.15,13.85,10.85,1.62,6.23,9.92,6.92,13.15,13.85,21.46,8.54,13.15,10.85,M,35_44
52,78,32812036,0,5.42,3.81,6.12,4.62,9.23,6.92,7.73,8.42,9.23,7.73,7.73,5.42,6.92,1.5,6.12,6.12,5.42,6.92,1.5,M,35_44
53,79,1603349,8.46,3.85,6.15,5.38,4.62,3.08,7.69,10,10,12.31,10.77,6.15,11.54,10,12.31,12.31,9.23,13.08,11.54,9.23,M,35_44
54,80,8627170,3.85,9.23,8.46,5.38,3.85,6.92,4.62,13.08,18.46,16.92,6.92,2.31,10.77,6.15,6.92,12.31,4.62,8.46,2.31,0.77,M,35_44
55,82,16966395,10,8.46,12.31,1.54,7.69,9.23,11.54,10.77,8.46,8.46,12.31,8.46,12.31,12.31,9.23,9.23,15.38,7.69,11.54,7.69,M,35_44
56,83,5838737,9.23,3.12,3.12,6.92,3.12,9.23,6.92,9.23,4.62,8.42,10.73,9.23,6.92,8.42,10.73,10.04,8.42,10.04,10.73,6.12,M,35_44
57,84,19998430,1.54,10.77,10.77,11.54,9.23,13.08,3.08,6.15,6.92,8.46,10,14.62,9.23,11.54,11.54,8.46,8.46,5.38,10.77,3.85,M,35_44
58,87,276612,1.62,15.46,12.23,9.23,14.54,10.85,3,6.23,17.77,14.54,16.85,16.15,16.15,19.15,16.15,20.08,20.08,20.08,16.15,11.54,M,35_44
59,88,3690221,0,0,0,0,0,0,0,0,0,0,0,0,0,0,0,0,0,0,0,0,M,35_44
60,90,7322822,13.08,9.23,4.62,4.62,11.54,3.08,1.54,2.31,10.77,7.69,13.08,13.08,7.69,4.62,3.85,4.62,12.31,8.46,12.31,10,M,35_44
61,90,567338,9.96,7.81,6.19,5.38,7.81,0,6.19,2.96,5.38,9.15,2.42,1.62,13.73,15.35,11.58,5.38,15.35,17.77,8.35,9.15,M,35_44
62,93,17537449,10,6.92,10.77,5.38,8.46,7.69,6.15,8.46,9.23,8.46,8.46,6.15,10.77,10,9.23,10.77,11.54,11.54,12.31,10,M,35_44
63,94,1017459,5.38,7.69,9.23,6.92,4.62,10,7.69,6.92,8.46,10.77,11.54,13.08,9.23,9.23,13.08,13.08,12.31,13.08,13.08,6.92,M,35_44
64,95,1001589,1.54,8.46,10,8.46,9.23,5.38,3.85,13.08,8.46,12.31,12.31,12.31,12.31,12.31,16.92,11.54,16.15,12.31,15.38,10,M,35_44
65,97,13213802,5.38,14.62,10,6.92,13.08,8.46,12.31,10.77,12.31,10,4.62,5.38,10.77,13.08,12.31,12.31,13.08,13.08,8.46,17.69,M,35_44
66,97,7033158,4.62,4.62,9.23,5.38,7.69,1.54,13.08,10,11.54,11.54,13.08,16.15,14.62,15.38,16.92,13.08,16.15,18.46,13.85,7.69,M,35_44
67,100,621935,8.46,12.31,11.54,9.23,12.31,13.85,10,14.62,9.23,12.31,0,9.23,5.38,6.15,11.54,13.08,10.77,13.85,10.77,10.77,M,35_44
68,104,2395497,16.92,12.31,14.62,13.85,9.23,10,0,2.31,8.46,6.92,13.08,10,14.62,14.62,15.38,8.46,14.62,8.46,12.31,5.38,M,35_44
69,110,3613369,13.15,5.31,3.92,9.92,6.92,5.31,10.85,10.85,13.15,14.54,9.23,9.92,16.85,16.15,16.15,18.46,20.77,16.15,15.46,14.54,M,35_44
70,112,1954083,1.54,9.23,7.69,12.31,8.46,10,10.77,10,10.77,8.46,8.46,3.85,4.62,10.77,13.85,11.54,10,11.54,10,6.92,M,35_44
71,113,7131684,3.08,3.08,3.08,9.23,8.46,6.92,3.08,3.08,1.54,6.15,4.62,6.15,6.92,4.62,6.15,8.46,7.69,9.23,12.31,10.77,M,35_44
72,115,1942565,8.46,9.23,15.38,12.31,12.31,13.08,6.15,10,6.15,9.23,12.31,11.54,12.31,13.85,14.62,6.92,7.69,12.31,12.31,9.23,M,35_44
73,118,1881841,13.15,7.62,30.81,13.85,6.92,14.54,17.65,6.92,16.96,8.31,18.35,7.62,16.96,10.04,26.31,17.65,15.23,10.04,13.85,6.92,M,35_44
74,119,417213,7.73,0,0,0,0,0,0,0,0,0,8.42,3.81,3.81,6.92,9.23,7.73,7.73,3.81,2.31,5.42,M,35_44
75,120,2257077,0,0,0,0,0,0,0,0,0,0,0,0,0,0,0,0,6.92,7.69,14.62,8.46,M,35_44
76,121,1614220,6.92,7.62,16.15,10.85,9.23,12.23,9.23,6.23,13.85,16.15,16.15,10.85,14.54,15.46,14.54,12.23,13.15,16.15,16.15,11.54,M,35_44
77,123,26146538,3.08,1.54,6.15,3.85,6.15,6.92,7.69,8.46,9.23,2.31,1.54,5.38,8.46,10.77,13.85,12.31,14.62,10.77,10,7.69,M,35_44
78,125,20578925,11.54,8.46,2.31,7.69,5.38,3.85,7.69,5.38,9.23,10.77,3.85,8.46,13.08,3.85,10,12.31,6.15,3.08,9.23,4.62,M,35_44
79,127,6068408,10.77,10.15,7.69,7.69,8.62,8.62,24.62,8.62,14.77,11.69,10.77,29.23,13.23,10.77,10.15,8.62,16.31,10.15,13.23,10.15,M,35_44
80,128,16434887,12.31,10,7.69,14.62,13.08,7.69,10.77,14.62,8.46,15.38,5.38,10,14.62,15.38,6.92,10.77,13.08,12.31,5.38,10,M,35_44
81,129,1765227,4.62,6.15,6.15,6.92,3.08,4.62,7.69,7.69,5.38,6.15,7.69,6.15,0.77,8.46,6.92,10.77,10.77,4.62,11.54,10,M,35_44
82,130,117763,5.38,10.77,12.31,10.77,10.77,37.69,16.15,13.85,13.08,19.23,23.08,11.54,16.92,9.23,13.85,6.15,17.69,11.54,7.69,9.23,M,35_44
83,132,3517332,5.38,0,1.54,3.08,0,2.31,3.08,2.31,1.54,3.08,1.54,3.08,10.77,4.62,5.38,5.38,3.08,2.31,1.54,0,M,35_44
84,138,5936984,2.31,6.15,8.46,0,3.08,4.62,6.92,6.92,8.46,9.23,10.77,10,11.54,12.31,12.31,12.31,12.31,13.85,11.54,8.46,M,35_44
85,142,18978353,4.62,12.31,6.15,11.69,8.62,13.85,16.92,12.31,13.23,13.23,2.46,10.77,16.31,0.92,1.54,4,7.69,12.31,13.85,9.23,M,35_44
86,143,7372315,10.77,6.15,8.46,6.92,10,6.92,8.46,9.23,7.69,5.38,2.31,0,0.77,12.31,7.69,6.15,11.54,10,10,8.46,M,35_44
87,144,1877777,0,0,0,0,0,0,0,0,0,0,0,0,0,0,0,0,0,0,0,0,M,35_44
88,145,2551093,11.54,10.85,9.92,8.54,6.92,9.23,6.92,11.54,0,5.31,6.23,10.85,6.92,12.23,10.85,9.92,5.31,10.85,10.85,8.54,M,35_44
89,146,16246994,0.77,0,0,0,0,9.23,0.77,0,10,12.31,16.15,7.69,11.54,6.92,0,4.62,13.08,12.31,12.31,10.77,M,35_44
90,148,1277475,2.31,15.38,14.62,3.08,13.85,14.62,16.15,12.31,12.31,5.38,10,10.77,14.62,13.85,11.54,14.62,12.31,11.54,7.69,6.92,M,35_44
91,149,1114217,0,10.77,10.77,15.35,12.38,7,10.77,15.35,13.73,7.81,3.77,9.15,15.35,16.15,16.96,15.35,12.38,13.19,13.73,9.15,M,35_44
92,150,1576357,6.15,9.23,4.62,6.15,10,10,13.08,8.46,3.85,9.23,8.46,5.38,4.62,10,5.38,6.92,8.46,10.77,7.69,4.62,M,35_44
93,151,945535,9.23,9.92,12.23,3.92,5.31,11.54,13.85,11.54,9.23,9.92,12.23,12.23,11.54,11.54,7.62,8.54,11.54,13.15,12.23,8.54,M,35_44
94,152,2471064,0,0,0,0,0,0,0,0,0,0,0,0,0,0,0,0,0,0,0,0,M,35_44
95,153,17174776,7.08,2.46,13.23,13.23,0,1.54,7.69,1.54,4,7.69,4.62,1.54,5.54,1.54,4.62,5.54,11.69,13.85,4.62,9.23,M,35_44
96,153,5386928,0,0,0,0,0,0,0,0,0,0,0,0,0,0,0,0,0,0,0,0,M,35_44
97,155,1573685,4.62,4.62,6.15,0,2.31,10,10.77,10.77,9.23,9.23,11.54,8.46,6.15,8.46,8.46,1.54,10.77,11.54,10.77,5.38,M,35_44
98,157,10777637,7.62,0,0,0,0,0,0,0,0,12.23,14.54,8.54,13.85,9.92,14.54,8.54,14.54,12.23,7.62,9.92,M,35_44
99,158,1542397,9.92,20.08,8.54,17.77,14.54,21.46,20.08,20.77,21.46,20.08,20.77,20.77,11.54,19.15,20.77,17.77,13.15,9.92,8.54,5.31,M,35_44
100,159,3234771,0.77,17.69,7.69,10,3.85,11.54,10,4.62,12.31,12.31,6.15,10,8.46,0,4.62,6.15,8.46,7.69,13.08,10,M,35_44
101,161,687397,10,11.54,8.46,10.77,11.54,8.46,10.77,10.77,9.23,10.77,2.31,8.46,6.92,10.77,9.23,8.46,11.54,10,10,7.69,M,35_44
102,163,15681390,2.31,6.15,6.15,9.23,10.77,11.54,13.08,10,6.15,10,0,3.08,8.46,10,17.69,6.15,7.69,6.92,6.15,6.92,M,35_44
103,164,602396,3.08,5.38,7.69,6.15,2.31,0,0,0,0,0,2.31,0.77,0,0,3.08,6.92,5.38,4.62,2.31,0,M,35_44
104,165,4908481,10,6.92,11.54,8.46,10,10.77,6.92,6.92,11.54,11.54,13.08,14.62,14.62,13.08,8.46,12.31,14.62,12.31,13.85,10.77,M,35_44
105,165,169267,8.46,6.15,3.85,7.69,7.69,4.62,6.15,12.31,3.85,7.69,13.08,12.31,13.85,13.85,13.08,11.54,12.31,8.46,6.15,4.62,M,35_44
106,167,18109874,4.62,9.23,10,10.77,10.77,2.31,6.92,6.15,10,1.54,5.38,8.46,3.08,7.69,4.62,6.15,10.77,11.54,3.08,3.08,M,35_44
107,170,6517428,3.85,13.08,10.77,13.08,11.54,7.69,9.23,8.46,10,10.77,12.31,11.54,8.46,5.38,2.31,7.69,8.46,8.46,9.23,7.69,M,35_44
108,172,1342961,16.85,19.15,11.54,11.54,10.85,8.54,9.23,9.92,2.31,6.92,6.92,6.23,9.23,7.62,13.85,7.62,11.54,12.23,8.54,5.31,M,35_44
109,174,15551626,0,0,0,0,0,0,0,0,0,0,0,0,0,0,0,0,0,0,0,0,M,35_44
110,174,4773093,5.38,6.92,6.92,2.31,6.92,0,10,6.92,3.08,7.69,3.08,13.85,9.23,15.38,10.77,7.69,10,8.46,9.23,7.69,M,35_44
111,174,15262295,0,3.08,8.46,9.23,4.62,1.54,8.46,7.69,8.46,9.23,14.62,2.31,6.92,0.77,11.54,0.77,8.46,12.31,6.15,3.85,M,35_44
112,178,627039,17.77,18.46,20.77,21.46,20.77,16.85,19.15,16.85,18.46,21.46,22.38,20.77,22.38,11.54,11.54,18.46,20.08,19.15,17.77,13.85,M,35_44
113,179,2783847,2.31,3.08,5.38,1.54,6.15,3.85,6.15,6.15,10.77,13.08,10,11.54,5.38,13.08,16.92,10,13.08,10.77,8.46,6.15,M,35_44
114,180,3511267,10,13.08,9.23,11.54,11.54,13.08,10.77,7.69,14.62,13.85,7.69,11.54,14.62,10,6.92,15.38,16.92,9.23,14.62,7.69,M,35_44
115,181,6587268,0.77,11.54,12.31,10.77,10,13.08,13.08,16.15,8.46,13.08,13.08,16.15,10.77,6.15,10,11.54,11.54,10.77,15.38,10,M,35_44
116,182,151193,9.23,17.77,11.54,13.85,13.85,6.23,12.23,13.15,6.23,13.15,9.23,6.92,13.85,15.46,19.15,9.23,16.85,15.46,1.62,6.23,M,35_44
117,183,6275151,0,10.77,12.31,15.38,10,10,9.23,11.54,10,13.08,13.08,14.62,12.31,10.77,17.69,5.38,13.85,17.69,13.85,13.08,M,35_44
118,185,131259,1.54,6.92,11.54,3.08,13.08,6.15,8.46,6.92,11.54,10.77,5.38,13.08,13.85,12.31,13.08,13.85,13.85,14.62,15.38,10,M,35_44
119,186,289376,0,0,4.62,5.38,3.85,6.92,10,8.46,7.69,17.69,10,5.38,4.62,6.92,3.08,6.15,10.77,9.23,6.15,6.15,M,35_44
120,187,1699901,14.54,17.77,14.54,11.54,12.23,9.23,12.23,11.54,13.15,10.85,15.46,15.46,14.54,13.85,12.23,3,13.15,17.77,15.46,16.15,M,35_44
121,189,26802461,6.15,9.23,10.77,11.54,5.38,12.31,9.23,14.62,13.08,14.62,15.38,3.08,16.92,16.92,15.38,15.38,13.85,11.54,16.15,10.77,M,35_44
122,191,11920099,11.54,15.38,13.85,13.85,6.15,6.92,12.31,4.62,9.23,10,10,14.62,9.23,12.31,10.77,10.77,13.85,13.85,7.69,10,M,35_44
123,194,1481089,10.77,7.69,3.08,2.31,3.08,5.38,5.38,4.62,7.69,7.69,12.31,7.69,11.54,15.38,13.08,15.38,17.69,17.69,16.15,10.77,M,35_44
124,195,12080104,12.31,11.54,10.77,9.23,9.23,12.31,11.54,13.85,7.69,16.15,12.31,14.62,10.77,8.46,7.69,11.54,12.31,13.08,13.08,8.46,M,35_44
125,195,1478483,0,0,0,0,0,0,0,0,0,0,0,0,0,0,5.38,10,5.38,13.08,8.46,11.54,M,35_44
126,197,20101439,2.31,6.15,7.69,11.54,10.77,6.15,14.62,13.08,5.38,8.46,1.54,4.62,7.69,3.85,6.15,8.46,10,10,9.23,3.85,M,35_44
127,198,31771999,0,6.23,12.23,0,3,5.31,3.92,8.54,19.15,5.31,8.54,6.23,6.23,12.23,2.31,9.92,8.54,9.92,7.62,3,M,35_44
128,199,5918243,1.62,6.23,6.92,3.92,6.23,6.92,6.92,13.85,8.54,6.23,10.85,7.62,14.54,21.46,6.92,8.54,13.15,11.54,13.15,14.54,M,35_44
129,201,204231,0,9.23,15.38,0,0,0.77,1.54,4.62,7.69,3.08,10.77,11.54,9.23,12.31,11.54,9.23,10.77,9.23,12.31,7.69,M,35_44
130,202,3016442,0,0,0,0,0,0,0,0,0,0,0,0,0,0,0,0,0,0,0,0,M,35_44
131,203,8785122,0,5.31,13.85,16.85,13.85,18.46,19.15,13.15,14.54,16.85,17.77,9.92,13.85,10.85,20.08,10.85,9.23,16.15,14.54,9.92,M,35_44
132,203,138760,0.81,1.62,3.77,1.62,3.77,6.19,4.58,4.58,9.96,2.96,3.77,3.77,2.96,5.38,25.31,8.35,4.58,5.38,2.96,1.62,M,35_44
133,207,2862662,0,0,0,0,0,0,0,0,0,0,0,0,0,0,0,5.38,0,0,0,0,M,35_44
134,208,13925472,0,16.15,14.62,8.46,13.08,12.31,1.54,2.31,9.23,6.92,13.85,13.08,9.23,4.62,10,14.62,16.92,12.31,10.77,12.31,M,35_44
135,209,8373985,10.15,10.77,13.85,12.31,10.77,11.69,15.38,8.62,11.69,4.62,9.23,30.15,13.23,13.23,16.31,16.92,13.85,14.77,16.31,9.23,M,35_44
136,210,12529877,0,0.77,6.15,8.46,3.08,10.77,6.15,9.23,14.62,14.62,6.92,13.08,9.23,14.62,13.85,11.54,13.08,9.23,12.31,10.77,M,35_44
137,211,1671369,9.23,1.54,3.85,8.46,10,7.69,13.85,11.54,15.38,6.92,10,6.92,14.62,6.15,7.69,6.15,11.54,11.54,12.31,7.69,M,35_44
138,215,1513425,4.62,6.92,6.15,6.15,11.54,9.23,12.31,13.08,13.85,10.77,12.31,3.08,3.85,10,13.08,8.46,9.23,11.54,7.69,11.54,M,35_44
139,217,27867753,5.38,4.62,1.54,6.15,8.46,10,4.62,7.69,6.15,9.23,7.69,13.08,13.85,16.15,11.54,16.15,15.38,10,14.62,9.23,M,35_44
140,218,193218,6.15,10,4.62,10,6.15,8.46,10.77,6.15,6.15,10,7.69,8.46,10,6.15,9.23,8.46,12.31,6.92,10.77,6.92,M,35_44
141,219,3333286,10,8.46,6.15,9.23,10.77,10,11.54,8.46,10.77,11.54,11.54,6.92,13.08,14.62,16.15,13.85,14.62,13.85,13.85,9.23,M,35_44
142,220,23404859,0,13.85,7.69,5.38,3.85,8.46,2.31,1.54,6.15,6.15,9.23,12.31,11.54,12.31,10.77,4.62,9.23,9.23,3.08,2.31,M,35_44
143,221,2000001,8.46,8.46,3.85,0,8.46,5.38,0,3.85,8.46,16.15,7.69,6.92,5.38,13.08,16.15,15.38,13.08,13.85,15.38,8.46,M,35_44
144,222,12237567,2.31,7.69,5.38,7.69,8.46,7.69,9.23,6.15,6.15,3.08,6.92,2.31,7.69,7.69,3.85,6.92,6.15,8.46,6.15,3.08,M,35_44
145,222,7745630,0,0,0,0,0,0,0,0,0,0,0,0,0,0,0,0,0,0,0,0,M,35_44
146,224,3265678,0,18.46,21.46,12.23,16.15,15.46,14.54,11.54,5.31,13.15,3.92,14.54,16.15,11.54,16.15,13.85,20.77,17.77,18.46,7.62,M,35_44
147,226,1047864,3.81,10.73,3.81,3.81,4.62,0,3.81,5.42,2.31,6.92,6.92,5.42,8.42,5.42,6.12,7.73,4.62,10.04,3.12,3.12,M,35_44
148,227,2043506,2.31,20.08,8.54,10.85,12.23,9.92,14.54,10.85,10.85,12.23,2.31,6.92,7.62,9.23,11.54,9.23,10.85,8.54,5.31,12.23,M,35_44
149,228,147778,3.81,0,0,0,0,0,0,0,0,0,0,0,0,0,3.12,2.31,4.62,3.12,1.5,4.62,M,35_44
150,229,1535371,8.35,9.96,9.15,9.96,11.58,14.54,7,0,0,0,0,0,7.81,14.54,12.38,16.15,12.38,16.96,15.35,7,M,35_44
151,230,614629,0,3.12,0,0,0,3.81,0,0,0,2.31,0.81,0.81,3.81,0,3.81,4.62,0,3.12,0,3.12,M,35_44
152,231,1855824,9.23,8.46,8.46,11.54,10,8.46,14.62,8.46,12.31,13.85,11.54,14.62,14.62,10.77,12.31,8.46,10,12.31,13.08,8.46,M,35_44
153,232,14399858,0.77,13.85,10,5.38,7.69,6.15,3.85,2.31,10,7.69,11.54,2.31,10,7.69,10.77,10.77,9.23,12.31,3.85,5.38,M,35_44
154,233,13872646,0,0,0,0,0,0,0,0,0,0,0,0,0,0,0,0,0,0,0,0,M,35_44
155,234,17858415,2.31,9.23,12.31,7.69,12.31,9.23,12.31,10,12.31,6.92,13.85,15.38,16.15,10,15.38,11.54,13.08,13.08,3.08,13.08,M,35_44
156,235,12632937,6.92,3.08,16.92,3.08,6.92,2.31,6.92,2.31,0.77,16.15,5.38,10.77,13.85,14.62,13.85,13.08,16.15,16.92,13.85,8.46,M,35_44
157,236,1046860,0,0,0,0,0,0,0,0,0,0,0,0,0,0,0,0,0,0,0,0,M,35_44
158,237,3120014,6.92,12.23,16.85,18.46,22.38,15.46,14.54,6.92,9.23,0.69,9.23,10.85,7.62,7.62,7.62,12.23,13.85,6.23,4.62,9.92,M,35_44
159,239,637972,10.04,4.62,4.62,0,3.81,0,0,0,0,2.31,0,0,0,0,0,0,3.81,0,0,3.12,M,35_44
160,239,1058567,8.35,8.35,9.15,9.15,13.19,6.19,12.38,9.15,11.58,1.62,4.58,0,8.35,7,10.77,10.77,8.35,18.58,8.35,4.58,M,35_44
161,241,1699975,8.46,0,7.69,6.92,7.69,5.38,7.69,4.62,7.69,9.23,9.23,9.23,6.15,13.08,5.38,12.31,13.08,6.15,6.92,8.46,M,35_44
162,314,1245336,0,0,0,0,0,0,0,0,0,0,20.08,20.08,17.77,8.54,10.85,16.85,8.54,16.15,9.92,9.92,M,35_44
163,315,6163981,3.08,1.54,0,0,0.77,16.15,6.15,3.08,8.46,8.46,6.92,8.46,3.85,0.77,7.69,6.92,7.69,6.15,1.54,5.38,M,35_44
164,317,540254,4.62,7.69,10,11.54,12.31,13.85,12.31,15.38,11.54,14.62,14.62,13.08,4.62,5.38,16.15,11.54,12.31,10,3.08,8.46,M,35_44
165,318,3434825,8.46,0,4.62,9.23,5.38,6.92,6.15,10,10.77,8.46,10,10.77,4.62,11.54,14.62,10.77,13.08,16.15,13.85,8.46,M,35_44
166,319,389437,6.92,1.38,4.5,30.81,3.12,2.42,1.38,4.5,11.42,13.15,14.54,12.46,6.92,15.23,14.54,7.62,10.04,10.73,4.5,10.04,M,35_44
167,323,1120853,10.77,0,0,0,0,0,0,0,5.38,8.46,10,11.54,5.38,15.38,10.77,6.15,10.77,10.77,11.54,9.23,M,35_44
168,324,5980486,2.31,11.54,6.15,5.38,6.15,7.69,8.46,9.23,5.38,9.23,0,1.54,5.38,6.92,9.23,6.15,11.54,6.15,6.92,5.38,M,35_44
169,326,8738809,0,0,0,0,0,0,0,0,0,0,0,0,0,0,0,0,0,0,0,0,M,35_44
170,327,7420460,0.77,10,12.31,13.08,9.23,7.69,4.62,10,7.69,10.77,11.54,13.08,13.85,13.85,13.85,9.23,13.85,10.77,14.62,9.23,M,35_44
171,328,10798694,8.46,2.31,3.85,7.69,10.77,13.08,5.38,9.23,10.77,13.08,7.69,10.77,11.54,10.77,13.08,9.23,8.46,13.08,4.62,1.54,M,35_44
172,329,730698,0,10.77,10.77,10,7.69,6.92,6.15,5.38,3.85,6.92,3.85,10,6.92,4.62,8.46,14.62,9.23,10.77,10,8.46,M,35_44
173,331,6397591,0,1.62,0.69,1.62,3,3,5.31,5.31,5.31,8.54,8.54,6.23,9.23,9.92,6.92,6.92,1.62,2.31,5.31,4.62,M,35_44
174,331,1643397,27.69,12.31,14.77,16.92,20.92,20.92,18.46,13.23,17.54,19.38,23.08,20.92,16.92,13.85,3.08,16.31,16.31,7.69,18.46,11.69,M,35_44
175,333,26924929,0,0,0,0,0,0,0,0,0,0,3.85,4.62,3.85,3.08,4.62,4.62,1.54,3.85,3.85,3.85,M,35_44
176,334,5471337,0,4.62,8.46,7.69,6.92,7.69,7.69,4.62,8.46,10.77,3.85,7.69,7.69,8.46,10,10.77,11.54,7.69,4.62,6.92,M,35_44
177,336,3397090,0,0,5.38,6.92,0,0,3.08,9.23,11.54,11.54,10.77,3.08,9.23,15.38,18.46,10.77,10.77,16.92,11.54,6.15,M,35_44
178,340,538424,11.58,9.15,13.19,4.58,9.15,6.19,13.73,9.96,13.19,17.77,15.35,10.77,9.96,7,11.58,11.58,13.73,12.38,11.58,9.15,M,35_44
179,341,1518539,8.46,10,11.54,3.85,6.92,9.23,12.31,11.54,13.85,9.23,15.38,13.08,13.85,10.77,12.31,15.38,13.08,14.62,9.23,13.08,M,35_44
180,341,2572683,0,6.92,8.46,6.15,7.69,7.69,6.92,8.46,7.69,7.69,7.69,7.69,12.31,7.69,16.15,10,6.15,9.23,5.38,7.69,M,35_44
181,343,45478746,7.62,12.23,11.54,17.77,12.23,16.15,16.15,16.15,12.23,13.85,18.46,5.31,1.62,15.46,16.15,12.23,9.92,11.54,16.15,8.54,M,35_44
182,344,6474792,8.54,10.85,7.62,8.54,6.23,5.31,1.62,4.62,6.23,8.54,5.31,9.92,10.85,8.54,11.54,6.23,7.62,9.23,3.92,6.23,M,35_44
183,345,4361390,3.81,8.46,13.96,7.62,10.15,9.31,13.12,3.81,5.5,16.92,10.58,6.77,12.27,15.23,12.27,15.23,18.62,16.08,10.15,8.46,M,35_44
184,346,4479434,0,0,0,0,0,0,0,0,0,0,0,0,0,0,0,0,0,0,0,0,M,35_44
185,347,1703649,10.77,10.77,3.85,7.69,6.15,10.77,12.31,10.77,12.31,7.69,7.69,6.15,12.31,9.23,11.54,10,13.85,13.85,11.54,4.62,M,35_44
186,348,1724751,10,10.77,9.23,10.77,11.54,12.31,8.46,11.54,13.08,13.08,10.77,8.46,11.54,3.85,8.46,11.54,10,10,8.46,14.62,M,35_44
187,349,614053,2.31,15.46,10.85,9.23,12.23,22.38,17.77,12.23,1.62,4.62,8.54,11.54,7.62,9.23,13.15,21.46,12.23,13.85,21.46,11.54,M,35_44
188,350,1166521,0,9.23,11.54,7.69,10.77,10,6.92,11.54,13.85,11.54,15.38,13.08,13.85,10.77,13.08,10,13.08,14.62,11.54,9.23,M,35_44
189,353,4785056,0,11.54,10,6.92,5.38,6.15,3.85,3.85,9.23,10,10.77,10,10,10,10.77,9.23,10,13.08,5.38,3.08,M,35_44
190,353,1090685,0,4.58,3.77,2.42,11.58,5.38,9.96,6.19,9.15,7.81,1.62,9.15,4.58,13.19,10.77,8.35,9.15,11.58,4.58,13.19,M,35_44
191,356,264624,7.69,10,6.15,10,8.46,4.62,10,11.54,13.08,11.54,12.31,13.85,10,11.54,8.46,13.08,6.92,6.92,3.08,3.85,M,35_44
192,357,7271105,0,0,0,0,0,0,0,0,0,0,0,0,0,0,0,0,0,0,0,0,M,35_44
193,358,6104120,0.92,10.77,8.62,9.23,10.77,12.31,4,4,6.15,11.69,8.62,14.77,27.08,7.08,7.69,9.23,15.38,13.85,10.15,7.69,M,35_44
194,359,613110,4.62,6.12,10.04,6.92,7.73,5.42,7.73,8.42,10.04,6.92,6.92,6.92,4.62,8.42,10.04,9.23,9.23,8.42,10.04,6.92,M,35_44
195,360,1519597,0.77,6.92,2.31,3.85,1.54,2.31,0,1.54,5.38,3.08,6.15,0,0.77,3.08,1.54,0,2.31,1.54,2.31,0.77,M,35_44
196,361,4372131,0,0,0,0,0,3.08,3.85,3.08,15.38,10,7.69,11.54,13.85,13.85,13.08,13.08,11.54,13.85,9.23,10,M,35_44
197,362,3089694,0,13.85,13.85,18.46,8.54,16.15,13.85,14.54,17.77,14.54,12.23,20.08,19.15,18.46,13.85,20.08,16.85,17.77,13.85,11.54,M,35_44
198,363,4569096,0.85,13.96,6.77,10.15,10.58,2.96,6.77,6.77,8.46,10.58,10.15,7.62,7.62,10.58,13.12,7.62,13.12,13.96,13.96,8.46,M,35_44
199,364,4051751,0,0,0,1.54,0,0,1.54,0,0,3.08,3.85,0,6.92,2.31,3.85,3.08,6.92,3.08,5.38,0,M,35_44
200,365,1307006,0,0,0,0,0,0,0,0,0,0,0,0,0,0,0,0,0,0,0,0,M,35_44
201,368,42178719,0,8.46,11.54,10,8.46,9.23,10.77,10.77,9.23,13.08,4.62,10,9.23,13.08,11.54,10,14.62,10.77,12.31,4.62,M,35_44
202,369,3531467,4.62,7.08,0,0,0,21.54,0,8.62,9.23,4.62,4.62,7.69,8.62,9.23,1.54,3.08,7.08,6.15,6.15,4,M,35_44
203,370,5896944,0.77,0,11.54,11.54,8.46,3.08,13.08,13.85,12.31,7.69,11.54,1.54,11.54,11.54,7.69,7.69,14.62,7.69,11.54,6.92,M,35_44
204,372,611510,0,0,0,0,0,0,0,0,0,0,0,0,0,0,0,0,0,0,0,0,M,35_44
205,374,737944,5.31,16.85,16.15,17.77,15.46,17.77,19.15,20.08,15.46,14.54,18.46,18.46,11.54,2.31,15.46,16.15,13.15,14.54,12.23,16.85,M,35_44
206,377,33059100,0.77,0.77,0.77,0,0.77,2.31,0.77,0.77,1.54,1.54,2.31,6.15,6.92,10,10.77,6.92,6.92,10.77,3.85,3.85,M,35_44
207,379,14476031,6.92,6.23,5.31,7.62,8.54,4.62,6.92,7.62,9.92,0,3,1.62,4.62,6.92,6.23,9.23,6.23,9.92,6.23,4.62,M,35_44
208,380,8836968,0,9.23,13.85,8.46,10.77,13.85,10,8.46,11.54,10,14.62,12.31,8.46,0,8.46,8.46,6.92,8.46,11.54,6.15,M,35_44
209,381,101568,6.92,6.92,8.46,8.46,8.46,7.69,9.23,12.31,6.92,15.38,8.46,10,15.38,9.23,11.54,10,13.85,10,6.92,8.46,M,35_44
210,382,1443501,15.38,15.38,13.08,8.46,10.77,5.38,14.62,13.08,11.54,9.23,13.85,13.08,13.08,17.69,13.85,9.23,13.08,15.38,14.62,10,M,35_44
211,383,4254942,9.23,9.92,19.15,11.54,9.92,10.85,9.92,17.77,13.15,15.46,11.54,16.85,17.77,11.54,13.15,6.23,16.85,16.15,18.46,16.15,M,35_44
212,385,605131,4.65,7.62,40.19,5.5,15.23,8.46,12.27,6.77,12.27,2.96,10.15,3.81,10.15,16.08,3.81,13.12,8.46,7.62,3.81,4.65,M,35_44
213,386,5738735,13.85,8.46,8.46,13.08,13.85,13.08,10,6.92,14.62,16.92,17.69,7.69,11.54,14.62,15.38,15.38,15.38,12.31,7.69,12.31,M,35_44
214,386,2733830,0,0,0,0,0,0,0,0,0,0,0,0,0,0,0,0,0,0,0,0,M,35_44
215,388,29957404,0,6.15,9.23,6.92,7.69,10,7.69,7.69,6.92,4.62,6.15,10,10.77,10.77,10.77,11.54,12.31,12.31,10.77,7.69,M,35_44
216,389,3211049,0,0,0,0,0,0,0,0,0,0,0,0,0,0,0,0,0,0,0,0,M,35_44
217,390,1783073,1.62,2.42,5.38,5.38,10.77,14.54,16.96,6.19,10.77,23.96,16.15,10.77,18.58,5.38,9.96,11.58,6.19,9.96,9.96,7.81,M,35_44
218,390,511116,0,8.46,11.54,5.38,8.46,12.31,1.54,0,6.92,17.69,10.77,9.23,10,10,11.54,8.46,10.77,10,10,6.92,M,35_44
219,392,14559458,0,13.85,3.08,0,0,0,0,0,0,0,0,0,0,0,0,0,0,0,0,7.69,M,35_44
220,393,548400,14.62,7.69,15.38,9.23,10.77,11.54,6.92,17.69,13.85,10.77,10,6.92,10,4.62,8.46,11.54,14.62,16.92,8.46,8.46,M,35_44
221,395,1277629,2.46,7.69,8.62,20,7.69,5.54,9.23,30.15,10.15,10.77,10.15,6.15,9.23,7.69,9.23,7.69,11.69,3.08,3.08,6.15,M,35_44
222,396,11292424,0,0,0,0,0,0,0,0,0,0,0,0,0,0,0,0,0,0,0,0,M,35_44
223,397,3142217,0,3.08,6.92,5.38,7.69,7.69,9.23,13.08,10.77,10,13.08,6.92,5.38,17.69,15.38,10.77,11.54,13.85,9.23,8.46,M,35_44
224,398,3425359,7.62,6.23,9.23,0,2.31,0.69,16.15,0,3.92,2.31,6.23,7.62,11.54,13.85,14.54,11.54,13.85,9.92,9.92,8.54,M,35_44
225,401,146066,3.85,10.77,7.69,8.46,8.46,8.46,0,0,3.85,4.62,0.77,6.15,3.08,6.15,8.46,7.69,6.92,7.69,6.92,5.38,M,35_44
226,402,2723174,10,5.38,3.85,6.15,7.69,6.15,3.08,9.23,11.54,12.31,6.92,16.15,7.69,6.92,6.92,13.08,11.54,10,7.69,6.15,M,35_44
227,405,2157974,5.31,10.85,6.23,9.92,4.62,8.54,0.69,10.85,4.62,3.92,3,7.62,6.23,1.62,5.31,7.62,12.23,0.69,14.54,9.23,M,35_44
228,406,701073,1.54,8.46,3.08,5.38,4.62,8.46,10.77,5.38,5.38,8.46,7.69,8.46,10.77,10.77,9.23,10,12.31,9.23,9.23,5.38,M,35_44
229,407,1799567,0.77,3.08,6.15,6.92,10.77,10,13.85,12.31,14.62,13.85,9.23,8.46,13.85,14.62,14.62,16.15,15.38,16.92,16.92,10,M,35_44
230,408,5451,6.92,6.92,9.23,11.54,3.92,7.62,20.08,13.15,13.85,12.23,15.46,6.92,10.85,9.92,7.62,14.54,3.92,13.15,7.62,9.92,M,35_44
231,409,6059590,3.85,16.15,16.92,13.85,11.54,14.62,0,5.38,6.92,10.77,11.54,7.69,13.08,13.08,13.08,3.85,13.85,18.46,14.62,13.85,M,35_44
232,415,7650779,1.5,0,0,0,0,0,3.81,3.81,6.92,6.12,6.12,3.12,0.81,0,3.12,6.12,4.62,3.12,0,5.42,M,35_44
233,417,1741376,0,7.69,0,10,3.85,8.46,10,7.69,3.85,3.85,6.92,5.38,10,6.92,10.77,10,7.69,12.31,10,4.62,M,35_44
234,418,25723267,0,8.42,8.42,0,0,2.31,2.31,7.73,6.12,6.92,6.12,6.12,0,4.62,9.23,1.5,10.73,10.04,10.04,3.81,M,35_44
235,419,7688617,0,0,0,0,0,0,0,0,0,0,0,0,0,0,0,0,0,0,7.69,7.69,M,35_44
236,420,1803226,3.12,4.5,8.31,14.54,6.92,9.35,30.81,11.42,4.5,4.5,3.81,6.92,5.54,9.35,9.35,6.23,10.04,5.54,3.12,2.42,M,35_44
237,420,9280359,0,0,0,0,0,0,0,0,0,0,0,0,0,0,0,0,0,0,0,0,M,35_44
238,422,3635304,6.12,0,0,0,0,0,0,0,0,0,0,0,0,0,0,0,0,0,0,3.12,M,35_44
239,423,13668354,7.69,10,10,7.69,10,7.69,14.62,0.77,6.15,3.08,5.38,6.15,9.23,8.46,10,5.38,11.54,9.23,9.23,6.15,M,35_44
240,424,210825,0,0,0,0,0,0,1.54,0,0,0,0,0,0,0,0,0,0,0,0,3.85,M,35_44
241,426,7701498,3.08,7.69,12.31,14.62,14.62,6.15,15.38,10,12.31,2.31,3.85,15.38,8.46,10.77,13.08,10.77,8.46,3.85,8.46,3.85,M,35_44
242,427,2442845,0,10.85,10.85,3,5.31,6.92,3.92,10.85,6.23,0.69,10.85,3.92,7.62,11.54,7.62,9.23,14.54,14.54,13.85,11.54,M,35_44
243,428,156843,8.46,6.15,1.54,3.08,5.38,4.62,9.23,5.38,6.15,6.92,2.31,5.38,5.38,0,0,10,5.38,1.54,5.38,5.38,M,35_44
244,429,10568338,4.62,2.31,6.15,2.31,2.31,6.15,2.31,7.69,7.69,0.77,10.77,9.23,9.23,6.15,4.62,7.69,11.54,6.15,4.62,0.77,M,35_44
245,430,21428038,9.23,0,11.54,9.92,16.85,9.23,22.38,16.15,4.62,5.31,6.23,10.85,9.92,6.92,13.15,16.15,13.85,9.23,12.23,15.46,M,35_44
246,431,140967,10,7.69,6.92,7.69,10,4.62,12.31,7.69,9.23,10,8.46,13.85,9.23,13.85,7.69,12.31,8.46,13.85,10.77,8.46,M,35_44
247,432,12710454,12.31,6.92,10,13.08,13.85,9.23,15.38,13.85,10,14.62,13.85,13.08,10.77,14.62,13.85,12.31,15.38,15.38,12.31,10,M,35_44
248,434,3379,7.69,6.92,4.62,7.69,7.69,5.38,9.23,11.54,11.54,4.62,7.69,6.92,3.85,0.77,11.54,4.62,10.77,7.69,3.85,9.23,M,35_44
249,435,2119200,0,0,0,7.69,6.92,10.77,3.08,5.38,6.92,6.92,9.23,6.92,10,10.77,10,7.69,17.69,10,11.54,6.92,M,35_44
250,436,581887,16.85,13.15,13.15,13.85,6.23,7.62,10.85,7.62,6.92,8.54,12.23,13.85,11.54,9.92,15.46,10.85,7.62,13.15,8.54,8.54,M,35_44
251,437,31127948,0.77,8.46,8.46,7.69,7.69,7.69,9.23,12.31,9.23,6.92,3.08,11.54,13.85,14.62,9.23,16.92,14.62,8.46,12.31,7.69,M,35_44
252,438,625663,2.31,5.38,9.23,10,3.85,11.54,9.23,6.92,3.08,11.54,8.46,10.77,4.62,13.08,13.08,13.08,3.85,9.23,10,5.38,M,35_44
253,439,13480501,1.54,10,8.46,9.23,6.92,3.08,0,7.69,0.77,2.31,0,3.85,3.08,6.15,4.62,4.62,3.85,1.54,2.31,4.62,M,35_44
254,439,758114,8.46,6.92,12.31,13.85,6.92,13.85,10,5.38,10.77,2.31,10.77,12.31,6.92,13.08,10.77,7.69,9.23,10.77,10,4.62,M,35_44
255,442,4366592,10.77,6.92,10.77,8.46,6.15,0,1.54,0.77,10,10.77,14.62,10.77,3.85,5.38,15.38,10.77,8.46,13.85,10.77,4.62,M,35_44
256,443,5937170,6.19,10.77,9.96,7.81,8.35,2.96,3.77,8.35,9.15,13.19,12.38,9.15,8.35,2.42,6.19,13.19,13.73,8.35,15.35,6.19,M,35_44
257,444,4494620,0,10,0.77,0,0,1.54,6.92,10,6.15,8.46,6.92,6.15,4.62,9.23,3.85,4.62,12.31,2.31,0,5.38,M,35_44
258,445,2532407,0,0,0,3.08,4.62,6.92,6.15,9.23,9.23,6.92,3.85,6.15,6.15,2.31,2.31,0.77,0.77,0.77,0,2.31,M,35_44
259,447,1658532,12.27,11.42,13.12,9.31,13.12,16.08,9.31,3.81,0,0,0,0,18.62,10.58,13.12,21.58,12.27,6.35,11.42,4.65,M,35_44
260,450,654418,0,7.69,3.08,7.69,2.31,3.08,8.46,11.54,12.31,13.85,9.23,15.38,7.69,13.08,6.92,14.62,0.77,17.69,15.38,7.69,M,35_44
261,451,6436989,0,5.31,14.54,16.85,9.92,13.15,8.54,6.23,10.85,9.92,12.23,16.15,6.92,9.92,12.23,10.85,12.23,13.85,10.85,9.23,M,35_44
262,452,28461745,0,6.92,3,3.92,9.92,6.23,5.31,10.85,3,5.31,3,7.62,13.85,9.92,4.62,13.15,15.46,10.85,6.23,2.31,M,35_44
263,457,608249,0,0,0,0,0,0,0,0,0,0,0,0,0,0,0,0,0,0,0,0,M,35_44
264,457,1306370,18.46,13.15,5.31,5.31,5.31,4.62,13.85,5.31,9.23,16.85,5.31,10.85,19.15,16.85,17.77,19.15,16.85,19.15,16.15,13.85,M,35_44
265,459,1092619,6.92,3.92,6.92,6.23,10.85,3.92,10.85,0,3.92,3.92,9.23,9.23,5.31,20.08,4.62,9.92,6.92,6.23,2.31,9.23,M,35_44
266,460,1832193,0,7.69,7.69,10,10.77,6.92,10.77,11.54,12.31,8.46,1.54,7.69,8.46,13.85,11.54,7.69,10,10,9.23,3.85,M,35_44
267,461,1853224,11.54,5.38,3.08,2.31,7.69,0.77,0,5.38,5.38,10,4.62,12.31,8.46,11.54,8.46,10,13.85,17.69,11.54,10,M,35_44
268,461,2282386,2.31,13.85,13.85,12.31,13.08,7.69,11.54,10.77,13.08,6.92,10.77,0,3.85,12.31,13.08,10.77,10,12.31,5.38,6.15,M,35_44
269,463,4753604,7.73,3.12,4.62,4.62,3.12,2.31,3.81,3.81,4.62,7.73,9.23,4.62,8.42,1.5,4.62,4.62,6.12,3.81,3.12,3.81,M,35_44
270,464,5201877,0,5.38,0.77,0.77,3.85,5.38,8.46,10.77,10,8.46,4.62,10,10.77,13.08,11.54,13.08,10.77,9.23,13.08,7.69,M,35_44
271,465,382972,6.92,6.92,6.15,8.46,6.15,6.15,8.46,7.69,9.23,11.54,10,9.23,6.15,5.38,8.46,12.31,12.31,12.31,10.77,8.46,M,35_44
272,466,19014693,7.69,0,0,0,0,0,0,0,0,0,0,0,0,0,0,0,0,0,0,0,M,35_44
273,467,10100955,10,8.46,10.77,8.46,6.92,2.31,2.31,10,8.46,10,10.77,4.62,4.62,0.77,0.77,7.69,9.23,12.31,10,6.92,M,35_44
274,468,2277035,13.15,6.23,12.23,9.92,3.92,6.92,6.23,3.92,12.23,7.62,8.54,17.77,7.62,8.54,0,5.31,9.23,13.15,12.23,5.31,M,35_44
275,470,26245151,0.77,7.69,6.92,6.15,9.23,6.92,3.85,10,9.23,10,10,10,10.77,9.23,10,10,11.54,9.23,7.69,7.69,M,35_44
276,470,21262071,1.54,0,0,0,0,0,1.54,3.85,0.77,0.77,0.77,1.54,1.54,1.54,6.15,0,0.77,0,0,0.77,M,35_44
277,472,6287869,7.62,20.77,13.85,9.92,0,0,10.85,13.85,6.23,7.62,17.77,15.46,13.85,14.54,6.92,16.85,15.46,15.46,5.31,9.92,M,35_44
278,473,24494246,0,0,0,0,0,0,0,0,0,0,0,0,0,0,0,0,0,0,0,0,M,35_44
279,474,1291109,6.92,7.69,6.15,13.85,6.92,13.08,13.85,6.15,8.46,14.62,17.69,8.46,8.46,1.54,11.54,10.77,13.08,16.92,11.54,4.62,M,35_44
280,475,8079238,5.42,2.31,7.73,0,1.5,3.81,8.42,3.12,9.23,3.12,6.12,3.81,8.42,5.42,7.73,6.12,4.62,6.92,2.31,5.42,M,35_44
281,476,4781196,3,0.69,14.54,2.31,16.85,7.62,13.15,0.69,13.85,9.92,6.92,12.23,3,9.92,13.85,16.85,12.23,4.62,4.62,8.54,M,35_44
282,479,3759272,0,0,0,0,0,0,0,0,0,0,0,0,0,0,0,0,0,0,0,0,M,35_44
283,481,11664662,0,6.23,9.92,0,6.92,10.85,13.85,13.15,15.46,8.54,19.15,12.23,16.15,9.92,13.15,16.15,13.15,9.92,6.92,6.92,M,35_44
284,482,1484617,13.08,7.69,10.77,15.38,13.85,9.23,12.31,1.54,4.62,3.08,5.38,6.92,5.38,10.77,11.54,16.15,10.77,12.31,11.54,10.77,M,35_44
285,483,141390,18.46,4,4,5.54,8.62,4,3.08,4.62,8.62,4.62,7.69,27.69,15.38,11.69,15.38,7.69,7.69,9.23,4.62,13.23,M,35_44
286,484,725153,0,0,0,0,0,0,0,0,0,0,0,0,0,0,0,0,0,0,0,0,M,35_44
287,485,2972471,0,18.46,9.92,5.31,5.31,9.23,11.54,21.46,0,2.31,6.23,1.62,6.92,3.92,4.62,2.31,3,6.92,4.62,1.62,M,35_44
288,486,64663,0.77,0,0.77,0,0,5.38,2.31,2.31,2.31,0,0.77,0,0,4.62,5.38,3.08,4.62,3.85,1.54,0.77,M,35_44
289,487,18110704,0,0.77,7.69,5.38,7.69,9.23,7.69,13.08,8.46,14.62,14.62,10.77,10.77,0.77,9.23,4.62,8.46,8.46,10.77,13.08,M,35_44
290,488,3327573,11.54,4.62,4.62,6.92,5.38,3.85,6.15,3.85,8.46,6.92,7.69,6.15,10,6.92,9.23,6.92,9.23,9.23,11.54,6.15,M,35_44
291,489,12456198,1.38,0,3.12,0,1.38,0,0,0,0,3.81,2.42,0,0,0,0,3.12,4.5,3.12,3.12,6.23,M,35_44
292,491,538104,6.92,7.69,12.31,4.62,3.08,7.69,1.54,2.31,0.77,2.31,4.62,2.31,4.62,2.31,8.46,4.62,3.85,1.54,0,0.77,M,35_44
293,492,26914040,0,0,0,0,0,0,0,0,0,0,0,0,0,0,0,0,0,0,5.38,6.92,M,35_44
294,493,5784869,17.77,11.58,13.19,14.54,21.54,14.54,16.96,9.96,12.38,4.58,7,8.35,6.19,7,12.38,7.81,10.77,10.77,5.38,16.15,M,35_44
295,494,687614,2.31,0,0,2.31,1.54,0,0,0,0,2.31,9.23,8.46,3.85,5.38,6.15,9.23,7.69,4.62,6.15,3.08,M,35_44
296,496,2062853,5.38,6.92,10,1.54,2.31,4.62,6.15,5.38,8.46,10.77,10.77,10.77,9.23,11.54,10,9.23,11.54,10,3.85,12.31,M,35_44
297,497,1603457,9.23,11.54,0,0,0,0,0,0,0,0,0,0,0,0,0,0,0,0,0,1.54,M,35_44
298,498,141784,8.46,8.46,14.62,12.31,10,12.31,10.77,6.92,7.69,12.31,6.15,11.54,7.69,5.38,10,8.46,2.31,10,6.15,3.85,M,35_44
299,499,1618752,3.23,18.46,6,10.62,5.54,0,0,0,3.69,6.92,0.92,6,11.54,11.54,13.85,12.46,15.23,10.62,15.23,4.62,M,35_44
300,502,1110032,10.77,8.46,7.69,0,11.54,13.08,13.08,4.62,15.38,14.62,14.62,6.92,15.38,15.38,14.62,8.46,13.08,11.54,7.69,11.54,M,35_44
301,503,4380477,0,0,0,0,0,0,0,0,0,0,0,0,0,0,0,0,0,0,0,0,M,35_44
302,504,550552,2.31,0,6.15,8.46,0,2.31,2.31,5.38,6.15,8.46,9.23,11.54,10,10,4.62,16.92,12.31,13.08,15.38,6.92,M,35_44
303,505,45584876,0,0,0,0,0,0,0,0,0,0,0,0,0,0,0,0,0,0,0,0,M,35_44
304,507,1978882,0,1.54,11.54,0,0.77,1.54,2.31,7.69,0,5.38,0,0,3.85,0,0,0,0,3.85,0,0,M,35_44
305,509,413863,0,9.23,10.77,0,6.92,6.15,7.69,7.69,8.46,8.46,3.85,13.08,12.31,12.31,15.38,12.31,10.77,16.15,11.54,6.92,M,35_44
306,510,2902457,0,10.77,18.46,10,13.85,9.23,12.31,3.85,3.85,11.54,10,9.23,12.31,13.08,5.38,11.54,7.69,10.77,13.08,3.85,M,35_44
307,511,14971294,1.62,16.85,13.15,13.15,4.62,16.85,16.15,14.54,18.46,10.85,15.46,5.31,9.92,3,13.85,13.15,9.92,10.85,5.31,3,M,35_44
308,511,2620861,1.62,16.15,13.15,16.85,14.54,14.54,11.54,22.38,7.62,11.54,12.23,14.54,17.77,16.85,17.77,19.15,16.85,7.62,15.46,13.15,M,35_44
309,514,39426094,0.77,0,3.85,10,11.54,9.23,7.69,12.31,9.23,2.31,9.23,9.23,11.54,10,12.31,11.54,15.38,14.62,14.62,6.15,M,35_44
310,515,1105374,6.15,4.62,6.92,14.62,14.62,13.08,14.62,13.85,10,11.54,0,6.15,9.23,11.54,12.31,13.08,10.77,10.77,11.54,7.69,M,35_44
311,515,8931280,0.77,9.23,9.23,0,0,0,0,0,0,1.54,6.92,4.62,7.69,4.62,6.92,7.69,16.15,7.69,9.23,6.15,M,35_44
312,520,601884,6.15,3.85,10,8.46,5.38,11.54,10,6.92,15.38,1.54,0,3.08,6.15,10,9.23,10,8.46,6.92,6.15,4.62,M,35_44
313,521,754680,9.23,10.77,12.31,10.77,12.31,11.54,11.54,13.08,10.77,7.69,10,6.15,10,2.31,6.92,7.69,9.23,6.92,4.62,10.77,M,35_44
314,522,4873941,5.5,10,15.5,9,12.5,7.5,7,9,13,10,10,10,10,4,4,10,9,7,0,47,M,35_44
315,523,1636559,6.15,12.31,6.92,13.85,10,14.62,17.69,15.38,14.62,6.92,6.92,0,3.08,0.77,4.62,5.38,7.69,10,4.62,2.31,M,35_44
316,526,2253832,9.96,8.35,9.15,9.15,9.96,21.54,14.54,7.81,13.73,5.38,13.73,10.77,9.15,12.38,9.96,5.38,8.35,5.38,15.35,9.15,M,35_44
317,527,1803699,2.31,4.62,5.42,5.42,2.31,6.12,3.81,9.23,0,6.12,3.81,0,0,3.81,0,1.5,5.42,5.42,2.31,3.81,M,35_44
318,528,74765,8.46,10,13.85,13.85,11.54,15.38,16.15,11.54,12.31,10.77,2.31,9.23,13.08,12.31,16.15,9.23,10.77,16.15,11.54,11.54,M,35_44
319,529,750601,4.62,7.73,5.42,5.42,6.92,4.62,6.12,5.42,5.42,6.92,10.04,3.12,6.92,3.81,9.23,8.42,7.73,4.62,6.12,6.92,M,35_44
320,534,1110205,0,9.92,13.85,12.23,16.15,10.85,13.15,11.54,18.46,8.54,13.85,9.92,13.15,17.77,12.23,11.54,14.54,17.77,9.23,14.54,M,35_44
321,535,6474788,0,12.31,13.08,11.54,4.62,4.62,8.46,0,0,3.85,7.69,6.92,9.23,10.77,12.31,8.46,9.23,13.08,6.92,5.38,M,35_44
322,535,1372617,0,0,0,0,0,0,0,0,0,0,0,0,0,0,0,0,0,0,0,0,M,35_44
323,537,379521,6.92,7.73,10.04,4.62,3.81,7.73,3.12,4.62,3.12,4.62,3.81,8.42,6.92,1.5,6.92,6.92,4.62,8.42,5.42,5.42,M,35_44
324,538,697411,7.62,20.77,9.92,20.77,16.85,14.54,13.85,14.54,20.08,12.23,14.54,11.54,9.92,11.54,5.31,7.62,13.15,14.54,13.15,9.23,M,35_44
325,542,11450762,0,0,0,0,0,0,0,0,0,0,0,0,3.81,0,0,0,0,0,1.5,0,M,35_44
326,544,2998601,0,6.15,10,8.46,6.92,10,0.77,6.15,10.77,10,10.77,6.92,13.08,11.54,7.69,7.69,13.08,10,8.46,5.38,M,35_44
327,545,4360774,0,0,0,0,0,0,0,0,0,0,0,0,0,0,0,0,0,0,0,0,M,35_44
328,546,2340231,6,15.23,37.85,17.54,6.92,12.92,20.77,0.92,9.23,5.54,0,0,4.62,5.54,16.15,8.31,7.85,8.31,0.92,2.31,M,35_44
329,547,139179,6.92,6.92,6.92,0,0,5.31,9.92,0,9.23,0,0,0,10.85,9.92,20.08,13.85,15.46,7.62,9.23,11.54,M,35_44
330,549,1638651,12.31,3.85,8.46,10,12.31,10.77,14.62,15.38,10,16.15,13.08,16.92,14.62,13.85,13.08,10,13.85,11.54,9.23,11.54,M,35_44
331,550,27479945,1.54,9.23,11.54,4.62,7.69,3.08,1.54,6.15,6.15,9.23,5.38,18.46,5.38,6.92,6.92,6.92,6.15,9.23,0.77,8.46,M,35_44
332,551,4823566,0,0,0,0,0,0,0,0,0,0,0,0,0,0,2.31,7.69,11.54,16.15,2.31,0,M,35_44
333,552,295788,6.15,14.62,6.15,13.08,7.69,10,0,7.69,8.46,10.77,10,14.62,10.77,13.85,8.46,6.15,12.31,8.46,10,7.69,M,35_44
334,554,169572,3.85,11.54,6.15,9.23,14.62,10,6.92,14.62,10.77,8.46,13.85,11.54,13.85,13.85,13.08,10,14.62,14.62,11.54,9.23,M,35_44
335,557,4123759,8.46,11.54,10.77,12.31,11.54,13.08,16.15,11.54,11.54,1.54,8.46,7.69,12.31,17.69,9.23,13.85,13.85,13.85,16.15,7.69,M,35_44
336,557,2078912,3.81,1.5,6.92,8.42,6.12,7.73,10.04,6.92,5.42,9.23,7.73,8.42,7.73,10.04,7.73,6.92,7.73,10.04,4.62,10.04,M,35_44
337,561,169328,13.85,14.54,15.46,13.85,15.46,16.15,11.54,13.85,16.15,16.15,17.77,16.15,16.85,19.15,16.85,17.77,17.77,18.46,12.23,9.92,M,35_44
338,563,3584705,10,11.54,12.31,0,3.08,10.77,12.31,13.85,13.85,15.38,10.77,16.92,16.15,11.54,12.31,17.69,11.54,14.62,17.69,10,M,35_44
339,564,318284,0,0,6.92,0,0,9.23,7.69,0,0,0,0,0,0,0,0,0,16.15,17.69,4.62,10.77,M,35_44
340,569,1184582,0,6.92,4.62,6.92,7.73,6.92,9.23,9.23,3.81,8.42,1.5,2.31,3.81,6.92,7.73,10.73,5.42,6.12,2.31,4.62,M,35_44
341,569,3424326,0,8.46,9.23,10,13.08,13.85,10,4.62,10.77,13.08,15.38,10.77,9.23,11.54,10.77,11.54,13.85,8.46,9.23,18.46,M,35_44
342,571,1212472,7.69,10,9.23,7.69,9.23,7.69,2.31,3.85,5.38,7.69,10.77,10.77,6.92,6.92,4.62,5.38,12.31,9.23,6.92,3.08,M,35_44
343,572,10496493,0,4.62,0,0,0,0,0,10.77,6.92,11.54,11.54,14.62,8.46,8.46,2.31,15.38,15.38,14.62,12.31,14.62,M,35_44
344,573,22762726,0,11.54,13.15,12.23,6.92,9.23,9.23,11.54,12.23,13.85,12.23,12.23,11.54,12.23,7.62,15.46,13.85,10.85,8.54,11.54,M,35_44
346,575,7307388,10,14.62,13.08,12.31,7.69,14.62,14.62,10.77,13.85,15.38,7.69,16.15,16.92,10.77,16.15,17.69,16.92,13.08,16.92,6.92,M,35_44
347,577,27323883,0,12.62,12.62,12.62,9.46,9.46,9.46,15.77,9.46,12.62,9.46,6.31,12.62,9.46,12.62,12.62,12.62,12.62,9.46,312.23,M,35_44
348,578,1076916,5.38,2.31,7.69,6.15,0,0,1.54,1.54,1.54,2.31,5.38,4.62,7.69,9.23,10,9.23,11.54,9.23,7.69,6.15,M,35_44
349,579,13029147,3.77,7,23.96,20.73,16.15,7.81,7,9.15,11.58,6.19,2.96,2.96,7,1.62,7,5.38,9.96,6.19,2.96,2.96,M,35_44
350,580,1886802,4.62,7.69,13.08,9.23,14.62,0.77,11.54,16.92,13.85,14.62,17.69,13.08,9.23,13.08,0,8.46,10.77,9.23,13.08,9.23,M,35_44
351,585,5161787,0.77,6.92,5.38,10,8.46,10.77,5.38,11.54,1.54,5.38,7.69,6.92,6.15,7.69,9.23,6.15,6.15,10,4.62,4.62,M,35_44
352,586,6257952,13.85,12.31,3.85,14.62,15.38,14.62,16.15,16.15,13.08,12.31,15.38,3.08,7.69,7.69,8.46,2.31,11.54,8.46,8.46,11.54,M,35_44
353,587,112780,2.31,3.08,8.46,10.77,12.31,10,8.46,5.38,10.77,0,2.31,2.31,3.08,6.92,12.31,10.77,12.31,3.85,10.77,5.38,M,35_44
354,589,137454,0,17.54,9.23,6,10.62,6.92,10.62,6.92,2.31,13.85,13.85,13.85,16.15,12.46,12.92,15.23,16.15,15.23,13.85,35.54,M,35_44
355,590,528308,5.54,0,0,0,6.15,2.46,6.15,7.69,6.15,7.08,27.69,27.69,10.77,10.15,4.62,10.77,10.15,12.31,4,13.23,M,35_44
356,592,4880221,9.15,11.58,13.73,7.81,11.58,7,9.15,15.35,5.38,2.96,10.77,13.19,9.15,10.77,16.96,25.31,13.19,18.58,9.96,5.38,M,35_44
357,593,1106234,1.54,12.31,6.92,13.08,13.08,10,16.15,10,6.92,10,14.62,12.31,11.54,12.31,11.54,6.92,10.77,6.92,10.77,6.92,M,35_44
358,595,3205704,6.92,13.08,14.62,15.38,16.15,16.15,14.62,14.62,9.23,10.77,3.85,11.54,14.62,13.85,15.38,15.38,15.38,14.62,14.62,10,M,35_44
359,599,10593294,0,2.31,6.92,6.92,6.12,4.62,6.92,3.12,6.12,6.12,6.12,10.04,1.5,6.92,5.42,1.5,5.42,4.62,8.42,3.81,M,35_44
360,602,2402211,8.62,10.77,4.62,8.62,20,15.38,27.08,13.85,16.31,17.54,3.08,8.62,21.54,18.46,17.54,17.54,16.92,19.38,10.15,10.15,M,35_44
361,603,6440942,5.38,6.92,10.77,7.69,10,6.15,10.77,3.85,7.69,10.77,10.77,10.77,9.23,10.77,9.23,14.62,11.54,11.54,9.23,12.31,M,35_44
362,604,21194890,0,5.38,6.92,6.15,7.69,3.85,9.23,5.38,6.15,14.62,2.31,2.31,6.15,6.15,7.69,8.46,3.08,9.23,4.62,7.69,M,35_44
363,605,26094775,3.85,4.62,4.62,3.85,4.62,10,6.92,3.85,1.54,4.62,3.85,6.92,5.38,4.62,10.77,11.54,8.46,10,6.92,5.38,M,35_44
364,606,4497824,0,3.85,6.92,2.31,3.85,0,0,0,0,0.77,5.38,0,0,0,1.54,3.08,10.77,11.54,11.54,8.46,M,35_44
365,607,7843274,16.15,2.31,0,2.31,3,4.62,3.92,16.85,12.23,12.23,7.62,13.85,12.23,16.85,15.46,16.85,12.23,14.54,16.85,9.92,M,35_44
366,609,6260953,0,11.31,14,0.54,7.54,31.77,11.31,12.92,14,8.62,10.23,15.62,10.77,50.62,15.62,15.62,16.15,16.69,16.69,12.38,M,35_44
367,610,33424071,5.31,8.54,9.92,16.85,9.23,11.54,0.69,6.23,11.54,9.23,10.85,12.23,9.23,13.15,20.08,7.62,8.54,10.85,6.92,6.23,M,35_44
368,611,5177527,0.81,0,0,0,0,0,0,0,1.5,3.12,2.31,4.62,4.62,5.42,3.81,4.62,3.81,8.42,4.62,7.73,M,35_44
369,612,236259,5.38,7.69,5.38,8.46,3.85,4.62,4.62,6.15,4.62,7.69,10,12.31,10.77,3.08,7.69,10,6.92,6.15,8.46,3.85,M,35_44
370,613,1788769,3.08,2.31,3.85,1.54,5.38,3.08,5.38,6.15,3.85,4.62,6.15,6.92,6.92,4.62,10,11.54,10,12.31,6.92,6.92,M,35_44
371,615,3613004,6.92,6.15,5.38,5.38,5.38,6.92,12.31,13.08,9.23,13.85,0,2.31,10.77,10.77,11.54,7.69,11.54,13.08,10.77,10,M,35_44
372,616,6722082,13.08,12.31,10,6.92,10.77,10.77,13.85,10.77,13.08,13.85,10.77,9.23,12.31,2.31,10.77,12.31,14.62,13.08,6.92,12.31,M,35_44
373,617,1291457,6.15,7.69,6.15,3.85,9.23,6.15,6.92,5.38,10,2.31,10,8.46,6.15,13.85,10.77,9.23,16.15,4.62,6.92,4.62,M,35_44
374,618,8867647,0,0,0,0,0,0,0,0,0,0,0,0,0,0,0,0,0,0,0,0,M,35_44
375,620,5215924,0,0,0,0,0,0,0,0,0,0,0,0,0,0,0,0,0,0,0,0,M,35_44
376,622,24062570,6.15,7.69,11.54,16.15,13.85,10,14.62,6.92,11.54,13.85,14.62,10,10,4.62,10,16.15,12.31,13.85,12.31,10.77,M,35_44
377,623,4721517,4.62,6.12,2.31,6.12,3.81,6.12,7.73,6.12,7.73,6.12,8.42,0,6.92,3.12,2.31,0.81,3.81,6.92,6.12,0,M,35_44
378,625,12435901,3.85,3.85,6.15,2.31,6.15,4.62,3.85,7.69,5.38,3.85,3.08,8.46,10,3.85,5.38,3.08,5.38,6.92,3.85,3.85,M,35_44
379,627,1434699,0.77,6.92,6.15,5.38,9.23,6.15,8.46,10.77,10.77,10,12.31,6.92,10.77,7.69,11.54,11.54,12.31,10,6.92,11.54,M,35_44
380,628,6007927,0,9.23,9.23,13.85,7.69,10,1.54,6.92,11.54,13.08,13.08,4.62,10,12.31,8.46,10.77,13.08,10,5.38,12.31,M,35_44
381,630,1353521,3,6.92,13.15,9.92,6.92,9.23,7.62,7.62,11.54,10.85,10.85,12.23,21.46,13.85,7.62,5.31,0.69,8.54,10.85,6.92,M,35_44
382,630,3991574,3,13.15,0,0,3,22.38,6.23,1.62,2.31,4.62,6.23,4.62,6.92,6.23,8.54,6.23,5.31,3,2.31,5.31,M,35_44
383,632,5407618,10.85,0,0,4.62,0,2.31,7.62,5.31,5.31,3.92,6.23,15.46,9.23,14.54,3.92,12.23,13.85,9.23,21.46,3.92,M,35_44
384,633,1803697,1.62,11.54,11.54,21.46,20.77,14.54,16.15,19.15,12.23,16.15,20.08,10.85,12.23,3.92,15.46,11.54,9.92,16.85,9.92,9.92,M,35_44
385,635,56278733,0,0,1.5,0,2.31,0,0,1.5,0,0,0,0,0,0,0,3.81,0,0,0,3.81,M,35_44
386,636,3491892,0,6.15,4,9.23,10.15,10.77,12.31,4,7.69,2.46,7.69,9.23,13.23,15.38,10.77,10.77,16.31,10.15,12.31,10.15,M,35_44
387,636,10065159,0,0,0,0,0,0,0,0,0,0,0,0,0,0,0,0,0,0,0,0,M,35_44
388,639,21067514,0,3.08,8.46,8.46,8.46,6.15,7.69,6.15,11.54,13.85,10,10.77,10.77,3.85,3.08,3.08,4.62,4.62,9.23,3.85,M,35_44
389,639,11965355,1.62,7.81,11.58,4.58,6.19,6.19,8.35,7,13.19,7.81,9.96,7,8.35,4.58,4.58,7,3.77,7,7.81,8.35,M,35_44
390,641,4959375,0,0,0,0,0,0,0,0,0,0,0,0,0,0,0,0,0,0,0,0,M,35_44
391,642,2567964,6.15,11.54,11.54,11.54,7.69,12.31,10.77,10,7.69,13.08,9.23,8.46,13.85,2.31,6.15,6.92,2.31,8.46,4.62,13.85,M,35_44
392,643,549625,6.92,10.77,7.69,12.31,12.31,12.31,10.77,11.54,11.54,5.38,12.31,12.31,11.54,12.31,13.08,4.62,14.62,9.23,6.92,9.23,M,35_44
393,648,6367259,9.23,0,6.15,6.15,9.23,10.15,5.54,11.69,12.31,10.77,11.69,13.23,8.62,12.31,11.69,10.15,10.15,7.69,9.23,5.54,M,35_44
394,650,910889,0,5.38,3.85,5.38,9.23,10,6.92,10.77,7.69,11.54,9.23,7.69,3.08,12.31,8.46,13.08,12.31,10,12.31,9.23,M,35_44
395,651,2144271,0,0,0,0,0,0,0,0,0,0,0,0,17.69,13.85,16.15,13.85,17.69,10.77,13.85,9.23,M,35_44
396,652,9801765,0,0,0,0,0,0,0,0,0,3.85,0,0,0,0,0,0,0,0,0,6.92,M,35_44
397,653,7076237,0,8.42,9.23,6.12,0,9.23,0,0,0,3.12,1.5,0,0,1.5,0,1.5,0,0,0,0,M,35_44
398,654,1482537,10.58,41.46,6.77,13.12,9.31,13.12,12.27,9.31,12.27,0,2.12,4.65,10.15,7.62,12.27,10.15,4.65,13.12,13.12,6.77,M,35_44
399,655,26925710,0,13.85,12.31,7.69,6.15,10,8.46,8.46,13.85,15.38,7.69,9.23,8.46,2.31,5.38,2.31,8.46,11.54,9.23,3.08,M,35_44
400,657,78093,13.08,11.54,6.92,9.23,13.85,12.31,15.38,10.77,8.46,10.77,2.31,12.31,13.85,7.69,6.92,11.54,9.23,12.31,11.54,7.69,M,35_44
401,659,188194,0,3.12,0,0,0,7.73,4.62,3.81,4.62,7.73,0,0.81,0.81,0.81,0,0.81,1.5,0,0,1.5,M,35_44
402,660,3413355,0,0,0,0,0,0,0,0,0,0,0,0,0,0,0,0,0,0,0.81,7.73,M,35_44
403,660,1039284,6.15,0.77,16.15,14.62,12.31,14.62,10.77,8.46,10.77,0.77,4.62,10.77,7.69,11.54,10.77,16.15,14.62,10,8.46,3.85,M,35_44
404,662,11488211,10,13.08,7.69,2.31,5.38,14.62,3.08,6.15,8.46,4.62,0.77,9.23,8.46,6.92,3.85,9.23,9.23,6.92,6.15,2.31,M,35_44
405,663,2754623,4.62,9.23,6.92,7.69,7.69,3.85,3.08,6.15,5.38,8.46,7.69,5.38,5.38,10.77,4.62,6.92,4.62,10.77,5.38,9.23,M,35_44
406,665,6786302,1.62,21.46,2.31,1.62,6.92,4.62,7.62,3.92,7.62,8.54,3.92,6.92,3.92,9.92,8.54,5.31,3,7.62,3.92,1.62,M,35_44
407,666,11527326,1.54,12.31,0,0,0,2.31,3.08,3.08,3.85,5.38,6.15,5.38,4.62,3.08,2.31,5.38,8.46,7.69,10.77,4.62,M,35_44
408,667,1193251,16.92,10.77,6.92,9.23,14.62,7.69,5.38,13.08,3.08,12.31,4.62,0,3.08,14.62,8.46,13.85,13.08,11.54,3.85,10.77,M,35_44
409,668,17402416,1.54,3.08,10.15,10.77,10.15,10.15,11.69,14.77,10.15,12.31,13.85,7.08,16.92,7.69,7.08,10.77,10.15,5.54,3.08,10.77,M,35_44
410,669,1020117,6.15,17.69,3.08,9.23,8.46,8.46,11.54,8.46,12.31,2.31,5.38,1.54,2.31,3.85,10,10,6.92,10.77,5.38,12.31,M,35_44
411,670,5384507,0,0,0,0,0,0,0,0,0,0,0,0,0,0,0,0,0,0,0,0,M,35_44
412,671,2976302,5.38,5.38,10.77,5.38,5.38,9.23,10.77,6.15,11.54,1.54,5.38,3.85,3.08,4.62,0.77,0,3.85,1.54,1.54,2.31,M,35_44
413,674,2902876,10.77,0,0,0,12.31,13.08,1.54,0.77,12.31,10,12.31,13.85,13.08,15.38,16.92,17.69,16.15,14.62,11.54,16.92,M,35_44
414,675,18298151,0,0,0,0,0,0,0,0,0,0,0,0,0,0,0,0,0,0,0,0,M,35_44
415,676,184904,0,0,0,0,0,0,0,0,0,0,0,0,0,0,0,0,0,0,0,0,M,35_44
416,677,7897771,4.62,2.31,3.08,2.31,4.62,10,8.46,10,11.54,13.85,10,13.85,7.69,7.69,10.77,5.38,15.38,13.08,10.77,10.77,M,35_44
417,678,29667895,0,2.31,3.08,7.69,4.62,6.92,6.92,7.69,8.46,6.92,7.69,4.62,5.38,3.85,6.15,3.85,6.92,10.77,10,9.23,M,35_44
418,678,3736715,3.81,9.23,6.12,6.92,4.62,3.12,10.73,3.81,1.5,10.04,3.81,5.42,3.12,10.04,9.23,7.73,6.12,6.92,6.12,6.12,M,35_44
419,680,6278285,0.69,9.92,10.85,6.23,5.31,8.54,7.62,10.85,9.92,8.54,9.23,4.62,19.15,15.46,6.92,12.23,12.23,6.92,15.46,5.31,M,35_44
420,682,2161972,0,0,9.23,7.73,7.73,10.04,6.12,7.73,9.23,9.23,7.73,6.12,8.42,3.12,0,0,0,0,0,0,M,35_44
421,684,1145961,0,0,0,0,0,0,0,0,0,0,0,0,0,0,0,0,0,0,0,0,M,35_44
422,685,167675,3.81,10.15,2.96,6.35,40.62,0,9.31,7.62,5.5,3.81,7.62,6.77,4.65,5.5,1.69,6.77,2.12,7.62,3.81,6.77,M,35_44
423,686,306731,0,0,0,0,0,0,0,0,0,0,0,0,0,0,0,0,0,0,0,7.73,M,35_44
424,687,5711202,0,0,0,0,0,0,0,0,0,0,0,0,0,0,0,0,0,0,0,0,M,35_44
425,689,6685952,0,0,0,0,0,0,0,0,0,0,0,0,0,0,0,0,0,0,0,0,M,35_44
426,689,1891660,0,13.85,10.77,13.85,7.69,9.23,0,3.08,5.38,5.38,13.08,7.69,8.46,12.31,11.54,6.92,10.77,11.54,6.15,0.77,M,35_44
427,694,543480,16.15,10.77,9.42,9.42,13.46,6.73,9.42,13.46,13.46,9.42,9.42,13.46,9.42,10.77,8.08,10.77,9.42,8.08,6.73,4.04,M,35_44
428,695,19093054,1.5,5.42,4.62,5.42,3.81,4.62,6.92,2.31,2.31,7.73,2.31,7.73,6.92,7.73,6.92,8.42,5.42,7.73,7.73,4.62,M,35_44
429,697,4603052,5.38,0,0,0,0,0,0,0,0,2.31,10,5.38,10,11.54,10.77,12.31,7.69,10.77,6.15,11.54,M,35_44
430,698,14804127,8.46,10.77,11.54,17.69,15.38,14.62,12.31,13.85,10.77,11.54,13.85,8.46,13.08,14.62,11.54,14.62,12.31,11.54,10,10.77,M,35_44
431,699,12759443,0.77,11.54,7.69,7.69,10,6.92,10,9.23,8.46,5.38,13.08,11.54,13.08,13.85,6.92,13.08,13.85,8.46,10,8.46,M,35_44
432,700,1124524,0,0,0,0,0,0,0,0,0,0,0,0,0,0,0,0,0,0,0,0,M,35_44
433,701,6704984,16.85,18.46,13.15,13.15,8.54,9.92,11.54,10.85,9.92,10.85,16.15,17.77,11.54,7.62,14.54,15.46,16.85,11.54,6.92,13.85,M,35_44
434,703,77199,0,3.08,6.92,8.46,8.46,8.46,9.23,10.77,8.46,5.38,9.23,0,5.38,5.38,6.92,10,8.46,6.15,10,1.54,M,35_44
435,706,2811311,3.81,6.12,0.81,3.12,1.5,6.12,8.42,6.12,5.42,5.42,7.73,8.42,10.73,7.73,10.04,10.04,7.73,8.42,3.81,2.31,M,35_44
436,707,1045240,0.81,0.81,0,0,0.81,1.5,0,0,0,0.81,0.81,0.81,1.5,3.81,3.12,5.42,7.73,10.04,10.04,4.62,M,35_44
437,708,9485263,6.92,5.38,8.46,6.15,10,5.38,7.69,8.46,8.46,7.69,7.69,11.54,10.77,0,4.62,10.77,10.77,11.54,9.23,5.38,M,35_44
438,709,5834048,5.38,7.69,6.15,6.15,6.92,6.92,7.69,3.08,12.31,1.54,15.38,5.38,9.23,1.54,0,4.62,8.46,2.31,3.85,13.85,M,35_44
439,718,1754122,7.73,5.42,6.12,7.73,6.12,10.04,0,5.42,6.12,5.42,6.92,6.92,9.23,9.23,5.42,7.73,4.62,6.12,6.12,5.42,M,35_44
440,719,986354,0,0,0,0,0,3.85,13.08,10.77,12.31,10,0,7.69,7.69,8.46,8.46,4.62,6.92,4.62,6.92,2.31,M,35_44
441,721,4783416,8.54,5.31,9.23,2.31,0,0.69,9.92,5.31,0,0,19.15,4.62,8.54,6.23,6.23,0.69,3.92,7.62,12.23,3.92,M,35_44
442,723,522906,10,10.77,5.38,10,11.54,7.69,12.31,10,5.38,10,7.69,8.46,10.77,3.08,5.38,6.92,9.23,10.77,9.23,3.85,M,35_44
443,724,12479579,11.54,5.38,13.85,1.54,6.92,10,7.69,3.08,12.31,11.54,13.08,16.15,14.62,9.23,11.54,13.85,11.54,13.08,10,7.69,M,35_44
444,725,12721340,0,0,0,0,0,0,0,0,0,0,0,0,0,0,0,0,0,0,0,0,M,35_44
445,726,3596442,3.08,8.46,6.92,5.38,3.08,0,0,0,0,0,1.54,2.31,3.85,5.38,6.92,7.69,8.46,7.69,5.38,2.31,M,35_44
446,727,49267230,0,1.54,2.31,6.15,6.15,4.62,5.38,4.62,2.31,5.38,4.62,0,4.62,3.85,1.54,3.08,3.85,3.08,5.38,3.08,M,35_44
447,730,2009495,4.62,5.38,1.54,4.62,1.54,1.54,10,10,13.08,10.77,6.15,5.38,7.69,5.38,8.46,14.62,3.08,6.92,12.31,6.92,M,35_44
448,731,7875323,1.54,6.15,6.15,5.38,8.46,9.23,10.77,10.77,13.08,9.23,13.08,13.08,11.54,12.31,13.85,15.38,15.38,16.92,16.92,10,M,35_44
449,732,319107,0,7.69,6.15,6.92,3.85,3.85,8.46,2.31,4.62,3.08,0.77,7.69,8.46,15.38,10,8.46,9.23,6.15,4.62,2.31,M,35_44
450,733,3076141,0,0,0,0,0,0,0,0,0,0,0,0,0,0,0,0,0,0,0,0,M,35_44
451,734,6224750,11.54,0,0,0,0,0,0,0,0,0,0,0,0,6.15,5.38,6.15,9.23,4.62,17.69,5.38,M,35_44
452,735,13447608,4.62,6.15,3.08,0,3.85,3.08,10,0.77,9.23,6.92,8.46,8.46,6.15,13.85,2.31,14.62,6.15,7.69,2.31,3.85,M,35_44
453,738,5027012,11.54,13.15,2.31,8.54,6.92,10.85,13.15,5.31,12.23,15.46,13.85,19.15,9.92,14.54,13.85,17.77,6.92,9.92,16.15,13.15,M,35_44
454,740,142701,9.96,7,3.77,0,0,0,0.81,0,0,0,0,0,2.42,8.35,8.35,8.35,5.38,8.35,9.15,13.19,M,35_44
455,741,2531832,0,4.12,0,0,8.23,0,0,0,0,0,0,0,0,0,0,0,0,0,0,12.35,M,35_44
456,743,1664177,1.54,3.08,6.92,0,2.31,12.31,3.08,10.77,10,1.54,8.46,5.38,10,10,8.46,6.15,0.77,6.92,4.62,3.08,M,35_44
457,744,28556755,0.77,7.69,7.69,7.69,6.15,3.85,5.38,5.38,7.69,6.15,4.62,9.23,8.46,10.77,9.23,6.15,11.54,13.85,13.85,9.23,M,35_44
458,746,11337434,8.46,17.69,16.15,18.46,13.85,14.62,0,10,0,0,0,0,3.85,10,0,7.69,5.38,6.15,3.85,10.77,M,35_44
459,747,1358223,13.08,10,13.08,13.08,12.31,12.31,10,16.15,11.54,12.31,10.77,8.46,7.69,10,0,10.77,15.38,13.08,12.31,11.54,M,35_44
460,750,7822943,9.15,13.73,9.15,13.73,7,7.81,8.35,13.19,7.81,7,11.58,11.58,6.19,9.96,13.73,13.19,15.35,23.15,19.92,7,M,35_44
461,751,20239272,0,6.15,5.38,0,3.08,6.92,6.92,6.92,4.62,6.92,8.46,6.15,10.77,6.15,7.69,11.54,6.92,8.46,8.46,6.15,M,35_44
462,752,1917889,0,10.77,24.5,6.19,9.15,12.38,8.35,10.77,13.19,14.54,10.77,11.58,12.38,16.96,7.81,15.35,11.58,11.58,10.77,6.19,M,35_44
463,755,6439223,0,0.77,1.54,0.77,2.31,2.31,1.54,3.08,2.31,3.08,5.38,1.54,3.85,6.15,3.08,2.31,6.92,2.31,3.08,3.08,M,35_44
464,756,3540452,6.92,12.31,9.23,9.23,9.23,10.77,10.77,10,7.69,9.23,2.31,8.46,10.77,8.46,9.23,6.92,6.15,10,9.23,7.69,M,35_44
465,757,7564030,0,0,0,0,0,0,0,0,0,0,0,0,0,0,0,0,0,0,0,0,M,35_44
466,759,143079,6.15,4.62,2.31,8.46,5.38,6.15,5.38,11.54,10.77,4.62,0.77,14.62,12.31,16.92,6.15,8.46,18.46,10,6.15,6.15,M,35_44
467,760,1826762,6.92,0,0,0,0,0,0,3.85,4.62,10,4.62,5.38,3.85,3.85,7.69,3.85,8.46,4.62,7.69,2.31,M,35_44
468,760,13148056,3.08,3.08,1.54,3.08,2.31,6.92,0.77,3.08,6.15,10.77,0,0,1.54,2.31,6.15,6.15,0,3.85,5.38,0.77,M,35_44
469,762,586816,1.62,5.31,5.31,6.23,8.54,7.62,7.62,6.92,3.92,6.92,9.23,9.92,4.62,13.15,21.46,10.85,12.23,14.54,9.23,10.85,M,35_44
470,763,25584200,0,8.46,5.38,11.54,13.08,9.23,13.08,15.38,16.92,11.54,16.15,13.08,14.62,14.62,13.08,13.85,13.08,15.38,9.23,9.23,M,35_44
471,764,2079313,6.92,6.15,3.08,7.69,0,6.15,8.46,5.38,6.15,7.69,5.38,3.85,10.77,0,3.85,5.38,5.38,6.15,3.08,15.38,M,35_44
472,765,1405927,5.38,10.77,12.31,10,6.15,12.31,13.08,13.85,4.62,13.08,13.85,11.54,0,5.38,11.54,1.54,9.23,16.92,13.08,15.38,M,35_44
473,766,4964057,4.62,6.12,3.81,6.92,6.92,6.12,7.73,5.42,9.23,8.42,6.92,6.92,8.42,6.92,7.73,8.42,5.42,7.73,7.73,2.31,M,35_44
474,767,2887409,2.31,4.62,9.23,3.12,6.92,5.42,7.73,6.12,6.12,6.12,3.12,3.81,8.42,9.23,3.12,9.23,9.23,4.62,0.81,6.12,M,35_44
475,768,5399676,2.31,3.85,7.69,7.69,10.77,10.77,9.23,15.38,6.15,16.15,10,9.23,2.31,14.62,12.31,12.31,6.15,10.77,0.77,6.92,M,35_44
476,769,2448374,8.46,0,0,2.31,1.54,2.31,6.92,3.08,14.62,2.31,6.15,5.38,6.92,6.92,8.46,0.77,0,0,0,0,M,35_44
477,771,1575565,5.38,7.69,6.15,5.38,10,9.23,7.69,14.62,6.15,10,3.08,5.38,6.15,5.38,7.69,8.46,7.69,5.38,7.69,5.38,M,35_44
478,772,16205517,9.23,6.92,16.85,21.46,20.08,9.92,12.23,12.23,2.31,10.85,13.15,9.23,15.46,20.77,9.23,9.23,14.54,13.15,8.54,7.62,M,35_44
479,774,5924068,0.81,0,0,0,0,10.04,10.04,2.31,6.92,5.42,3.81,6.12,4.62,0.81,3.81,7.73,6.12,7.73,6.92,1.5,M,35_44
480,776,3929788,6.92,0,1.5,10.04,6.12,10.04,2.31,10.04,10.73,6.12,0,3.12,0,6.12,1.5,3.81,1.5,2.31,1.5,5.42,M,35_44
481,777,201626,13.46,134.62,75.38,86.15,177.69,207.31,131.92,10.77,196.54,223.46,234.23,140,175,188.46,242.31,218.08,191.15,239.62,245,75.38,M,35_44
482,778,1670460,5.31,20.77,1.62,2.31,5.31,6.23,0,3,2.31,13.85,7.62,8.54,7.62,9.92,9.92,9.23,8.54,7.62,7.62,13.15,M,35_44
483,780,1264224,0,0.92,0,0,0,0,0,2.46,4.62,0,0,0,3.08,1.54,0.92,6.15,28.62,0,3.08,5.54,M,35_44
484,784,27756593,0,0,0,0,0,0,0,0,0,0,0,0,0,0,0,0,0,0,0,0,M,35_44
485,785,44488877,0,10.77,8.46,8.46,7.69,5.38,9.23,9.23,11.54,6.15,10,11.54,10,8.46,10,8.46,9.23,9.23,10,10,M,35_44
486,786,8109679,0,0,0,0,0,0,0,0,0,0,0,0,0,0,0,0,0,0,0,0,M,35_44
487,787,10843521,9.23,1.54,0.77,0,3.85,9.23,10.77,10,2.31,0,0,2.31,3.08,3.08,0.77,8.46,6.15,10,12.31,9.23,M,35_44
488,788,197630,83.08,184.62,135.38,178.46,55.38,160,156.92,138.46,276.92,120,36.92,240,227.69,55.38,83.08,126.15,30.77,273.85,129.23,126.15,M,35_44
489,792,19714982,196.15,0,0,0,0,34.62,42.31,0,30.77,0,0,7.69,0,0,0,15.38,0,0,0,138.46,M,35_44
490,793,550080,0,6.23,6.23,2.31,9.92,13.85,11.54,10.85,5.31,9.23,3,15.46,11.54,8.54,10.85,10.85,6.23,6.92,11.54,2.31,M,35_44
491,794,7407875,0.69,6.92,10.85,1.62,3.92,9.23,13.85,13.15,14.54,14.54,11.54,13.85,11.54,14.54,15.46,11.54,12.23,8.54,1.62,11.54,M,35_44
492,795,1691374,0,0,0,0,0,0,0,0,0,0,0,0,0,0,0,0,0,0,0,0,M,35_44
493,797,3313539,6.15,11.54,13.08,0,0.77,0,0,0,1.54,0,0,3.08,0.77,4.62,3.08,16.92,14.62,17.69,13.08,7.69,M,35_44
494,798,666790,0,0,0,0,0,0,0,0,0,0,0,0,0,0,0,0,0,0,0,0,M,35_44
495,802,12759577,0,238.85,197.31,110.77,58.85,166.15,211.15,190.38,200.77,180,169.62,131.54,259.62,221.54,204.23,294.23,24.23,190.38,86.54,183.46,M,35_44
496,804,46177607,308.08,131.54,159.23,0,3.46,17.31,190.38,107.31,55.38,235.38,290.77,162.69,103.85,200.77,225,200.77,96.92,235.38,207.69,72.69,M,35_44
497,807,1277876,9.92,0,0,0,0,0,0,0,0,0,0,0,0,5.31,4.62,11.54,11.54,13.15,8.54,4.62,M,35_44
498,808,13056982,0,5.38,2.31,6.92,3.08,4.62,7.69,5.38,8.46,6.92,9.23,5.38,7.69,10,8.46,6.92,10,6.92,8.46,4.62,M,35_44
499,810,17219219,16.15,0,8.54,6.23,3,1.62,1.62,0,4.62,2.31,5.31,5.31,3.92,5.31,13.85,8.54,8.54,14.54,5.31,16.15,M,35_44
500,812,31995971,0,0,0,0,0.77,0,0,6.92,3.08,8.46,9.23,9.23,7.69,7.69,10.77,10.77,10.77,3.85,6.92,9.23,M,35_44
501,813,139993,5.38,3.08,6.15,0.77,6.92,16.92,13.08,10.77,10,12.31,7.69,3.08,18.46,3.08,3.85,16.92,6.15,3.85,2.31,1.54,M,35_44
502,814,28269422,20.77,141.92,169.62,62.31,242.31,214.62,186.92,186.92,235.38,252.69,166.15,308.08,259.62,263.08,124.62,235.38,117.69,252.69,259.62,107.31,M,35_44
503,815,255577,10,4.62,13.85,13.85,8.46,6.92,2.31,6.92,2.31,9.23,10,6.15,7.69,4.62,2.31,0,4.62,0,0.77,3.08,M,35_44
504,816,7340982,5.38,0,0,0,0,0,0,0,0,0,0,0,0,0,0,0,0,10.77,3.85,10.77,M,35_44
505,821,728409,0,0,0,0,2.31,3.08,0,0.77,3.08,3.85,0,0,0,0.77,0,3.08,4.62,0,0,0.77,M,35_44
506,823,2193798,0,1.54,3.08,1.54,0.77,5.38,6.92,8.46,3.85,5.38,0,5.38,12.31,12.31,13.85,9.23,15.38,13.08,8.46,6.15,M,35_44
507,824,11781662,1.62,1.62,11.58,2.42,3.77,5.38,2.96,2.96,6.19,25.31,4.58,0,0,6.19,7.81,7,0.81,7,4.58,0.81,M,35_44
508,825,13694912,0,3.92,5.31,5.31,2.31,19.15,3,5.31,0,3,4.62,5.31,0.69,16.15,0.69,2.31,5.31,0,3.92,2.31,M,35_44
509,827,2460895,0,0.69,2.31,3.92,3.92,5.31,4.62,4.62,5.31,5.31,6.23,9.92,6.92,8.54,16.15,12.23,9.92,8.54,7.62,3.92,M,35_44
510,828,25390370,0,7.69,3.08,8.46,9.23,7.69,7.69,8.46,7.69,7.69,6.92,8.46,4.62,4.62,5.38,8.46,8.46,6.92,7.69,5.38,M,35_44
511,829,9777804,0.69,13.15,0.69,0,16.85,1.62,0,0,11.54,11.54,0.69,2.31,9.23,0.69,0.69,5.31,1.62,3.92,9.23,0,M,35_44
512,830,5631378,1.5,2.31,2.31,0,0,1.5,0,0,0,2.31,0.81,0,3.12,1.5,3.81,2.31,0.81,1.5,0,0,M,35_44
513,831,17291265,0,0,4.62,0,4.62,1.54,3.85,2.31,0.77,1.54,6.92,4.62,0.77,0.77,2.31,0.77,0,10,3.08,0,M,35_44
514,833,20556043,1.54,0,0,0,0,1.54,3.08,3.08,2.31,1.54,0.77,3.08,0.77,2.31,0.77,6.15,5.38,0,6.15,0,M,35_44
515,835,1078367,0,4.62,3.81,3.81,5.42,3.12,6.92,5.42,9.23,8.42,9.23,3.81,6.92,3.81,6.92,5.42,6.92,4.62,4.62,3.12,M,35_44
516,836,1775765,16.15,6.15,3.08,12.31,0,3.85,4.62,6.15,10,6.15,11.54,10.77,7.69,6.92,11.54,10,12.31,6.92,8.46,6.15,M,35_44
517,837,8177618,0.77,0,0.77,3.85,1.54,0,5.38,5.38,11.54,0,0,0,0,1.54,0,0.77,2.31,3.85,6.15,6.92,M,35_44
518,838,39952814,0,6.92,5.38,8.46,7.69,7.69,6.15,4.62,7.69,6.92,5.38,10,3.85,3.85,7.69,6.15,3.85,7.69,4.62,0.77,M,35_44
519,839,1069779,0,0.77,0.77,6.15,5.38,3.08,5.38,6.15,4.62,4.62,4.62,10.77,9.23,3.85,5.38,7.69,10.77,4.62,4.62,14.62,M,35_44
520,846,414383,0.69,0,0,0,0,0.69,2.31,3,0,0.69,4.62,0,0.69,6.23,2.31,1.62,1.62,1.62,8.54,2.31,M,35_44
521,848,2339058,3.08,6.15,3.08,8.46,8.46,4.62,1.54,8.46,5.38,3.85,11.54,4.62,11.54,0,2.31,3.85,7.69,3.85,3.08,10.77,M,35_44
522,851,3578410,0,0,5.38,5.38,10.77,3.08,6.92,4.62,1.54,0,3.08,7.69,0,10.77,0,1.54,0,1.54,4.62,0,M,35_44
523,852,818477,0,0,3.85,1.54,0,0,0,0.77,2.31,3.08,6.92,3.08,4.62,0.77,4.62,6.15,7.69,7.69,6.15,6.15,M,35_44
524,853,4415008,5.42,1.5,0,3.81,5.42,2.31,3.81,3.12,1.5,3.12,3.81,3.81,6.92,0.81,5.42,1.5,1.5,1.5,0.81,10.73,M,35_44
525,854,532498,3.08,12.31,13.85,8.62,10.15,4.62,7.08,4.62,13.85,12.31,10.77,12.31,19.38,28.62,14.77,24.62,14.77,10.15,18.46,7.08,M,35_44
526,855,616682,3.12,0,0,3.81,0,0,0,0,0,0,0,0,4.62,1.5,4.62,9.23,4.62,10.04,10.73,6.12,M,35_44
527,856,1891758,0,0.81,1.5,2.31,1.5,0,1.5,1.5,2.31,5.42,4.62,4.62,6.12,3.81,10.04,8.42,7.73,10.73,3.12,1.5,M,35_44
528,858,382811,1.54,10,10,6.92,5.38,7.69,14.62,0,1.54,13.08,8.46,9.23,3.85,8.46,13.08,9.23,3.08,8.46,8.46,6.15,M,35_44
529,859,3311045,3.08,0,0,0,0.92,1.54,2.46,11.69,0,7.08,12.31,6.15,28.62,5.54,7.69,11.69,5.54,5.54,4,0.92,M,35_44
530,861,143882,0,0,0.77,2.31,0.77,0,1.54,0,2.31,18.46,0.77,1.54,13.08,0,0.77,0,3.85,0,0.77,0,M,35_44
