,id,Week1,Week2,Week3,Week4,Week5,Week6,Week7,Week8,Week9,Week10,Week11,Week12,Week13,Week14,Week15,Week16,Week17,Week18,Week19,Week20,Gender,Age_Group
0,182287,13.23,20.92,10.77,18.46,15.38,16.92,10.15,27.08,24,10.77,16.31,12.31,11.69,18.46,8.62,15.38,11.69,13.85,16.31,14.77,F,45_54
1,26015531,13.08,12.31,5.38,8.46,9.23,11.54,9.23,12.31,3.85,6.92,12.31,10,6.15,8.46,10.77,6.92,8.46,10.77,10,3.85,F,45_54
2,4269490,14.54,17.77,15.46,16.15,16.85,16.85,10.85,3.92,13.85,14.54,12.23,18.46,20.08,17.77,15.46,10.85,18.46,19.15,17.77,13.85,F,45_54
3,349170,9.96,7.81,2.42,5.38,7,5.38,6.19,7.81,12.38,13.73,6.19,5.38,10.77,9.15,7,10.77,2.96,7.81,6.19,8.35,F,45_54
4,5480780,7.69,7.69,12.31,9.23,6.92,9.23,7.69,5.38,9.23,17.69,3.85,8.46,3.08,10,5.38,10,6.15,11.54,9.23,5.38,F,45_54
5,2484858,8.46,12.31,13.08,13.85,15.38,8.46,10,3.85,6.92,13.85,11.54,10,9.23,8.46,10,10,6.92,7.69,6.92,6.92,F,45_54
6,2730442,11.54,6.92,7.69,10,10,10.77,10,12.31,9.23,6.15,8.46,10.77,10.77,8.46,13.08,13.08,10,13.85,10.77,8.46,F,45_54
7,21195212,4.62,4.62,6.92,6.15,6.15,7.69,3.08,4.62,6.92,4.62,11.54,5.38,0.77,5.38,3.08,5.38,3.85,6.92,11.54,9.23,F,45_54
8,28635479,6.92,12.31,7.69,10,9.23,6.15,5.38,3.85,1.54,10.77,6.15,9.23,10,10,8.46,12.31,10,6.92,7.69,4.62,F,45_54
9,2000937,13.85,12.31,7.69,6.15,9.23,12.31,12.31,13.85,13.08,10,11.54,12.31,13.08,12.31,13.08,13.85,13.85,13.85,13.85,11.54,F,45_54
10,124425,11.54,9.92,9.23,18.46,7.62,13.85,18.46,15.46,16.85,15.46,11.54,16.15,11.54,13.85,13.85,8.54,6.23,3.92,9.23,4.62,F,45_54
11,3132661,8.46,12.31,9.23,11.54,11.54,7.69,13.08,12.31,18.46,1.54,5.38,10.77,10.77,10,9.23,11.54,0.77,9.23,10.77,10,F,45_54
12,2397782,10,5.38,6.92,12.31,5.38,5.38,9.23,6.15,6.92,8.46,10,7.69,5.38,6.15,3.85,6.92,7.69,7.69,6.15,6.15,F,45_54
13,25921774,6.15,6.15,7.69,10.77,11.54,10.77,16.92,11.54,15.38,13.85,13.08,10,12.31,9.23,10,12.31,10.77,13.85,14.62,8.46,F,45_54
14,35292829,1.54,6.92,3.85,3.85,4.62,5.38,1.54,3.08,4.62,6.92,1.54,6.15,7.69,7.69,6.15,6.15,13.08,9.23,7.69,2.31,F,45_54
15,2325742,7.81,7.81,9.96,10.77,14.54,16.96,24.5,14.54,8.35,9.96,1.62,6.19,4.58,9.15,9.96,9.15,9.15,9.96,9.96,6.19,F,45_54
16,644098,3.81,6.12,4.62,3.81,6.12,6.12,8.42,5.42,5.42,1.5,3.12,6.12,5.42,3.12,4.62,3.81,2.31,3.12,3.81,4.62,F,45_54
17,971525,12.23,9.92,11.54,6.23,11.54,11.54,19.15,9.23,6.92,10.85,2.31,7.62,6.23,6.23,6.23,7.62,7.62,3.92,7.62,6.92,F,45_54
18,22251819,16.92,14.77,13.85,12.31,16.92,19.38,18.46,17.54,18.46,9.23,15.38,7.08,10.15,17.54,17.54,15.38,13.85,16.31,6.15,9.23,F,45_54
19,18309343,10.77,10,6.92,10,10.77,6.15,8.46,10.77,15.38,13.08,14.62,11.54,11.54,12.31,9.23,10.77,13.08,11.54,14.62,12.31,F,45_54
20,4887281,6.15,6.92,5.38,10.77,6.15,6.92,5.38,6.15,13.85,7.69,0.77,6.15,9.23,7.69,9.23,6.15,5.38,5.38,9.23,2.31,F,45_54
21,13403562,4.62,9.23,6.92,10.77,10.77,10,9.23,3.85,11.54,6.92,8.46,12.31,11.54,6.92,11.54,10.77,10,11.54,0.77,5.38,F,45_54
22,2550106,5.54,13.23,16.92,18.46,13.85,10.77,12.31,9.23,12.31,16.31,14.77,8.62,14.77,13.23,21.54,22.46,20,17.54,14.77,11.69,F,45_54
23,263912,12.23,7.62,11.54,13.15,11.54,12.23,14.54,14.54,3,10.85,7.62,11.54,16.15,11.54,13.15,9.92,13.85,14.54,16.85,16.85,F,45_54
24,14566745,10.77,10.77,10,10.77,10.77,11.54,10,10.77,10.77,10.77,11.54,11.54,10,9.23,10,7.69,10.77,10,9.23,9.23,F,45_54
25,306299,10,9.23,10,6.15,10,8.46,10.77,6.15,11.54,10.77,11.54,6.92,13.08,13.85,10,13.08,14.62,14.62,5.38,9.23,F,45_54
26,14640188,5.31,9.23,11.54,20.08,9.92,7.62,11.54,9.92,3,3.92,12.23,7.62,9.92,9.92,16.85,10.85,13.15,10.85,15.46,6.92,F,45_54
27,3043651,5.38,14.54,10.77,7.81,5.38,12.38,8.35,11.58,14.54,16.15,14.54,23.96,17.77,9.15,9.15,8.35,18.58,8.35,14.54,8.35,F,45_54
28,3364856,2.31,2.31,3.08,3.08,3.08,1.54,0.77,3.08,2.31,3.08,1.54,0.77,1.54,1.54,1.54,1.54,3.08,2.31,2.31,0.77,F,45_54
29,272077,5.38,6.19,4.58,6.19,1.62,5.38,6.19,7.81,4.58,6.19,4.58,3.77,4.58,5.38,7.81,6.19,8.35,6.19,9.15,23.15,F,45_54
30,12046920,10,16.92,6.92,10.77,10.77,8.46,6.92,7.69,10,6.92,7.69,6.92,10.77,8.46,7.69,8.46,3.85,11.54,12.31,1.54,F,45_54
31,6322251,6.92,12.31,6.92,4.62,7.69,4.62,3.08,10.77,10.77,7.69,11.54,6.15,11.54,6.15,9.23,6.92,6.92,6.15,3.85,6.92,F,45_54
32,20929319,9.23,13.85,7.69,5.38,11.54,1.54,7.69,10,6.15,13.85,5.38,4.62,12.31,4.62,6.15,6.15,7.69,3.85,4.62,5.38,F,45_54
33,37755324,5.42,6.12,6.12,6.92,8.42,6.12,6.12,8.42,5.42,6.12,6.92,9.23,9.23,7.73,9.23,6.12,10.04,10.04,9.23,6.12,F,45_54
34,698332,8.54,14.54,9.23,8.54,11.54,8.54,6.23,20.77,16.85,6.23,3.92,6.92,11.54,8.54,16.85,8.54,9.23,9.92,9.23,8.54,F,45_54
35,19837,2.31,6.92,7.69,3.08,6.15,4.62,7.69,4.62,5.38,7.69,10.77,7.69,4.62,6.15,3.08,6.92,7.69,4.62,5.38,6.92,F,45_54
36,3987962,5.38,6.92,8.46,6.92,8.46,8.46,6.92,6.92,10.77,8.46,5.38,3.08,5.38,4.62,4.62,8.46,10,5.38,6.15,10.77,F,45_54
37,3783112,3.85,6.92,5.38,3.08,6.15,9.23,6.92,7.69,9.23,10.77,5.38,6.92,3.85,11.54,8.46,13.08,10,8.46,7.69,6.15,F,45_54
38,1417999,10.77,10.77,6.15,9.23,12.31,10,10,13.08,10.77,8.46,10,9.23,10.77,2.31,3.85,7.69,8.46,10,10.77,10.77,F,45_54
39,12805604,16.15,14.62,9.23,13.08,10.77,13.08,13.85,10.77,12.31,13.08,5.38,11.54,10.77,8.46,14.62,14.62,7.69,12.31,10.77,9.23,F,45_54
40,719656,7.69,5.38,1.54,3.08,3.85,2.31,10.77,10.77,5.38,6.92,5.38,1.54,6.15,7.69,10.77,10,7.69,13.85,11.54,1.54,F,45_54
41,550004,0.81,0.81,5.42,4.62,3.81,1.5,3.81,3.12,4.62,6.92,1.5,3.12,6.92,7.73,4.62,0.81,3.81,3.12,2.31,2.31,F,45_54
