,id,Week1,Week2,Week3,Week4,Week5,Week6,Week7,Week8,Week9,Week10,Week11,Week12,Week13,Week14,Week15,Week16,Week17,Week18,Week19,Week20,Gender,Age_Group
0,239594,5.38,5.38,6.15,1.54,6.15,6.15,5.38,10.77,10.77,10.77,10,11.54,7.69,9.23,11.54,8.46,14.62,11.54,6.92,10.77,M,45_54
1,1682310,3.08,7.69,5.38,13.85,14.62,9.23,13.08,8.46,8.46,7.69,13.85,13.85,14.62,7.69,13.08,10,16.92,14.62,9.23,14.62,M,45_54
2,1832919,13.08,7.69,7.69,9.23,8.46,6.15,10.77,6.15,6.92,9.23,11.54,13.08,10.77,13.08,12.31,11.54,12.31,10.77,10.77,6.92,M,45_54
3,679475,10.77,7.69,15.38,5.38,13.08,14.62,13.08,13.85,11.54,13.08,3.08,10.77,12.31,13.85,16.15,11.54,14.62,15.38,8.46,16.92,M,45_54
4,16774027,12.31,17.69,13.85,14.62,10,9.23,8.46,5.38,11.54,7.69,10.77,8.46,10,12.31,10,2.31,4.62,15.38,9.23,13.85,M,45_54
5,548400,5.38,5.38,8.46,9.23,4.62,8.46,0.77,2.31,8.46,5.38,6.15,6.92,8.46,7.69,7.69,6.15,6.92,8.46,6.15,3.85,M,45_54
6,1356979,14.62,18.46,15.38,15.38,9.23,10.77,3.85,6.15,9.23,10,10,16.15,13.85,14.62,9.23,7.69,9.23,13.85,11.54,6.92,M,45_54
7,5743087,13.15,7.62,13.85,6.92,9.23,19.15,7.62,10.85,15.46,16.15,11.54,16.15,20.77,10.85,14.54,7.62,13.15,9.92,10.85,9.92,M,45_54
8,32286200,2.31,2.31,8.46,8.46,7.69,6.92,3.08,9.23,6.15,10.77,11.54,3.85,7.69,11.54,5.38,14.62,9.23,6.92,12.31,8.46,M,45_54
9,33623660,6.15,11.54,9.23,10.77,13.85,8.46,10,5.38,9.23,5.38,7.69,8.46,13.08,7.69,4.62,4.62,3.85,3.85,3.85,5.38,M,45_54
10,30641523,6.15,3.08,4.62,6.15,3.08,0.77,4.62,6.92,5.38,3.85,5.38,6.92,3.08,5.38,6.15,4.62,3.85,4.62,1.54,1.54,M,45_54
11,1754122,5.38,4.58,5.38,6.19,7,1.62,4.58,6.19,9.96,2.96,25.31,5.38,7,2.42,5.38,0.81,2.42,2.42,3.77,5.38,M,45_54
12,1316905,3.92,2.31,6.23,5.31,10.85,10.85,9.23,5.31,12.23,10.85,11.54,12.23,14.54,15.46,13.85,9.23,14.54,20.08,9.23,11.54,M,45_54
13,16780820,8.46,10,9.23,15.38,12.31,13.85,16.92,10.77,7.69,10.77,2.31,10,12.31,11.54,8.46,9.23,7.69,16.92,11.54,9.23,M,45_54
14,7897771,0.77,8.46,8.46,11.54,11.54,10.77,12.31,10.77,9.23,13.08,16.92,7.69,13.08,6.92,10.77,10.77,12.31,9.23,11.54,11.54,M,45_54
15,267217,6.92,6.92,6.12,6.12,6.12,6.12,6.12,5.42,8.42,8.42,5.42,6.92,8.42,7.73,6.12,5.42,7.73,7.73,10.04,5.42,M,45_54
16,43593326,10.77,6.92,6.15,7.69,7.69,10,10,11.54,10.77,13.85,16.92,0.77,7.69,13.85,10.77,8.46,11.54,13.08,11.54,10,M,45_54
17,12440270,13.85,27.69,16.92,5.54,7.08,4.62,3.08,7.69,10.15,4,10.15,5.54,6.15,7.69,11.69,7.08,4,7.69,9.23,12.31,M,45_54
18,2183361,17.77,14.54,15.46,6.23,10.85,11.54,17.77,17.77,14.54,14.54,11.54,16.15,17.77,19.15,13.15,9.23,9.23,20.08,17.77,13.15,M,45_54
19,434285,3.85,2.31,6.15,3.85,3.85,5.38,6.15,4.62,5.38,6.15,4.62,5.38,3.85,5.38,3.85,5.38,7.69,6.15,6.15,13.08,M,45_54
20,1047864,10,13.08,8.46,12.31,6.92,7.69,13.85,11.54,12.31,6.92,9.23,9.23,13.08,10.77,13.08,6.92,9.23,16.92,13.85,8.46,M,45_54
21,16067275,10.15,14.77,10.15,10.15,7.69,2.46,7.69,13.23,10.15,13.85,28.62,10.77,10.15,4.62,12.31,12.31,8.62,11.69,10.77,3.08,M,45_54
22,6765833,15.46,13.15,15.46,14.54,20.77,9.23,3,3,2.31,1.62,3,2.31,8.54,6.23,7.62,6.92,4.62,8.54,6.23,6.23,M,45_54
23,3972456,13.15,9.23,16.15,13.85,14.54,12.23,13.15,5.31,9.23,9.23,16.15,14.54,12.23,13.15,8.54,10.85,16.85,9.92,10.85,12.23,M,45_54
24,1195408,3.85,9.23,10,6.15,6.92,6.92,6.92,10.77,7.69,7.69,10.77,11.54,4.62,13.08,4.62,10,8.46,10.77,7.69,7.69,M,45_54
25,382972,6.15,6.15,7.69,7.69,6.92,6.92,4.62,8.46,7.69,9.23,8.46,9.23,10,9.23,9.23,6.92,6.15,4.62,4.62,10.77,M,45_54
26,1250806,6.15,3.85,9.23,9.23,5.38,9.23,11.54,11.54,7.69,11.54,3.85,11.54,11.54,13.08,9.23,13.08,13.85,12.31,9.23,6.92,M,45_54
27,16966395,8.46,10,8.46,6.92,10,9.23,5.38,7.69,8.46,13.08,13.85,9.23,10.77,13.85,12.31,10.77,9.23,7.69,10.77,7.69,M,45_54
28,353134,1.54,2.31,11.54,1.54,3.85,3.85,3.08,2.31,1.54,3.08,3.08,1.54,0.77,3.85,3.08,4.62,5.38,10.77,2.31,2.31,M,45_54
29,9759,1.54,1.54,3.85,3.08,1.54,3.08,10.77,9.23,6.92,11.54,5.38,6.15,7.69,6.92,7.69,12.31,6.92,10,12.31,10.77,M,45_54
30,141390,9.96,7.81,12.38,11.58,9.96,12.38,11.58,23.15,7,9.96,2.96,3.77,7.81,4.58,6.19,11.58,7,11.58,4.58,4.58,M,45_54
31,24314462,15.38,10,10,10,7.69,3.85,10.77,9.23,9.23,0.77,7.69,8.46,9.23,8.46,7.69,8.46,1.54,4.62,4.62,6.15,M,45_54
32,2181050,3.08,10,7.69,8.46,7.69,5.38,3.85,6.92,6.15,3.85,2.31,1.54,8.46,8.46,6.15,3.08,3.85,5.38,6.92,12.31,M,45_54
33,425300,10.77,3.08,6.92,3.08,6.92,9.23,5.38,8.46,5.38,8.46,6.92,4.62,3.85,3.08,3.85,4.62,3.08,5.38,3.85,10,M,45_54
34,556375,7.69,10.77,5.38,10,9.23,10.77,13.08,10,17.69,10,8.46,9.23,16.15,10.77,13.85,10,9.23,10.77,13.85,8.46,M,45_54
35,12218794,11.54,9.23,8.46,6.92,8.46,10.77,12.31,12.31,9.23,10,11.54,9.23,12.31,10,10,10.77,7.69,10,5.38,7.69,M,45_54
36,291894,190.38,259.62,242.31,184.62,161.54,276.92,323.08,265.38,357.69,357.69,230.77,363.46,403.85,455.77,317.31,409.62,426.92,351.92,271.15,288.46,M,45_54
37,21635976,9.23,10.77,17.69,9.23,7.69,10,7.69,9.23,10.77,10,10,8.46,10.77,5.38,10,8.46,8.46,15.38,10.77,7.69,M,45_54
38,1643397,13.19,9.15,3.77,13.73,16.96,7.81,5.38,16.15,19.12,6.19,9.15,18.58,24.5,7,9.96,14.54,21.54,11.58,19.12,15.35,M,45_54
39,3144603,13.19,13.73,13.19,8.35,13.73,6.19,17.77,12.38,12.38,9.96,15.35,4.58,8.35,12.38,9.96,10.77,9.15,9.96,6.19,13.73,M,45_54
40,5805383,5.38,6.15,6.15,12.31,11.54,3.08,5.38,6.15,9.23,10,10,11.54,10,10,7.69,9.23,1.54,5.38,4.62,3.08,M,45_54
41,2211041,3.85,8.46,10,6.92,6.15,10,10,7.69,7.69,7.69,13.85,10,7.69,10.77,7.69,7.69,5.38,5.38,5.38,3.85,M,45_54
42,22213902,8.62,11.69,10.77,2.46,11.69,13.85,2.46,16.92,16.92,13.85,15.38,11.69,12.31,6.15,13.85,27.08,13.23,16.31,12.31,4.62,M,45_54
43,24208655,5.38,5.38,5.38,9.23,3.08,3.85,3.08,9.23,3.08,5.38,14.62,3.85,10,3.08,4.62,3.85,9.23,9.23,4.62,12.31,M,45_54
44,612019,9.23,12.31,12.31,7.69,7.69,11.54,6.92,4.62,14.62,10,8.46,5.38,9.23,13.08,13.08,11.54,15.38,12.31,16.92,8.46,M,45_54
45,4221325,9.23,8.46,8.46,11.54,7.69,8.46,4.62,6.15,10.77,10.77,3.85,10,9.23,9.23,10,6.15,6.15,11.54,10,6.92,M,45_54
46,1990437,6.92,11.54,4.62,9.23,10,9.23,10,10,10.77,9.23,9.23,6.15,4.62,13.85,4.62,5.38,3.85,6.92,7.69,8.46,M,45_54
47,1299138,10,7.69,13.08,5.38,37.69,3.08,16.15,18.46,8.46,16.92,10,10,13.08,6.92,24.62,6.15,7.69,8.46,10.77,12.31,M,45_54
48,4572440,14.54,11.54,9.23,11.54,3.92,1.62,5.31,15.46,5.31,0.69,6.23,3,8.54,17.77,13.15,9.23,5.31,7.62,3,5.31,M,45_54
49,999588,3.81,6.92,7.73,8.42,8.42,5.42,7.73,7.73,9.23,3.12,6.12,5.42,5.42,9.23,6.92,6.92,8.42,10.04,2.31,4.62,M,45_54
50,7076237,2.31,5.31,7.62,11.54,3.92,19.15,2.31,3.92,3.92,7.62,7.62,1.62,7.62,6.23,1.62,4.62,10.85,10.85,9.23,13.15,M,45_54
51,3387676,11.54,5.38,8.46,3.08,6.92,10.77,35.38,7.69,6.92,13.08,10.77,15.38,14.62,15.38,9.23,7.69,3.08,4.62,7.69,10,M,45_54
52,1866055,10.77,7.69,10,13.08,6.92,12.31,8.46,11.54,7.69,14.62,5.38,8.46,9.23,10,11.54,8.46,17.69,12.31,3.85,13.85,M,45_54
53,929861,8.46,8.46,5.38,2.31,6.92,2.31,13.85,3.08,10,4.62,3.08,5.38,8.46,5.38,13.08,13.08,12.31,9.23,15.38,2.31,M,45_54
54,3405368,5.42,4.62,4.62,4.62,3.12,6.12,6.92,4.62,9.23,3.12,6.12,7.73,6.12,6.12,7.73,6.12,6.12,6.92,3.81,3.81,M,45_54
55,25731999,11.54,10,9.23,9.23,13.85,6.15,14.62,18.46,10.77,15.38,11.54,17.69,16.92,16.15,14.62,6.92,12.31,18.46,13.08,8.46,M,45_54
56,581887,11.54,10,3.08,16.15,16.92,14.62,10.77,14.62,12.31,11.54,7.69,15.38,16.15,13.85,3.85,13.85,8.46,13.08,10.77,7.69,M,45_54
57,12500219,2.31,3.85,4.62,3.85,6.15,3.85,6.15,6.92,7.69,5.38,7.69,4.62,10,6.92,6.92,4.62,10.77,10,12.31,5.38,M,45_54
58,1098453,10.73,9.23,10.73,6.12,5.42,6.12,5.42,5.42,4.62,5.42,3.81,3.12,5.42,7.73,7.73,6.12,6.12,1.5,3.81,0.81,M,45_54
59,44717257,8.46,11.54,10,3.08,10,12.31,4.62,7.69,6.15,12.31,13.85,6.92,3.08,7.69,6.92,6.92,8.46,12.31,6.15,6.92,M,45_54
60,25519559,6.92,6.92,6.12,5.42,6.12,6.12,8.42,9.23,4.62,7.73,7.73,6.92,3.81,6.92,3.81,7.73,2.31,1.5,3.12,5.42,M,45_54
61,316814,3.85,3.08,3.85,7.69,4.62,10.77,0.77,5.38,3.85,6.15,3.08,7.69,5.38,1.54,6.92,5.38,13.08,7.69,6.92,2.31,M,45_54
62,4525947,13.85,6.23,9.23,5.31,21.46,2.31,7.62,10.85,12.23,20.77,5.31,4.62,16.15,1.62,10.85,4.62,10.85,9.23,6.92,7.62,M,45_54
63,959137,6.92,2.31,6.15,3.85,8.46,8.46,0.77,13.08,6.92,6.92,11.54,8.46,10,5.38,3.85,9.23,8.46,10.77,7.69,9.23,M,45_54
64,208314,8.46,6.92,5.38,10,6.15,2.31,7.69,8.46,6.92,10,0.77,9.23,6.92,6.92,6.15,4.62,4.62,3.85,7.69,3.85,M,45_54
65,11019,7.62,13.85,5.31,6.23,20.08,7.62,3.92,9.23,6.92,7.62,9.23,7.62,12.23,5.31,6.23,7.62,10.85,4.62,6.92,5.31,M,45_54
66,219644,4.62,1.62,6.92,11.54,13.85,6.23,10.85,13.15,20.08,6.23,14.54,14.54,12.23,6.23,14.54,16.15,8.54,13.85,12.23,9.23,M,45_54
67,206309,6.92,10.77,7.69,7.69,8.46,11.54,11.54,7.69,3.85,8.46,6.92,11.54,8.46,5.38,11.54,6.92,6.92,8.46,9.23,10,M,45_54
68,4817169,1.54,8.46,9.23,9.23,10.77,13.08,13.85,13.85,10.77,16.92,11.54,15.38,14.62,16.15,13.85,10.77,10,12.31,0.77,7.69,M,45_54
69,3877855,13.08,1.54,11.54,14.62,8.46,11.54,18.46,3.08,4.62,10.77,12.31,3.08,13.08,10,13.85,14.62,11.54,10.77,8.46,8.46,M,45_54
70,10231980,18.46,9.92,12.23,6.92,18.46,15.46,12.23,13.15,14.54,11.54,9.92,20.08,21.46,6.92,8.54,7.62,11.54,6.92,8.54,4.62,M,45_54
71,7579897,6.92,4.62,9.23,3.85,5.38,7.69,8.46,7.69,7.69,12.31,10,10,10.77,10,10,8.46,10.77,6.92,9.23,11.54,M,45_54
72,7638525,5.38,9.23,5.38,7.69,6.92,8.46,9.23,3.85,9.23,2.31,4.62,4.62,4.62,5.38,10.77,8.46,6.92,6.15,7.69,9.23,M,45_54
73,13912366,5.38,16.15,8.46,16.15,8.46,9.23,10.77,12.31,13.08,13.85,4.62,15.38,8.46,13.08,14.62,15.38,7.69,13.08,12.31,13.08,M,45_54
74,33343,1.54,14.62,9.23,7.69,6.92,5.38,9.23,10.77,11.54,12.31,12.31,10,6.92,14.62,10,11.54,4.62,9.23,10,8.46,M,45_54
75,442598,10.77,1.54,2.31,6.92,9.23,2.31,7.69,8.46,8.46,9.23,5.38,0.77,6.15,3.08,4.62,6.15,5.38,8.46,6.92,6.15,M,45_54
76,19580130,8.46,10.77,7.69,9.23,6.92,10.77,13.08,14.62,13.85,16.92,6.92,8.46,9.23,3.85,10,5.38,10,12.31,13.08,6.15,M,45_54
77,3049193,9.23,4.62,10,6.92,10.77,5.38,13.08,10.77,6.92,11.54,10,10.77,6.15,2.31,2.31,1.54,4.62,8.46,10.77,1.54,M,45_54
78,29117423,20.77,25.38,8.46,28.46,27.69,27.69,7.69,26.92,30.77,33.08,8.46,28.46,23.85,36.15,7.69,16.92,16.15,13.85,12.31,8.46,M,45_54
79,5992511,6.92,1.54,6.15,10,6.15,6.15,10,5.38,9.23,6.92,8.46,8.46,7.69,9.23,7.69,9.23,8.46,9.23,8.46,6.92,M,45_54
80,777732,9.96,11.58,11.58,14.54,12.38,9.15,15.35,14.54,11.58,12.38,12.38,9.96,23.96,4.58,7.81,9.15,11.58,10.77,8.35,0.81,M,45_54
81,2915445,9.23,9.92,1.62,6.23,3,10.85,5.31,11.54,14.54,19.15,9.23,9.23,11.54,3.92,8.54,7.62,12.23,7.62,5.31,3.92,M,45_54
82,313668,17.69,14.62,10,9.23,6.15,6.92,10.77,10,12.31,6.15,10,12.31,10,5.38,10,9.23,14.62,9.23,9.23,7.69,M,45_54
83,36250274,8.46,10,6.15,13.08,10,7.69,9.23,13.85,0.77,9.23,10,13.08,13.08,11.54,13.08,10,11.54,14.62,9.23,6.92,M,45_54
84,4652206,5.38,10,13.08,10.77,10,10.77,7.69,7.69,13.08,12.31,12.31,11.54,10,10,11.54,9.23,8.46,10.77,6.15,7.69,M,45_54
85,1810965,10.77,11.69,27.69,13.85,12.31,4,1.54,4.62,3.08,7.08,8.62,9.23,10.15,8.62,9.23,7.69,4.62,11.69,12.31,11.69,M,45_54
86,29857338,9.23,7.69,6.92,10,9.23,5.38,11.54,1.54,6.92,6.92,6.15,6.92,6.15,5.38,6.15,8.46,5.38,3.08,8.46,5.38,M,45_54
87,2092029,6.15,8.46,6.15,10.77,10.77,8.46,8.46,4.62,12.31,16.92,6.15,3.85,12.31,1.54,6.15,12.31,7.69,10,7.69,3.08,M,45_54
88,773745,1.54,6.15,11.54,8.46,4.62,11.54,9.23,8.46,10,12.31,11.54,11.54,10.77,10,9.23,10.77,12.31,14.62,11.54,8.46,M,45_54
89,15810665,11.54,10.85,13.85,9.92,1.62,6.23,22.38,9.92,3.92,10.85,22.38,21.46,12.23,13.15,11.54,10.85,6.23,16.85,13.15,6.23,M,45_54
90,28337789,9.23,5.31,9.23,6.23,6.23,21.46,8.54,15.46,11.54,17.77,10.85,12.23,9.92,11.54,7.62,11.54,3,12.23,9.92,5.31,M,45_54
91,4603052,6.23,14.54,19.15,12.23,9.92,12.23,4.62,15.46,0.69,10.85,9.23,12.23,13.85,15.46,13.15,7.62,3,11.54,9.92,8.54,M,45_54
92,189359,7.08,10.15,5.54,7.08,5.54,3.08,6.15,6.15,7.08,8.62,4,1.54,10.15,9.23,6.15,7.08,1.54,11.69,7.69,27.08,M,45_54
93,24832978,6.23,20.08,9.23,12.23,13.85,11.54,11.54,9.92,10.85,7.62,8.54,15.46,4.62,15.46,16.15,12.23,6.92,17.77,4.62,4.62,M,45_54
94,347774,10.77,9.23,8.46,9.23,7.69,12.31,12.31,11.54,6.92,11.54,10.77,10,5.38,9.23,11.54,9.23,3.08,12.31,13.08,11.54,M,45_54
95,3513958,3.08,2.46,5.54,5.54,6.15,10.15,0.92,6.15,9.23,10.15,8.62,6.15,10.77,7.69,7.69,8.62,9.23,0.92,7.08,4.62,M,45_54
96,58488,13.08,5.38,11.54,10.77,12.31,6.92,15.38,15.38,13.85,8.46,18.46,13.85,6.92,11.54,14.62,11.54,13.85,10,11.54,8.46,M,45_54
97,10829388,249.62,308.85,355.38,321.54,334.23,211.54,418.85,220,236.92,351.15,181.92,232.69,351.15,228.46,249.62,334.23,186.15,220,194.62,270.77,M,45_54
98,1860127,10.77,1.54,3.08,7.69,6.92,7.69,13.08,13.08,12.31,11.54,12.31,13.08,7.69,10,10,6.92,4.62,10.77,11.54,6.15,M,45_54
99,6294166,9.23,7.69,7.69,7.69,7.69,9.23,10,10,9.23,5.38,4.62,6.92,8.46,7.69,10.77,9.23,11.54,10,9.23,7.69,M,45_54
100,147943,1.5,5.42,0.81,3.12,0.81,9.23,3.12,0.81,1.5,4.62,3.81,1.5,1.5,3.81,1.5,3.12,2.31,3.12,3.12,3.12,M,45_54
101,33989662,3.85,6.15,9.23,10.77,10,13.85,14.62,11.54,14.62,10,11.54,10,13.85,12.31,15.38,10.77,16.92,11.54,11.54,3.85,M,45_54
102,12579053,9.23,5.42,3.81,6.12,7.73,6.12,8.42,7.73,6.12,5.42,6.92,8.42,8.42,6.92,7.73,6.92,2.31,5.42,4.62,3.12,M,45_54
103,527273,7.69,6.92,9.23,10,7.69,6.15,14.62,12.31,5.38,6.92,6.92,3.08,6.92,7.69,2.31,6.15,7.69,10.77,10,6.92,M,45_54
104,29182112,13.08,2.31,9.23,1.54,8.46,6.15,12.31,11.54,13.08,9.23,13.08,6.15,10,10,13.08,11.54,12.31,14.62,13.08,10,M,45_54
105,209441,7.73,8.42,6.92,6.92,8.42,8.42,8.42,9.23,9.23,7.73,4.62,3.12,10.04,8.42,3.12,5.42,6.12,8.42,7.73,6.92,M,45_54
106,8531251,6.15,6.92,6.15,6.15,5.38,7.69,4.62,5.38,3.85,2.31,4.62,5.38,7.69,7.69,7.69,6.92,6.92,4.62,4.62,9.23,M,45_54
107,32978536,5.38,9.23,10.77,7.69,6.15,9.23,4.62,6.92,5.38,9.23,6.92,7.69,9.23,6.92,8.46,6.92,4.62,7.69,3.85,4.62,M,45_54
108,1183912,10.77,10,11.54,10.77,10,13.08,7.69,12.31,3.08,1.54,2.31,5.38,3.08,3.08,10,10,7.69,10,6.92,2.31,M,45_54
109,19508711,10.77,13.85,13.85,15.38,16.92,16.92,10.77,21.54,30.77,49.23,30.77,27.69,55.38,55.38,33.85,66.15,70.77,66.15,56.92,63.08,M,45_54
110,13870517,10.62,8.31,12.46,10.15,10.62,13.85,11.54,6,10.62,6.92,7.85,12.92,11.54,11.54,11.54,9.23,10.15,9.23,12.46,10.15,M,45_54
111,3880597,6.92,5.38,3.85,11.54,7.69,5.38,10.77,6.92,10.77,5.38,6.15,6.15,6.92,7.69,3.08,3.85,3.85,5.38,9.23,7.69,M,45_54
112,21858685,15.35,9.15,4.58,2.96,12.38,7,7.81,7.81,16.15,10.77,10.77,12.38,11.58,10.77,13.73,12.38,13.19,9.15,10.77,8.35,M,45_54
113,5487038,7.69,4.62,5.38,6.92,6.15,6.92,8.46,7.69,9.23,10,10,10,6.92,7.69,6.92,13.85,8.46,8.46,5.38,6.15,M,45_54
114,3539874,11.54,11.54,11.54,15.38,14.62,15.38,16.15,10.77,10,9.23,3.08,6.15,6.15,3.08,13.85,11.54,5.38,9.23,13.85,10,M,45_54
115,774389,8.46,3.08,12.31,12.31,13.08,12.31,6.15,11.54,3.85,14.62,9.23,11.54,6.15,16.15,6.92,15.38,4.62,14.62,6.92,6.92,M,45_54
116,17451151,16.85,18.46,14.54,20.08,16.15,11.54,11.54,3.92,6.92,12.23,13.15,6.23,7.62,12.23,13.85,16.15,14.54,13.15,8.54,11.54,M,45_54
117,1112060,6.92,5.38,7.69,6.15,6.92,7.69,6.15,6.15,7.69,7.69,9.23,6.92,5.38,10.77,6.92,9.23,10,10,10,7.69,M,45_54
118,723876,6.15,5.38,2.31,4.62,3.85,12.31,7.69,11.54,10.77,11.54,13.08,9.23,9.23,11.54,7.69,5.38,12.31,16.92,12.31,6.92,M,45_54
119,12014,3.12,6.92,6.12,4.62,4.62,5.42,6.92,4.62,5.42,5.42,5.42,5.42,8.42,8.42,0.81,5.42,3.81,2.31,3.81,3.81,M,45_54
120,15337677,6.12,1.5,3.12,4.62,3.81,3.81,3.12,4.62,2.31,2.31,2.31,4.62,2.31,2.31,3.12,5.42,3.12,6.12,4.62,5.42,M,45_54
121,15908,12.31,11.69,13.85,13.23,8.62,9.23,9.23,13.23,10.77,15.38,9.23,10.15,8.62,7.69,25.54,8.62,9.23,9.23,13.23,10.77,M,45_54
122,688571,9.92,7.62,6.92,7.62,7.62,6.23,6.92,7.62,9.92,9.92,10.85,11.54,9.23,11.54,20.08,11.54,9.23,12.23,9.23,12.23,M,45_54
123,4243389,5.38,14.62,8.46,10,8.46,8.46,6.92,12.31,10.77,7.69,13.08,13.08,10,15.38,12.31,12.31,6.92,10,11.54,8.46,M,45_54
124,204681,10.77,7.69,10.77,7.69,9.23,3.08,9.23,7.69,7.69,10.77,10.77,9.23,10.77,12.31,11.54,11.54,10,8.46,10,3.85,M,45_54
125,1044015,6.92,3.08,1.54,4.62,3.08,2.31,3.85,4.62,2.31,3.85,6.92,5.38,3.85,6.92,5.38,5.38,6.15,3.85,3.08,2.31,M,45_54
126,9594718,11.54,6.23,13.85,16.85,16.15,10.85,13.85,11.54,12.23,2.31,12.23,16.15,19.15,13.15,14.54,10.85,14.54,15.46,16.15,15.46,M,45_54
127,1920619,4.58,6.19,7.81,6.19,7.81,8.35,9.15,8.35,11.58,9.15,26.12,4.58,13.19,11.58,2.96,13.19,13.73,14.54,13.19,7.81,M,45_54
128,1196572,10,6.15,4.62,3.08,14.62,16.92,7.69,10,5.38,6.15,6.15,3.85,11.54,7.69,10.77,9.23,10,6.15,3.85,3.08,M,45_54
129,3270333,3.08,4.62,6.15,6.15,2.31,4.62,6.15,3.08,6.15,3.85,6.15,2.31,4.62,6.15,3.08,4.62,4.62,5.38,2.31,2.31,M,45_54
130,2135565,6.92,3.08,1.54,1.54,1.54,0.77,10,4.62,8.46,7.69,10.77,11.54,6.92,10,13.08,9.23,12.31,13.08,9.23,10.77,M,45_54
131,1179672,6.92,5.38,3.85,3.85,4.62,4.62,7.69,7.69,6.92,9.23,9.23,10,11.54,10,9.23,11.54,7.69,6.15,13.08,1.54,M,45_54
132,2262397,6.15,7.69,6.92,3.08,7.69,8.46,3.08,2.31,6.15,7.69,7.69,1.54,4.62,4.62,7.69,6.92,5.38,13.08,9.23,13.85,M,45_54
133,3524946,22.42,3.81,10.15,6.77,9.31,12.27,9.31,13.12,8.46,6.77,6.77,16.92,40.62,1.69,4.65,10.15,7.62,12.27,7.62,6.35,M,45_54
134,390190,10,11.54,9.23,5.38,12.31,5.38,8.46,8.46,10,6.92,7.69,6.15,10.77,6.92,7.69,10,6.15,5.38,6.15,6.92,M,45_54
135,2423283,3.08,2.31,2.31,2.31,2.31,3.08,4.62,3.85,6.15,2.31,6.92,3.85,3.85,2.31,3.85,6.15,2.31,4.62,3.85,3.08,M,45_54
136,1141353,10.58,11.42,2.96,9.31,15.23,9.31,5.5,24.54,40.19,6.77,6.35,6.77,9.31,10.15,8.46,15.23,9.31,6.35,6.77,6.35,M,45_54
137,14776485,7.81,7.81,6.19,7.81,7.81,7,10.77,9.96,7.81,11.58,7,8.35,7,9.15,8.35,7,4.58,9.15,7,9.15,M,45_54
138,13073400,7.08,8.62,12.31,14.77,7.69,12.31,18.46,7.69,11.69,8.62,12.31,11.69,14.77,10.15,14.77,10.77,10.15,7.08,10.77,3.08,M,45_54
139,14563505,70.15,5.85,5.85,8.04,6.58,8.04,8.04,12.42,12.42,10.96,10.96,2.92,10.96,5.12,4.38,8.04,9.5,5.85,5.85,2.92,M,45_54
140,1895036,13.73,13.19,16.96,11.58,10.77,9.96,18.58,4.58,2.42,4.58,3.77,1.62,7,0.81,2.96,7.81,9.15,7.81,10.77,7.81,M,45_54
141,350088,6.15,6.15,9.23,6.15,1.54,6.92,10,4.62,9.23,10,9.23,6.15,9.23,9.23,10,10.77,11.54,7.69,10,8.46,M,45_54
142,5341336,13.15,12.23,16.15,3,7.62,9.92,9.23,8.54,5.31,9.23,11.54,6.92,1.62,12.23,6.92,11.54,9.92,15.46,13.15,9.23,M,45_54
143,526187,6.92,8.46,6.92,6.92,7.69,8.46,9.23,5.38,3.08,6.15,9.23,7.69,7.69,9.23,9.23,6.92,9.23,10.77,10,10.77,M,45_54
144,36127,12.31,13.08,10,6.92,12.31,10,8.46,10,7.69,10.77,6.92,4.62,6.15,5.38,6.92,6.15,3.85,5.38,5.38,5.38,M,45_54
145,27276939,5.38,7.69,2.31,3.85,7.69,0.77,1.54,6.92,10,10.77,12.31,8.46,12.31,12.31,11.54,10,13.08,10.77,9.23,6.15,M,45_54
146,6695381,6.19,6.19,4.58,9.15,7,8.35,6.19,5.38,4.58,2.96,6.19,8.35,9.15,7.81,8.35,12.38,8.35,6.19,3.77,5.38,M,45_54
147,9735307,2.42,9.35,12.46,2.42,10.04,11.42,1.38,1.38,9.35,10.73,10.04,11.42,11.42,10.73,10.04,9.35,3.12,4.5,12.46,10.73,M,45_54
148,6465642,13.15,2.31,9.23,12.23,10.85,13.15,11.54,15.46,13.85,14.54,16.85,18.46,18.46,13.15,20.77,16.15,17.77,16.85,16.15,5.31,M,45_54
149,21195375,6.92,2.31,3.85,3.08,6.92,11.54,4.62,9.23,5.38,9.23,9.23,7.69,5.38,7.69,6.15,5.38,7.69,5.38,4.62,6.92,M,45_54
150,7426367,7.69,7.69,6.15,5.38,2.31,7.69,3.85,4.62,3.85,3.08,1.54,14.62,7.69,3.85,6.15,6.92,6.15,2.31,5.38,6.92,M,45_54
151,29438273,5.38,5.38,6.15,6.15,6.15,6.92,4.62,5.38,6.92,9.23,6.92,7.69,8.46,9.23,9.23,10,7.69,4.62,11.54,3.08,M,45_54
152,3902172,6.92,10.77,1.54,7.69,6.15,3.85,11.54,11.54,6.92,10.77,4.62,6.92,5.38,5.38,13.85,6.15,9.23,10,5.38,3.85,M,45_54
153,324752,5.54,4.5,14.54,8.31,11.42,6.23,0.69,2.42,12.46,1.38,9.35,7.62,8.31,9.35,11.42,11.42,6.23,11.42,30.81,5.54,M,45_54
154,2932926,1.54,5.38,2.31,1.54,1.54,3.08,3.85,3.08,3.08,3.85,2.31,0.77,3.08,3.08,3.85,2.31,3.08,12.31,1.54,2.31,M,45_54
155,11616008,5.38,5.38,2.31,5.38,5.38,5.38,6.15,5.38,5.38,4.62,6.15,6.92,6.92,7.69,8.46,6.92,7.69,7.69,6.15,2.31,M,45_54
156,5833444,5.38,10,10,6.15,5.38,10,9.23,9.23,8.46,8.46,12.31,4.62,10.77,12.31,11.54,8.46,10.77,6.15,10.77,12.31,M,45_54
157,2463433,7.69,6.92,6.92,6.15,6.15,6.92,3.08,6.92,12.31,8.46,10,11.54,10,9.23,4.62,3.85,4.62,6.92,6.92,1.54,M,45_54
158,752719,0.69,1.62,9.92,5.31,16.85,5.31,3.92,10.85,1.62,12.23,3,7.62,7.62,5.31,10.85,10.85,13.15,10.85,12.23,3,M,45_54
159,305874,8.46,5.38,10,7.69,6.15,5.38,11.54,10.77,8.46,5.38,10.77,9.23,6.15,7.69,6.92,8.46,6.15,0.77,8.46,2.31,M,45_54
160,10645747,6.23,21.46,4.62,1.62,3.92,3.92,3,13.85,1.62,1.62,5.31,11.54,7.62,3,13.85,6.92,8.54,3.92,8.54,3.92,M,45_54
161,33586687,1.54,6.15,13.08,3.85,3.85,1.54,1.54,6.92,8.46,9.23,8.46,9.23,10.77,7.69,12.31,13.08,12.31,7.69,13.08,2.31,M,45_54
162,1629092,6.92,6.15,7.69,6.15,10.77,9.23,8.46,5.38,3.08,12.31,1.54,3.85,2.31,5.38,5.38,3.08,5.38,5.38,2.31,5.38,M,45_54
163,306563,0.81,23.15,3.77,7.81,9.15,7,6.19,8.35,7,8.35,16.15,9.15,8.35,5.38,10.77,7,10.77,9.96,8.35,7,M,45_54
164,6530894,6.92,2.31,4.62,3.12,4.62,6.12,4.62,6.12,6.92,7.73,2.31,2.31,3.81,6.12,4.62,3.81,5.42,6.92,8.42,6.12,M,45_54
165,2311822,9.23,8.46,6.92,12.31,8.46,10.77,8.46,3.85,10,9.23,9.23,8.46,10.77,8.46,8.46,5.38,10,5.38,7.69,3.08,M,45_54
166,2271929,7.69,3.08,6.15,5.38,4.62,6.92,6.92,6.92,1.54,6.92,6.92,5.38,6.15,6.92,5.38,6.15,3.08,5.38,8.46,3.85,M,45_54
167,190956,3.12,3.12,3.12,6.92,4.62,6.12,8.42,3.81,6.12,3.81,3.12,10.04,3.12,6.12,3.12,3.81,1.5,3.12,10.73,4.62,M,45_54
168,2910417,2.31,3.81,4.62,2.31,5.42,3.81,4.62,0.81,3.81,6.12,2.31,3.81,2.31,4.62,2.31,4.62,3.12,4.62,3.12,3.81,M,45_54
169,25368017,7.69,7.69,4.62,8.46,7.69,6.92,11.54,6.15,9.23,6.92,12.31,8.46,10,4.62,9.23,9.23,6.92,7.69,10,8.46,M,45_54
170,2637245,1.54,3.85,3.85,3.85,4.62,4.62,3.85,4.62,4.62,4.62,2.31,2.31,4.62,4.62,2.31,5.38,4.62,4.62,7.69,1.54,M,45_54
171,2966604,3.12,3.12,1.5,3.81,6.12,5.42,4.62,5.42,6.12,3.12,0.81,5.42,5.42,6.12,4.62,6.92,2.31,3.81,3.12,3.81,M,45_54
172,735742,17.69,7.69,2.31,3.85,5.38,7.69,2.31,5.38,9.23,5.38,7.69,4.62,4.62,6.92,2.31,3.85,5.38,3.08,6.92,1.54,M,45_54
173,3014525,5.38,3.85,5.38,6.15,6.15,4.62,6.15,4.62,3.85,3.85,5.38,3.08,5.38,6.15,6.15,4.62,4.62,3.85,5.38,3.85,M,45_54
174,21719408,5.38,7.81,7.81,7.81,11.58,6.19,7.81,5.38,13.73,7,5.38,14.54,12.38,13.19,13.73,13.19,12.38,12.38,13.73,8.35,M,45_54
175,29433142,8.46,11.42,34.69,17.77,10.15,4.65,7.62,17.77,16.08,10.15,13.96,5.5,4.65,8.46,6.35,7.62,6.77,6.77,9.31,9.31,M,45_54
176,3710886,3.08,3.08,3.85,4.62,2.31,4.62,4.62,3.08,3.85,4.62,6.92,3.08,3.85,4.62,3.85,5.38,2.31,6.15,0.77,3.85,M,45_54
