,id,Week1,Week2,Week3,Week4,Week5,Week6,Week7,Week8,Week9,Week10,Week11,Week12,Week13,Week14,Week15,Week16,Week17,Week18,Week19,Week20,Gender,Age_Group
0,356358,9.23,13.15,9.92,11.54,11.54,9.23,6.92,9.92,13.85,11.54,14.54,13.85,13.15,14.54,15.46,15.46,15.46,14.54,13.15,14.54,F,35_44
1,8370121,6.92,7.62,7.62,11.54,15.46,10.85,15.46,6.92,14.54,16.85,17.77,3.92,6.23,12.23,2.31,1.62,3,2.31,2.31,0.69,F,35_44
2,8149665,9.23,8.46,9.23,10.77,10,10.77,7.69,12.31,16.92,10,12.31,16.92,9.23,9.23,7.69,7.69,5.38,6.15,1.54,6.92,F,35_44
3,7857123,6.92,6.92,4.62,4.62,4.62,5.42,6.92,6.12,6.92,6.12,0.81,4.62,5.42,1.5,3.12,0.81,1.5,3.81,3.12,3.81,F,35_44
4,14721337,11.54,12.31,13.85,9.23,5.38,8.46,0.77,9.23,5.38,13.85,13.85,9.23,5.38,9.23,9.23,7.69,8.46,6.15,6.15,3.08,F,35_44
5,148287,5.31,20.08,9.23,8.54,6.23,3,13.85,6.92,7.62,7.62,6.23,10.85,13.85,6.23,12.23,8.54,9.23,11.54,5.31,11.54,F,35_44
6,182287,13.23,20.92,10.77,18.46,15.38,16.92,10.15,27.08,24,10.77,16.31,12.31,11.69,18.46,8.62,15.38,11.69,13.85,16.31,14.77,F,35_44
7,27492965,6.15,8.46,10,7.69,6.92,10.77,9.23,11.54,13.85,12.31,14.62,15.38,15.38,15.38,8.46,5.38,3.08,12.31,16.92,6.15,F,35_44
8,4412469,7.69,10,11.54,11.54,10,12.31,10,7.69,6.92,13.08,13.85,10,12.31,12.31,8.46,11.54,1.54,8.46,9.23,6.92,F,35_44
9,349170,9.96,7.81,2.42,5.38,7,5.38,6.19,7.81,12.38,13.73,6.19,5.38,10.77,9.15,7,10.77,2.96,7.81,6.19,8.35,F,35_44
10,4218798,13.08,12.31,15.38,7.69,8.46,8.46,4.62,10.77,11.54,9.23,14.62,13.85,11.54,16.15,9.23,10,10.77,15.38,15.38,11.54,F,35_44
11,124425,11.54,9.92,9.23,18.46,7.62,13.85,18.46,15.46,16.85,15.46,11.54,16.15,11.54,13.85,13.85,8.54,6.23,3.92,9.23,4.62,F,35_44
12,18180125,15.23,19.38,17.65,16.27,20.77,15.23,20.77,20.08,18.35,13.85,12.46,31.5,21.46,20.08,15.23,19.38,18.35,11.42,20.77,14.54,F,35_44
13,12752415,13.08,12.31,10,9.23,10,12.31,16.15,12.31,14.62,15.38,11.54,14.62,16.92,10,15.38,16.15,12.31,12.31,11.54,4.62,F,35_44
14,25921774,6.15,6.15,7.69,10.77,11.54,10.77,16.92,11.54,15.38,13.85,13.08,10,12.31,9.23,10,12.31,10.77,13.85,14.62,8.46,F,35_44
15,4023266,16.85,16.15,13.85,18.46,11.54,19.15,3.92,10.85,10.85,13.85,17.77,16.15,20.08,13.85,15.46,7.62,16.85,9.92,20.77,12.23,F,35_44
16,3487920,14.62,13.08,15.38,10,5.38,13.08,10,8.46,11.54,7.69,8.46,5.38,12.31,13.85,10,10.77,0.77,3.85,6.15,12.31,F,35_44
17,1886022,7.69,5.38,13.85,13.85,11.54,16.15,18.46,14.62,13.08,11.54,2.31,4.62,2.31,9.23,10.77,7.69,6.15,15.38,18.46,12.31,F,35_44
18,6066,6.15,13.85,10.77,13.85,12.31,13.85,10.77,7.69,13.08,10,6.92,10,9.23,9.23,10,5.38,14.62,6.15,10,6.92,F,35_44
19,13304647,12.31,12.31,13.85,10,13.08,10,10,11.54,13.08,16.15,13.08,10,10,10,8.46,5.38,6.92,6.92,6.15,7.69,F,35_44
20,200428,6.92,3.85,3.08,16.92,4.62,0.77,3.08,7.69,9.23,5.38,6.15,6.15,7.69,6.92,4.62,6.15,8.46,6.92,5.38,4.62,F,35_44
21,29204019,2.31,2.31,6.12,6.12,6.92,7.73,4.62,8.42,3.81,5.42,2.31,4.62,4.62,6.92,0.81,3.81,8.42,2.31,6.12,1.5,F,35_44
22,1460905,10.77,10.77,8.46,6.92,11.54,8.46,6.92,8.46,13.08,16.15,7.69,13.85,7.69,10.77,10,7.69,7.69,7.69,7.69,5.38,F,35_44
23,5502085,2.31,2.31,2.31,3.12,5.42,3.12,5.42,5.42,5.42,5.42,5.42,4.62,5.42,3.12,5.42,3.81,4.62,4.62,6.92,6.92,F,35_44
24,739881,6.92,6.92,6.92,4.62,8.42,8.42,8.42,3.12,5.42,9.23,9.23,6.92,7.73,7.73,6.92,8.42,7.73,0.81,4.62,4.62,F,35_44
25,15301435,6.12,6.12,8.42,7.73,3.12,8.42,3.81,4.62,3.81,3.81,6.92,3.81,3.81,4.62,2.31,2.31,1.5,2.31,4.62,3.81,F,35_44
26,2325742,7.81,7.81,9.96,10.77,14.54,16.96,24.5,14.54,8.35,9.96,1.62,6.19,4.58,9.15,9.96,9.15,9.15,9.96,9.96,6.19,F,35_44
27,2483782,13.15,15.46,14.54,9.92,9.92,14.54,5.31,13.15,9.23,10.85,12.23,12.23,11.54,10.85,10.85,8.54,9.23,12.23,7.62,5.31,F,35_44
28,4269490,14.54,17.77,15.46,16.15,16.85,16.85,10.85,3.92,13.85,14.54,12.23,18.46,20.08,17.77,15.46,10.85,18.46,19.15,17.77,13.85,F,35_44
29,527871,6.12,4.62,3.81,5.42,6.92,3.81,6.92,10.73,4.62,6.12,4.62,4.62,5.42,6.92,6.92,6.92,5.42,9.23,6.12,3.12,F,35_44
30,343219,7.69,1.54,9.23,9.23,3.85,5.38,2.31,6.92,5.38,4.62,7.69,10,7.69,9.23,5.38,2.31,10.77,5.38,7.69,4.62,F,35_44
31,179268,8.46,10.77,14.62,13.85,11.54,10.77,13.85,2.31,3.85,8.46,15.38,13.85,6.15,10,10.77,9.23,6.15,10,11.54,15.38,F,35_44
32,36497661,10,8.46,7.69,10.77,10.77,7.69,10.77,11.54,13.85,12.31,10,7.69,13.85,14.62,13.85,14.62,9.23,16.15,16.92,10,F,35_44
33,2815256,3.85,6.92,7.69,0.77,1.54,7.69,8.46,7.69,10.77,9.23,10.77,7.69,9.23,10.77,10.77,6.15,6.92,8.46,10,4.62,F,35_44
34,12000976,5.38,2.31,1.54,3.08,1.54,3.08,2.31,11.54,4.62,3.08,6.92,2.31,3.85,3.85,3.85,2.31,0.77,2.31,4.62,4.62,F,35_44
35,3473874,6.92,6.15,4.62,4.62,4.62,6.92,4.62,2.31,2.31,12.31,4.62,4.62,6.92,3.08,5.38,3.08,5.38,4.62,4.62,3.08,F,35_44
36,4692420,11.77,11.77,11.77,0,588.46,11.77,11.77,5.88,5.88,11.77,5.88,5.88,5.88,5.88,5.88,11.77,5.88,5.88,5.88,5.88,F,35_44
37,26117807,7.69,8.46,9.23,9.23,8.46,7.69,8.46,8.46,6.92,10,7.69,7.69,8.46,10,11.54,10.77,11.54,6.15,4.62,6.92,F,35_44
38,12056171,1.54,4.62,3.85,4.62,3.08,6.92,7.69,1.54,7.69,6.92,5.38,7.69,10,13.08,6.92,9.23,8.46,8.46,6.15,3.08,F,35_44
39,182287,13.23,20.92,10.77,18.46,15.38,16.92,10.15,27.08,24,10.77,16.31,12.31,11.69,18.46,8.62,15.38,11.69,13.85,16.31,14.77,F,45_54
40,26015531,13.08,12.31,5.38,8.46,9.23,11.54,9.23,12.31,3.85,6.92,12.31,10,6.15,8.46,10.77,6.92,8.46,10.77,10,3.85,F,45_54
41,4269490,14.54,17.77,15.46,16.15,16.85,16.85,10.85,3.92,13.85,14.54,12.23,18.46,20.08,17.77,15.46,10.85,18.46,19.15,17.77,13.85,F,45_54
42,349170,9.96,7.81,2.42,5.38,7,5.38,6.19,7.81,12.38,13.73,6.19,5.38,10.77,9.15,7,10.77,2.96,7.81,6.19,8.35,F,45_54
43,5480780,7.69,7.69,12.31,9.23,6.92,9.23,7.69,5.38,9.23,17.69,3.85,8.46,3.08,10,5.38,10,6.15,11.54,9.23,5.38,F,45_54
44,2484858,8.46,12.31,13.08,13.85,15.38,8.46,10,3.85,6.92,13.85,11.54,10,9.23,8.46,10,10,6.92,7.69,6.92,6.92,F,45_54
45,2730442,11.54,6.92,7.69,10,10,10.77,10,12.31,9.23,6.15,8.46,10.77,10.77,8.46,13.08,13.08,10,13.85,10.77,8.46,F,45_54
46,21195212,4.62,4.62,6.92,6.15,6.15,7.69,3.08,4.62,6.92,4.62,11.54,5.38,0.77,5.38,3.08,5.38,3.85,6.92,11.54,9.23,F,45_54
47,28635479,6.92,12.31,7.69,10,9.23,6.15,5.38,3.85,1.54,10.77,6.15,9.23,10,10,8.46,12.31,10,6.92,7.69,4.62,F,45_54
48,2000937,13.85,12.31,7.69,6.15,9.23,12.31,12.31,13.85,13.08,10,11.54,12.31,13.08,12.31,13.08,13.85,13.85,13.85,13.85,11.54,F,45_54
49,124425,11.54,9.92,9.23,18.46,7.62,13.85,18.46,15.46,16.85,15.46,11.54,16.15,11.54,13.85,13.85,8.54,6.23,3.92,9.23,4.62,F,45_54
50,3132661,8.46,12.31,9.23,11.54,11.54,7.69,13.08,12.31,18.46,1.54,5.38,10.77,10.77,10,9.23,11.54,0.77,9.23,10.77,10,F,45_54
51,2397782,10,5.38,6.92,12.31,5.38,5.38,9.23,6.15,6.92,8.46,10,7.69,5.38,6.15,3.85,6.92,7.69,7.69,6.15,6.15,F,45_54
52,25921774,6.15,6.15,7.69,10.77,11.54,10.77,16.92,11.54,15.38,13.85,13.08,10,12.31,9.23,10,12.31,10.77,13.85,14.62,8.46,F,45_54
53,35292829,1.54,6.92,3.85,3.85,4.62,5.38,1.54,3.08,4.62,6.92,1.54,6.15,7.69,7.69,6.15,6.15,13.08,9.23,7.69,2.31,F,45_54
54,2325742,7.81,7.81,9.96,10.77,14.54,16.96,24.5,14.54,8.35,9.96,1.62,6.19,4.58,9.15,9.96,9.15,9.15,9.96,9.96,6.19,F,45_54
55,644098,3.81,6.12,4.62,3.81,6.12,6.12,8.42,5.42,5.42,1.5,3.12,6.12,5.42,3.12,4.62,3.81,2.31,3.12,3.81,4.62,F,45_54
56,971525,12.23,9.92,11.54,6.23,11.54,11.54,19.15,9.23,6.92,10.85,2.31,7.62,6.23,6.23,6.23,7.62,7.62,3.92,7.62,6.92,F,45_54
57,22251819,16.92,14.77,13.85,12.31,16.92,19.38,18.46,17.54,18.46,9.23,15.38,7.08,10.15,17.54,17.54,15.38,13.85,16.31,6.15,9.23,F,45_54
58,18309343,10.77,10,6.92,10,10.77,6.15,8.46,10.77,15.38,13.08,14.62,11.54,11.54,12.31,9.23,10.77,13.08,11.54,14.62,12.31,F,45_54
59,4887281,6.15,6.92,5.38,10.77,6.15,6.92,5.38,6.15,13.85,7.69,0.77,6.15,9.23,7.69,9.23,6.15,5.38,5.38,9.23,2.31,F,45_54
60,13403562,4.62,9.23,6.92,10.77,10.77,10,9.23,3.85,11.54,6.92,8.46,12.31,11.54,6.92,11.54,10.77,10,11.54,0.77,5.38,F,45_54
61,2550106,5.54,13.23,16.92,18.46,13.85,10.77,12.31,9.23,12.31,16.31,14.77,8.62,14.77,13.23,21.54,22.46,20,17.54,14.77,11.69,F,45_54
62,263912,12.23,7.62,11.54,13.15,11.54,12.23,14.54,14.54,3,10.85,7.62,11.54,16.15,11.54,13.15,9.92,13.85,14.54,16.85,16.85,F,45_54
63,14566745,10.77,10.77,10,10.77,10.77,11.54,10,10.77,10.77,10.77,11.54,11.54,10,9.23,10,7.69,10.77,10,9.23,9.23,F,45_54
64,306299,10,9.23,10,6.15,10,8.46,10.77,6.15,11.54,10.77,11.54,6.92,13.08,13.85,10,13.08,14.62,14.62,5.38,9.23,F,45_54
65,14640188,5.31,9.23,11.54,20.08,9.92,7.62,11.54,9.92,3,3.92,12.23,7.62,9.92,9.92,16.85,10.85,13.15,10.85,15.46,6.92,F,45_54
66,3043651,5.38,14.54,10.77,7.81,5.38,12.38,8.35,11.58,14.54,16.15,14.54,23.96,17.77,9.15,9.15,8.35,18.58,8.35,14.54,8.35,F,45_54
67,3364856,2.31,2.31,3.08,3.08,3.08,1.54,0.77,3.08,2.31,3.08,1.54,0.77,1.54,1.54,1.54,1.54,3.08,2.31,2.31,0.77,F,45_54
68,272077,5.38,6.19,4.58,6.19,1.62,5.38,6.19,7.81,4.58,6.19,4.58,3.77,4.58,5.38,7.81,6.19,8.35,6.19,9.15,23.15,F,45_54
69,12046920,10,16.92,6.92,10.77,10.77,8.46,6.92,7.69,10,6.92,7.69,6.92,10.77,8.46,7.69,8.46,3.85,11.54,12.31,1.54,F,45_54
70,6322251,6.92,12.31,6.92,4.62,7.69,4.62,3.08,10.77,10.77,7.69,11.54,6.15,11.54,6.15,9.23,6.92,6.92,6.15,3.85,6.92,F,45_54
71,20929319,9.23,13.85,7.69,5.38,11.54,1.54,7.69,10,6.15,13.85,5.38,4.62,12.31,4.62,6.15,6.15,7.69,3.85,4.62,5.38,F,45_54
72,37755324,5.42,6.12,6.12,6.92,8.42,6.12,6.12,8.42,5.42,6.12,6.92,9.23,9.23,7.73,9.23,6.12,10.04,10.04,9.23,6.12,F,45_54
73,698332,8.54,14.54,9.23,8.54,11.54,8.54,6.23,20.77,16.85,6.23,3.92,6.92,11.54,8.54,16.85,8.54,9.23,9.92,9.23,8.54,F,45_54
74,19837,2.31,6.92,7.69,3.08,6.15,4.62,7.69,4.62,5.38,7.69,10.77,7.69,4.62,6.15,3.08,6.92,7.69,4.62,5.38,6.92,F,45_54
75,3987962,5.38,6.92,8.46,6.92,8.46,8.46,6.92,6.92,10.77,8.46,5.38,3.08,5.38,4.62,4.62,8.46,10,5.38,6.15,10.77,F,45_54
76,3783112,3.85,6.92,5.38,3.08,6.15,9.23,6.92,7.69,9.23,10.77,5.38,6.92,3.85,11.54,8.46,13.08,10,8.46,7.69,6.15,F,45_54
77,1417999,10.77,10.77,6.15,9.23,12.31,10,10,13.08,10.77,8.46,10,9.23,10.77,2.31,3.85,7.69,8.46,10,10.77,10.77,F,45_54
78,12805604,16.15,14.62,9.23,13.08,10.77,13.08,13.85,10.77,12.31,13.08,5.38,11.54,10.77,8.46,14.62,14.62,7.69,12.31,10.77,9.23,F,45_54
79,719656,7.69,5.38,1.54,3.08,3.85,2.31,10.77,10.77,5.38,6.92,5.38,1.54,6.15,7.69,10.77,10,7.69,13.85,11.54,1.54,F,45_54
80,550004,0.81,0.81,5.42,4.62,3.81,1.5,3.81,3.12,4.62,6.92,1.5,3.12,6.92,7.73,4.62,0.81,3.81,3.12,2.31,2.31,F,45_54
81,420414,16.92,11.54,11.54,9.23,11.54,11.54,13.85,11.54,10.77,12.31,11.54,9.23,10.77,3.85,8.46,8.46,8.46,12.31,10,5.38,F,55_64
82,30012765,2.31,6.92,3.85,3.85,3.85,3.08,10,5.38,5.38,10.77,7.69,5.38,10,7.69,8.46,5.38,9.23,11.54,5.38,4.62,F,55_64
83,17580895,12.31,6.92,12.31,15.38,12.31,17.69,18.46,13.85,14.62,13.85,9.23,11.54,13.08,14.62,10,10.77,0.77,12.31,13.85,10.77,F,55_64
84,6199157,9.23,8.46,6.92,6.92,6.92,6.92,7.69,10,4.62,1.54,6.92,9.23,9.23,9.23,4.62,10,6.92,13.08,8.46,6.92,F,55_64
85,306299,10,9.23,10,6.15,10,8.46,10.77,6.15,11.54,10.77,11.54,6.92,13.08,13.85,10,13.08,14.62,14.62,5.38,9.23,F,55_64
86,344735,9.23,8.54,2.31,5.31,6.92,22.38,5.31,7.62,3.92,5.31,12.23,10.85,6.92,9.92,12.23,12.23,7.62,7.62,10.85,9.23,F,55_64
87,5030742,4.62,6.92,7.69,4.62,7.69,11.54,6.92,12.31,10.77,4.62,13.08,7.69,12.31,2.31,10.77,7.69,7.69,7.69,6.15,5.38,F,55_64
88,15564659,6.12,5.42,3.81,5.42,7.73,6.92,6.92,7.73,6.12,6.12,6.12,6.12,6.12,9.23,4.62,6.12,5.42,6.12,6.92,6.92,F,55_64
89,22299259,9.23,11.54,10,8.46,9.23,10,6.15,3.08,6.92,10.77,7.69,12.31,12.31,10,13.85,9.23,7.69,14.62,9.23,8.46,F,55_64
90,29857653,8.31,7.62,17.65,9.35,9.35,13.85,9.35,8.31,8.31,13.85,13.85,10.73,13.85,14.54,14.54,16.96,12.46,4.5,14.54,10.04,F,55_64
91,21288994,6.77,5.5,7.62,39.35,2.96,4.65,4.65,4.65,5.5,6.35,7.62,3.81,4.65,2.96,2.96,6.35,6.35,6.35,5.5,4.65,F,55_64
92,564785,9.23,10.77,12.31,12.31,11.54,7.69,12.31,11.54,10.77,12.31,12.31,9.23,13.08,10.77,10.77,10,7.69,10.77,10,10.77,F,55_64
93,1486911,9.81,16.15,10.96,9.81,9.81,9.23,9.23,12.12,13.27,16.15,10.96,11.54,13.85,8.65,27.69,6.92,10.96,12.12,10.96,12.12,F,55_64
94,4784227,3.85,11.54,5.38,2.31,2.31,6.15,5.38,6.15,3.08,3.85,1.54,5.38,8.46,8.46,3.08,7.69,0.77,3.08,5.38,3.85,F,55_64
95,1115094,3.08,3.08,6.15,8.46,11.54,14.62,9.23,10,10.77,11.54,6.92,11.54,13.08,12.31,8.46,13.08,10,13.08,9.23,6.15,F,65_69
96,13204733,10.77,14.62,7.69,11.54,10,13.08,8.46,13.85,9.23,9.23,6.92,10,14.62,12.31,13.08,8.46,11.54,13.08,13.85,9.23,F,65_69
97,1289508,8.46,6.15,7.69,10.77,12.31,6.15,9.23,10,11.54,6.15,10,13.08,12.31,10.77,11.54,7.69,4.62,6.92,14.62,6.92,F,65_69
98,2571326,6.92,8.42,6.92,6.92,5.42,1.5,3.81,6.12,5.42,7.73,6.92,5.42,6.12,4.62,6.92,6.12,6.12,8.42,7.73,6.12,F,65_69
99,1924229,5.38,5.38,6.15,0.77,4.62,3.85,3.08,4.62,4.62,3.85,4.62,3.85,1.54,6.92,5.38,3.85,3.08,4.62,5.38,1.54,F,65_69
