,id,Week1,Week2,Week3,Week4,Week5,Week6,Week7,Week8,Week9,Week10,Week11,Week12,Week13,Week14,Week15,Week16,Week17,Week18,Week19,Week20,Gender,Age_Group
0,15475736,10.77,3.08,6.92,4.62,8.46,17.69,6.92,10,1.54,1.54,6.92,3.08,5.38,1.54,10,16.92,7.69,8.46,7.69,7.69,M,55_64
1,13112175,15.46,13.85,15.46,11.54,13.85,15.46,16.15,9.92,10.85,10.85,12.23,14.54,13.15,8.54,10.85,6.92,9.23,7.62,6.23,6.23,M,55_64
2,29276335,11.54,9.23,10.85,12.23,11.54,6.92,14.54,2.31,9.23,11.54,9.23,10.85,6.23,9.92,7.62,4.62,7.62,9.23,13.15,10.85,M,55_64
3,1928641,5.31,8.54,8.54,5.31,9.23,10.85,4.62,9.23,13.85,5.31,9.92,9.92,9.23,5.31,16.85,3.92,19.15,10.85,7.62,5.31,M,55_64
4,4243389,5.38,14.62,8.46,10,8.46,8.46,6.92,12.31,10.77,7.69,13.08,13.08,10,15.38,12.31,12.31,6.92,10,11.54,8.46,M,55_64
5,37446418,11.54,8.46,9.23,5.38,10,1.54,1.54,10,10.77,6.15,10.77,10.77,10.77,6.15,3.85,10,6.15,10,9.23,4.62,M,55_64
6,22383450,160,150.77,73.85,172.31,233.85,236.92,236.92,196.92,141.54,215.38,64.62,181.54,15.38,89.23,181.54,36.92,203.08,295.38,153.85,58.46,M,55_64
7,10829388,13.15,13.15,16.85,15.46,16.85,9.92,20.77,10.85,12.23,16.15,9.23,12.23,16.15,11.54,19.15,20.08,9.92,13.15,11.54,13.15,M,55_64
8,2866241,10.77,9.96,9.15,3.77,9.96,1.62,10.77,7.81,9.15,9.96,10.77,14.54,13.73,11.58,7.81,13.19,13.73,13.73,13.73,15.35,M,55_64
9,16227144,6.23,11.42,10.04,7.62,30.81,8.31,6.92,10.73,11.42,7.62,8.31,5.54,13.15,6.92,7.62,6.92,9.35,9.35,6.92,3.12,M,55_64
10,215873,16.15,17.77,13.73,15.35,16.15,12.38,20.73,15.35,13.73,24.5,12.38,12.38,10.77,9.96,12.38,16.15,11.58,14.54,11.58,11.58,M,55_64
11,713668,2.31,0.81,0.81,7.73,3.12,6.12,1.5,3.12,3.81,8.42,6.12,3.81,6.92,7.73,6.12,6.92,7.73,8.42,3.12,10.04,M,55_64
12,3049193,9.23,4.62,10,6.92,10.77,5.38,13.08,10.77,6.92,11.54,10,10.77,6.15,2.31,2.31,1.54,4.62,8.46,10.77,1.54,M,55_64
13,12070269,3.85,5.38,3.85,7.69,5.38,11.54,12.31,9.23,12.31,10,12.31,5.38,13.85,16.92,13.08,9.23,9.23,5.38,3.85,4.62,M,55_64
14,20922196,1.54,3.08,9.23,7.69,9.23,8.46,0.77,3.08,3.85,5.38,7.69,4.62,5.38,6.15,5.38,3.85,5.38,3.85,4.62,3.08,M,55_64
15,26655347,18.46,6.23,13.85,10.85,15.46,11.54,9.23,3,12.23,16.15,15.46,12.23,3,4.62,16.15,18.46,16.15,13.15,12.23,10.85,M,55_64
16,26714046,6.12,5.42,6.92,7.73,6.92,4.62,6.92,6.12,6.12,3.81,3.81,4.62,5.42,3.12,5.42,3.12,2.31,0.81,2.31,1.5,M,55_64
17,15289570,8.54,7.62,13.85,12.23,16.85,9.23,11.54,10.85,10.85,11.54,18.46,12.23,14.54,15.46,15.46,16.85,14.54,9.92,15.46,6.23,M,55_64
18,18822894,3.85,3.08,6.15,5.38,8.46,6.92,7.69,12.31,9.23,10,10.77,14.62,10,14.62,15.38,14.62,15.38,15.38,15.38,8.46,M,55_64
19,1590163,1.54,7.69,7.69,9.23,9.23,9.23,2.31,4.62,2.31,3.85,10,6.92,13.08,9.23,10,10,4.62,2.31,6.15,9.23,M,55_64
20,1412045,3.12,2.31,0.81,0.81,2.31,3.12,3.81,4.62,5.42,6.92,6.92,4.62,7.73,8.42,4.62,8.42,5.42,7.73,3.12,3.81,M,55_64
21,777732,9.96,11.58,11.58,14.54,12.38,9.15,15.35,14.54,11.58,12.38,12.38,9.96,23.96,4.58,7.81,9.15,11.58,10.77,8.35,0.81,M,55_64
22,3345410,6.92,10,11.54,12.31,10.77,8.46,10.77,14.62,12.31,14.62,8.46,13.08,16.15,15.38,6.92,14.62,13.08,13.08,15.38,8.46,M,55_64
23,45567590,4.62,6.23,8.54,13.15,13.15,12.23,6.92,5.31,7.62,13.15,11.54,6.23,12.23,12.23,6.92,6.92,9.23,13.15,13.15,6.92,M,55_64
24,1735582,2.31,0.77,7.69,6.92,7.69,5.38,9.23,6.92,2.31,6.92,3.85,10,6.92,7.69,2.31,2.31,10.77,10.77,15.38,15.38,M,55_64
25,8696209,6.92,5.42,3.81,2.31,5.42,2.31,3.81,0.81,1.5,9.23,3.12,3.12,4.62,4.62,4.62,1.5,2.31,0.81,0.81,0.81,M,55_64
26,2827814,6.15,7.69,2.31,6.15,7.69,0.77,3.08,6.15,4.62,5.38,6.15,8.46,10.77,12.31,10,6.92,4.62,15.38,11.54,10.77,M,55_64
27,12558975,5.38,10.77,13.08,6.92,8.46,4.62,11.54,6.92,6.15,6.15,7.69,12.31,5.38,6.15,8.46,3.85,6.15,5.38,6.92,6.15,M,55_64
28,1066740,10.77,10.77,10.77,3.08,9.23,8.46,11.54,10.77,11.54,9.23,12.31,8.46,13.85,9.23,13.85,13.85,12.31,11.54,12.31,11.54,M,55_64
29,527700,7.08,7.08,1.54,3.08,24,5.54,28.62,9.23,7.69,9.23,30.15,7.08,8.62,20.92,7.69,6.15,7.69,9.23,10.77,7.08,M,55_64
30,434063,7.73,6.12,3.81,3.12,0.81,2.31,6.12,4.62,4.62,6.12,0.81,3.81,4.62,5.42,1.5,2.31,10.04,2.31,6.12,4.62,M,55_64
31,1044015,6.92,3.08,1.54,4.62,3.08,2.31,3.85,4.62,2.31,3.85,6.92,5.38,3.85,6.92,5.38,5.38,6.15,3.85,3.08,2.31,M,55_64
32,630963,6.12,6.12,5.42,0.81,0.81,4.62,5.42,6.92,2.31,3.12,6.92,4.62,6.92,3.81,0.81,2.31,2.31,3.81,1.5,6.12,M,55_64
33,263531,3.08,3.85,4.62,0.77,2.31,3.08,2.31,5.38,2.31,3.85,3.85,1.54,2.31,3.08,3.85,2.31,1.54,1.54,3.85,3.85,M,55_64
34,26801756,2.31,0.77,0.77,0.77,2.31,0.77,2.31,1.54,2.31,2.31,1.54,0.77,1.54,2.31,1.54,1.54,1.54,2.31,0.77,1.54,M,55_64
35,2375924,13.15,10.73,10.04,6.23,12.46,13.15,10.04,5.54,6.92,33.23,13.15,4.5,7.62,8.31,5.54,6.92,3.81,0.69,4.5,3.81,M,55_64
36,120376,7.69,10,6.92,9.23,9.23,10,6.15,10.77,8.46,3.08,4.62,10.77,5.38,11.54,11.54,10.77,3.85,9.23,7.69,4.62,M,55_64
37,482311,6.92,6.92,6.12,4.62,2.31,6.12,2.31,4.62,1.5,4.62,6.92,7.73,7.73,5.42,6.12,4.62,0.81,5.42,4.62,5.42,M,55_64
38,20904896,2.31,6.92,5.54,6,7.85,6.92,9.23,7.85,10.62,11.54,12.92,13.85,10.62,12.46,17.08,16.15,13.85,10.62,12.92,1.38,M,55_64
39,783568,5.31,5.31,7.62,6.23,2.31,5.31,9.92,6.23,7.62,9.23,8.54,0.69,9.23,3,6.23,4.62,1.62,22.38,17.77,3.92,M,55_64
40,542254,9.92,9.23,5.31,0.69,12.23,9.23,8.54,9.23,4.62,9.92,7.62,11.54,9.23,10.85,8.54,12.23,8.54,8.54,6.92,4.62,M,55_64
41,37158285,6.92,10.77,8.46,6.92,4.62,7.69,3.85,9.23,6.92,10,7.69,10.77,8.46,12.31,13.85,13.08,14.62,5.38,13.85,8.46,M,55_64
42,11416130,3.23,2.31,3.69,42.92,2.31,6.92,6,3.23,13.85,10.15,6,42.92,1.38,10.62,7.85,9.23,1.38,3.23,8.31,2.31,M,55_64
43,3298720,4.62,3.85,6.15,3.85,1.54,7.69,7.69,3.85,3.85,10.77,3.85,4.62,13.08,3.85,6.15,3.85,3.85,2.31,5.38,7.69,M,55_64
44,8102948,2.46,4.62,6.15,10.15,26.15,12.31,7.69,7.08,4.62,8.62,21.54,24,4,4.62,10.77,29.23,6.15,5.54,13.23,17.54,M,55_64
45,7102981,3.81,23.19,3.81,1.38,4.5,33.23,4.5,6.92,3.12,3.81,4.5,3.12,5.54,5.54,2.42,5.54,3.12,6.23,3.12,4.5,M,55_64
46,44526657,11.54,9.23,6.15,6.92,7.69,9.23,12.31,10,7.69,13.85,9.23,13.08,4.62,13.85,8.46,12.31,9.23,13.08,10.77,2.31,M,55_64
47,1196036,9.92,3.92,9.23,5.31,19.15,2.31,9.92,3.92,6.23,9.92,9.23,3.92,6.92,7.62,8.54,1.62,9.92,6.92,7.62,6.23,M,55_64
48,10711021,6.92,8.42,6.92,4.62,6.92,2.31,3.81,6.92,4.62,6.12,6.92,5.42,6.12,6.12,7.73,6.92,5.42,6.12,4.62,6.12,M,55_64
49,9185601,14.62,12.31,13.08,14.62,15.38,8.46,8.46,10.77,5.38,8.46,10.77,12.31,10.77,6.92,10.77,13.85,7.69,13.85,13.08,5.38,M,55_64
50,16342888,9.23,7.69,6.92,6.15,5.38,4.62,0.77,1.54,6.92,10,8.46,9.23,10,10,8.46,7.69,3.85,12.31,9.23,5.38,M,55_64
51,13802754,5.38,3.85,8.46,6.92,8.46,4.62,9.23,10,12.31,8.46,6.15,7.69,11.54,7.69,5.38,4.62,8.46,9.23,3.08,6.15,M,55_64
