,id,Week1,Week2,Week3,Week4,Week5,Week6,Week7,Week8,Week9,Week10,Week11,Week12,Week13,Week14,Week15,Week16,Week17,Week18,Week19,Week20,Gender,Age_Group
0,2268580,0.81,6.12,8.42,6.12,10.04,6.92,4.62,0.81,3.12,4.62,6.12,3.81,4.62,5.42,3.81,6.12,3.12,8.42,10.04,6.12,F,0_19
1,33272817,6.92,13.85,9.23,10.85,5.31,7.62,9.23,13.85,12.23,16.85,10.85,6.92,9.23,8.54,7.62,6.92,1.62,4.62,4.62,7.62,F,20_24
2,24484458,2.31,1.54,2.31,2.31,2.31,0.77,6.15,4.62,3.85,2.31,3.85,3.08,6.92,3.85,6.15,3.08,4.62,3.08,3.85,3.08,F,20_24
3,4231136,11.54,11.54,3.85,1.54,13.08,5.38,11.54,5.38,2.31,5.38,6.92,9.23,13.85,5.38,10,4.62,13.08,11.54,14.62,7.69,F,20_24
4,2817156,9.92,7.62,7.62,10.85,10.85,3.92,11.54,14.54,8.54,9.92,9.23,19.15,21.46,9.92,12.23,9.92,13.85,13.85,6.92,9.23,F,20_24
5,6407825,0.81,2.31,0.81,3.12,1.5,0.81,6.12,7.73,10.04,9.23,5.42,2.31,3.12,3.12,4.62,6.92,3.12,10.73,6.92,5.42,F,20_24
6,19994050,21.54,15.38,19.23,11.54,8.46,12.31,1.54,6.92,1.54,35.38,4.62,11.54,14.62,11.54,11.54,7.69,4.62,12.31,20.77,3.85,F,20_24
7,7253162,9.23,11.54,9.23,8.46,17.69,6.15,6.92,8.46,9.23,5.38,8.46,12.31,10,5.38,4.62,6.15,6.15,9.23,6.92,6.92,F,20_24
8,27519401,11.54,11.54,10.77,10,13.85,10.77,8.46,11.54,14.62,13.08,12.31,12.31,10,13.08,11.54,14.62,11.54,9.23,8.46,8.46,F,20_24
9,22498406,15.38,16.15,15.38,16.92,9.23,14.62,14.62,10.77,8.46,12.31,6.15,12.31,8.46,12.31,16.15,10,10,10.77,10,8.46,F,20_24
10,23875718,7.81,12.38,10.77,12.38,16.96,16.96,20.73,13.73,11.58,17.77,7,10.77,10.77,11.58,9.15,10.77,14.54,13.19,13.73,15.35,F,20_24
11,18823002,3.85,4.62,6.92,6.15,5.38,7.69,9.23,10,9.23,11.54,10,7.69,5.38,5.38,6.15,4.62,8.46,10.77,10,10.77,F,20_24
12,15720572,10.73,5.42,6.12,4.62,6.12,3.81,5.42,4.62,6.92,5.42,6.12,2.31,4.62,4.62,3.81,4.62,9.23,4.62,3.12,5.42,F,20_24
13,7582025,6.15,3.85,9.23,0.77,2.31,7.69,4.62,10,10,11.54,6.15,4.62,6.15,5.38,6.15,4.62,2.31,5.38,4.62,3.08,F,20_24
14,26027728,7.69,10.77,7.69,9.23,9.23,8.46,5.38,13.08,4.62,6.15,8.46,9.23,10.77,7.69,10,10,10,12.31,10.77,6.15,F,20_24
15,8294292,8.46,10,11.54,7.69,10,10,8.46,8.46,8.46,6.15,6.15,6.15,6.92,5.38,4.62,5.38,6.92,5.38,6.15,6.15,F,25_34
16,7560433,13.15,13.15,14.54,18.46,13.15,16.85,16.15,10.85,11.54,17.77,15.46,19.15,20.08,12.23,14.54,13.85,8.54,14.54,17.77,13.15,F,25_34
17,25165601,12.31,6.92,10.77,12.31,10.77,10.77,10.77,6.92,11.54,10,1.54,12.31,12.31,13.85,16.15,13.85,12.31,16.92,13.08,10,F,25_34
18,11800911,13.85,9.23,10,14.62,10.77,13.08,9.23,9.23,10,10.77,8.46,8.46,10.77,6.15,9.23,7.69,7.69,10,9.23,10.77,F,25_34
19,1688321,8.46,8.46,4.62,6.92,11.54,10,8.46,10,10.77,13.08,9.23,3.08,4.62,4.62,8.46,9.23,5.38,7.69,9.23,10,F,25_34
20,27479916,14.62,6.15,1.54,10.77,11.54,13.85,12.31,14.62,14.62,14.62,13.08,12.31,16.15,13.85,10.77,16.92,18.46,18.46,10.77,14.62,F,25_34
21,18865876,17.69,3.85,4.62,5.38,3.85,7.69,6.92,4.62,6.15,11.54,12.31,6.92,10.77,6.15,1.54,0.77,5.38,6.15,7.69,4.62,F,25_34
22,7726458,7.69,11.54,4.62,14.62,13.08,16.15,16.15,5.38,11.54,13.85,15.38,18.46,13.08,15.38,9.23,12.31,12.31,15.38,13.85,12.31,F,25_34
23,26303897,6.92,6.92,6.15,3.08,6.15,6.92,7.69,9.23,4.62,3.85,8.46,8.46,7.69,8.46,11.54,3.08,6.15,6.92,6.15,3.08,F,25_34
24,4227042,8.35,9.96,10.77,14.54,9.15,7,9.96,11.58,8.35,7.81,19.12,10.77,6.19,6.19,5.38,10.77,7.81,4.58,26.12,13.19,F,25_34
25,7009539,11.54,11.54,10,11.54,10.77,6.15,10.77,1.54,3.08,6.15,7.69,8.46,9.23,9.23,5.38,8.46,9.23,4.62,5.38,6.15,F,25_34
26,6962263,9.23,9.23,11.54,15.38,15.38,11.54,16.15,13.85,9.23,16.92,18.46,18.46,16.15,8.46,10.77,17.69,18.46,13.08,12.31,17.69,F,25_34
27,7680101,16.92,15.38,14.62,13.85,12.31,5.38,14.62,10.77,11.54,15.38,16.92,13.85,11.54,3.85,7.69,10.77,12.31,15.38,6.15,9.23,F,25_34
28,2738510,8.46,16.15,10,13.08,13.08,0.77,7.69,11.54,13.85,10,16.15,10.77,15.38,10,3.08,16.15,16.92,16.92,10,11.54,F,25_34
29,15853348,3.85,3.08,4.62,6.92,4.62,6.15,3.85,6.15,5.38,5.38,6.92,3.08,3.08,5.38,6.92,6.15,6.92,6.92,5.38,4.62,F,25_34
30,21219293,9.23,6.92,11.54,10,6.92,9.23,12.31,2.31,7.69,9.23,6.92,10.77,10,6.15,1.54,10.77,15.38,12.31,10.77,12.31,F,25_34
31,25407510,2.31,5.31,6.23,6.23,6.23,9.23,3.92,7.62,6.92,3.92,7.62,6.23,5.31,13.15,3.92,8.54,7.62,9.23,11.54,19.15,F,25_34
32,8202188,9.23,8.46,6.92,6.92,8.46,8.46,10,6.15,6.92,6.92,9.23,6.15,6.92,5.38,7.69,10,9.23,9.23,5.38,8.46,F,25_34
33,205387,0.77,3.08,0.77,2.31,2.31,2.31,0.77,2.31,0.77,1.54,2.31,1.54,1.54,1.54,1.54,2.31,2.31,2.31,0.77,0.77,F,25_34
34,302682,144.62,73.85,196.92,12.31,18.46,55.38,104.62,147.69,120,43.08,153.85,193.85,249.23,249.23,9.23,120,70.77,95.38,126.15,80,F,25_34
35,1770110,10,9.23,8.46,10,7.69,5.38,15.38,8.46,7.69,11.54,1.54,6.15,0.77,8.46,5.38,8.46,7.69,4.62,6.92,6.15,F,25_34
36,646090,6.15,5.38,2.31,3.08,10.77,10,3.85,7.69,6.92,6.15,6.92,6.92,3.85,7.69,7.69,8.46,4.62,10.77,13.08,9.23,F,25_34
37,7435442,10.77,5.38,10,6.15,6.92,6.92,11.54,10.77,6.15,7.69,3.85,10.77,10,7.69,4.62,6.15,6.15,4.62,2.31,3.85,F,25_34
38,21337326,7.62,5.31,6.92,10.85,7.62,6.92,7.62,8.54,10.85,14.54,9.92,8.54,12.23,3,3,3.92,6.92,5.31,9.92,5.31,F,25_34
39,19610942,4.62,7.69,0.77,4.62,4.62,2.31,4.62,6.92,4.62,3.85,5.38,10,6.15,10.77,10,6.15,8.46,1.54,8.46,10.77,F,25_34
40,8839118,13.08,8.46,7.69,10,10,8.46,11.54,6.92,12.31,10,7.69,8.46,8.46,10.77,3.85,5.38,6.15,9.23,10.77,9.23,F,25_34
41,1829263,9.23,10.85,7.62,10.85,9.92,9.92,13.15,13.85,10.85,13.85,10.85,13.85,10.85,8.54,10.85,5.31,3.92,5.31,6.23,7.62,F,25_34
42,10721665,12.31,13.08,13.85,10,13.85,3.08,8.46,10.77,12.31,13.08,13.85,10,10.77,11.54,13.08,9.23,8.46,9.23,13.08,5.38,F,25_34
43,37919528,12.31,12.31,7.69,8.46,13.85,16.15,10,8.46,4.62,17.69,14.62,12.31,13.08,10,14.62,8.46,7.69,18.46,17.69,9.23,F,25_34
44,8977117,14.54,1.62,6.92,8.54,6.92,3,4.62,6.92,12.23,14.54,13.85,13.85,16.15,14.54,15.46,14.54,14.54,12.23,0.69,0.69,F,25_34
45,30759327,3.08,4.62,5.38,6.92,5.38,4.62,5.38,10,10,10,4.62,11.54,7.69,8.46,6.15,10,12.31,9.23,10,4.62,F,25_34
46,8272718,6.92,17.69,10.77,7.69,6.92,13.08,7.69,8.46,8.46,10.77,10,13.08,10,6.15,11.54,9.23,12.31,15.38,12.31,3.85,F,25_34
47,28440884,8.54,9.23,9.23,6.23,6.92,6.23,5.31,10.85,4.62,3.92,13.85,9.92,9.92,13.15,9.23,11.54,7.62,3,12.23,14.54,F,25_34
48,14276886,6.12,8.42,8.42,6.12,8.42,9.23,3.81,3.12,6.12,5.42,3.81,6.92,9.23,6.12,4.62,6.12,2.31,5.42,4.62,3.12,F,25_34
49,1402315,6.92,11.54,7.69,10,11.54,10,10.77,10.77,9.23,6.92,10,11.54,13.08,9.23,4.62,11.54,3.85,3.85,3.08,3.08,F,25_34
50,8696732,6.92,6.92,6.92,7.73,6.92,8.42,6.92,2.31,5.42,2.31,3.12,4.62,5.42,4.62,5.42,6.92,4.62,3.12,6.12,5.42,F,25_34
51,6348331,5.42,4.62,5.42,5.42,4.62,4.62,4.62,4.62,6.12,4.62,3.12,10.04,6.12,6.92,6.12,6.12,3.81,3.81,7.73,3.81,F,25_34
52,3560997,10.85,8.54,12.23,0.69,0.69,5.31,3.92,2.31,0.69,3,6.92,0.69,3.92,3.92,2.31,1.62,5.31,6.23,6.92,6.92,F,25_34
53,20368203,6.15,10,4.62,11.54,10.77,6.15,2.31,7.69,9.23,7.69,7.69,5.38,11.54,12.31,15.38,16.92,5.38,13.85,13.85,9.23,F,25_34
54,369252,1.54,3.08,5.38,2.31,6.15,6.92,3.08,5.38,6.92,3.85,7.69,17.69,4.62,5.38,8.46,5.38,5.38,6.92,9.23,3.08,F,25_34
55,26831737,14.62,6.92,13.08,13.08,7.69,7.69,2.31,8.46,10,7.69,13.85,9.23,6.92,15.38,6.15,10.77,9.23,9.23,10,9.23,F,25_34
56,3965607,0.69,2.31,9.23,9.92,9.23,13.15,10.85,13.15,9.92,13.85,8.54,12.23,12.23,13.85,16.85,10.85,11.54,22.38,9.92,14.54,F,25_34
57,13608653,13.08,5.38,8.46,1.54,5.38,6.92,13.08,4.62,6.92,6.15,4.62,9.23,8.46,5.38,6.92,3.08,1.54,3.85,10.77,12.31,F,25_34
58,1606129,3.85,3.85,6.15,5.38,4.62,3.85,3.85,3.08,2.31,2.31,3.08,1.54,3.85,1.54,3.08,2.31,2.31,3.08,1.54,3.08,F,25_34
59,12615113,13.5,14.54,13.5,13.5,14.54,13.5,4.15,13.5,21.81,14.54,16.62,17.65,1.04,10.38,14.54,13.5,8.31,16.62,11.42,7.27,F,25_34
60,356358,9.23,13.15,9.92,11.54,11.54,9.23,6.92,9.92,13.85,11.54,14.54,13.85,13.15,14.54,15.46,15.46,15.46,14.54,13.15,14.54,F,35_44
61,8370121,6.92,7.62,7.62,11.54,15.46,10.85,15.46,6.92,14.54,16.85,17.77,3.92,6.23,12.23,2.31,1.62,3,2.31,2.31,0.69,F,35_44
62,8149665,9.23,8.46,9.23,10.77,10,10.77,7.69,12.31,16.92,10,12.31,16.92,9.23,9.23,7.69,7.69,5.38,6.15,1.54,6.92,F,35_44
63,7857123,6.92,6.92,4.62,4.62,4.62,5.42,6.92,6.12,6.92,6.12,0.81,4.62,5.42,1.5,3.12,0.81,1.5,3.81,3.12,3.81,F,35_44
64,14721337,11.54,12.31,13.85,9.23,5.38,8.46,0.77,9.23,5.38,13.85,13.85,9.23,5.38,9.23,9.23,7.69,8.46,6.15,6.15,3.08,F,35_44
65,148287,5.31,20.08,9.23,8.54,6.23,3,13.85,6.92,7.62,7.62,6.23,10.85,13.85,6.23,12.23,8.54,9.23,11.54,5.31,11.54,F,35_44
66,182287,13.23,20.92,10.77,18.46,15.38,16.92,10.15,27.08,24,10.77,16.31,12.31,11.69,18.46,8.62,15.38,11.69,13.85,16.31,14.77,F,35_44
67,27492965,6.15,8.46,10,7.69,6.92,10.77,9.23,11.54,13.85,12.31,14.62,15.38,15.38,15.38,8.46,5.38,3.08,12.31,16.92,6.15,F,35_44
68,4412469,7.69,10,11.54,11.54,10,12.31,10,7.69,6.92,13.08,13.85,10,12.31,12.31,8.46,11.54,1.54,8.46,9.23,6.92,F,35_44
69,349170,9.96,7.81,2.42,5.38,7,5.38,6.19,7.81,12.38,13.73,6.19,5.38,10.77,9.15,7,10.77,2.96,7.81,6.19,8.35,F,35_44
70,4218798,13.08,12.31,15.38,7.69,8.46,8.46,4.62,10.77,11.54,9.23,14.62,13.85,11.54,16.15,9.23,10,10.77,15.38,15.38,11.54,F,35_44
71,124425,11.54,9.92,9.23,18.46,7.62,13.85,18.46,15.46,16.85,15.46,11.54,16.15,11.54,13.85,13.85,8.54,6.23,3.92,9.23,4.62,F,35_44
72,18180125,15.23,19.38,17.65,16.27,20.77,15.23,20.77,20.08,18.35,13.85,12.46,31.5,21.46,20.08,15.23,19.38,18.35,11.42,20.77,14.54,F,35_44
73,12752415,13.08,12.31,10,9.23,10,12.31,16.15,12.31,14.62,15.38,11.54,14.62,16.92,10,15.38,16.15,12.31,12.31,11.54,4.62,F,35_44
74,25921774,6.15,6.15,7.69,10.77,11.54,10.77,16.92,11.54,15.38,13.85,13.08,10,12.31,9.23,10,12.31,10.77,13.85,14.62,8.46,F,35_44
75,4023266,16.85,16.15,13.85,18.46,11.54,19.15,3.92,10.85,10.85,13.85,17.77,16.15,20.08,13.85,15.46,7.62,16.85,9.92,20.77,12.23,F,35_44
76,3487920,14.62,13.08,15.38,10,5.38,13.08,10,8.46,11.54,7.69,8.46,5.38,12.31,13.85,10,10.77,0.77,3.85,6.15,12.31,F,35_44
77,1886022,7.69,5.38,13.85,13.85,11.54,16.15,18.46,14.62,13.08,11.54,2.31,4.62,2.31,9.23,10.77,7.69,6.15,15.38,18.46,12.31,F,35_44
78,6066,6.15,13.85,10.77,13.85,12.31,13.85,10.77,7.69,13.08,10,6.92,10,9.23,9.23,10,5.38,14.62,6.15,10,6.92,F,35_44
79,13304647,12.31,12.31,13.85,10,13.08,10,10,11.54,13.08,16.15,13.08,10,10,10,8.46,5.38,6.92,6.92,6.15,7.69,F,35_44
80,200428,6.92,3.85,3.08,16.92,4.62,0.77,3.08,7.69,9.23,5.38,6.15,6.15,7.69,6.92,4.62,6.15,8.46,6.92,5.38,4.62,F,35_44
81,29204019,2.31,2.31,6.12,6.12,6.92,7.73,4.62,8.42,3.81,5.42,2.31,4.62,4.62,6.92,0.81,3.81,8.42,2.31,6.12,1.5,F,35_44
82,1460905,10.77,10.77,8.46,6.92,11.54,8.46,6.92,8.46,13.08,16.15,7.69,13.85,7.69,10.77,10,7.69,7.69,7.69,7.69,5.38,F,35_44
83,5502085,2.31,2.31,2.31,3.12,5.42,3.12,5.42,5.42,5.42,5.42,5.42,4.62,5.42,3.12,5.42,3.81,4.62,4.62,6.92,6.92,F,35_44
84,739881,6.92,6.92,6.92,4.62,8.42,8.42,8.42,3.12,5.42,9.23,9.23,6.92,7.73,7.73,6.92,8.42,7.73,0.81,4.62,4.62,F,35_44
85,15301435,6.12,6.12,8.42,7.73,3.12,8.42,3.81,4.62,3.81,3.81,6.92,3.81,3.81,4.62,2.31,2.31,1.5,2.31,4.62,3.81,F,35_44
86,2325742,7.81,7.81,9.96,10.77,14.54,16.96,24.5,14.54,8.35,9.96,1.62,6.19,4.58,9.15,9.96,9.15,9.15,9.96,9.96,6.19,F,35_44
87,2483782,13.15,15.46,14.54,9.92,9.92,14.54,5.31,13.15,9.23,10.85,12.23,12.23,11.54,10.85,10.85,8.54,9.23,12.23,7.62,5.31,F,35_44
88,4269490,14.54,17.77,15.46,16.15,16.85,16.85,10.85,3.92,13.85,14.54,12.23,18.46,20.08,17.77,15.46,10.85,18.46,19.15,17.77,13.85,F,35_44
89,527871,6.12,4.62,3.81,5.42,6.92,3.81,6.92,10.73,4.62,6.12,4.62,4.62,5.42,6.92,6.92,6.92,5.42,9.23,6.12,3.12,F,35_44
90,343219,7.69,1.54,9.23,9.23,3.85,5.38,2.31,6.92,5.38,4.62,7.69,10,7.69,9.23,5.38,2.31,10.77,5.38,7.69,4.62,F,35_44
91,179268,8.46,10.77,14.62,13.85,11.54,10.77,13.85,2.31,3.85,8.46,15.38,13.85,6.15,10,10.77,9.23,6.15,10,11.54,15.38,F,35_44
92,36497661,10,8.46,7.69,10.77,10.77,7.69,10.77,11.54,13.85,12.31,10,7.69,13.85,14.62,13.85,14.62,9.23,16.15,16.92,10,F,35_44
93,2815256,3.85,6.92,7.69,0.77,1.54,7.69,8.46,7.69,10.77,9.23,10.77,7.69,9.23,10.77,10.77,6.15,6.92,8.46,10,4.62,F,35_44
94,12000976,5.38,2.31,1.54,3.08,1.54,3.08,2.31,11.54,4.62,3.08,6.92,2.31,3.85,3.85,3.85,2.31,0.77,2.31,4.62,4.62,F,35_44
95,3473874,6.92,6.15,4.62,4.62,4.62,6.92,4.62,2.31,2.31,12.31,4.62,4.62,6.92,3.08,5.38,3.08,5.38,4.62,4.62,3.08,F,35_44
96,4692420,11.77,11.77,11.77,0,588.46,11.77,11.77,5.88,5.88,11.77,5.88,5.88,5.88,5.88,5.88,11.77,5.88,5.88,5.88,5.88,F,35_44
97,26117807,7.69,8.46,9.23,9.23,8.46,7.69,8.46,8.46,6.92,10,7.69,7.69,8.46,10,11.54,10.77,11.54,6.15,4.62,6.92,F,35_44
98,12056171,1.54,4.62,3.85,4.62,3.08,6.92,7.69,1.54,7.69,6.92,5.38,7.69,10,13.08,6.92,9.23,8.46,8.46,6.15,3.08,F,35_44
99,182287,13.23,20.92,10.77,18.46,15.38,16.92,10.15,27.08,24,10.77,16.31,12.31,11.69,18.46,8.62,15.38,11.69,13.85,16.31,14.77,F,45_54
100,26015531,13.08,12.31,5.38,8.46,9.23,11.54,9.23,12.31,3.85,6.92,12.31,10,6.15,8.46,10.77,6.92,8.46,10.77,10,3.85,F,45_54
101,4269490,14.54,17.77,15.46,16.15,16.85,16.85,10.85,3.92,13.85,14.54,12.23,18.46,20.08,17.77,15.46,10.85,18.46,19.15,17.77,13.85,F,45_54
102,349170,9.96,7.81,2.42,5.38,7,5.38,6.19,7.81,12.38,13.73,6.19,5.38,10.77,9.15,7,10.77,2.96,7.81,6.19,8.35,F,45_54
103,5480780,7.69,7.69,12.31,9.23,6.92,9.23,7.69,5.38,9.23,17.69,3.85,8.46,3.08,10,5.38,10,6.15,11.54,9.23,5.38,F,45_54
104,2484858,8.46,12.31,13.08,13.85,15.38,8.46,10,3.85,6.92,13.85,11.54,10,9.23,8.46,10,10,6.92,7.69,6.92,6.92,F,45_54
105,2730442,11.54,6.92,7.69,10,10,10.77,10,12.31,9.23,6.15,8.46,10.77,10.77,8.46,13.08,13.08,10,13.85,10.77,8.46,F,45_54
106,21195212,4.62,4.62,6.92,6.15,6.15,7.69,3.08,4.62,6.92,4.62,11.54,5.38,0.77,5.38,3.08,5.38,3.85,6.92,11.54,9.23,F,45_54
107,28635479,6.92,12.31,7.69,10,9.23,6.15,5.38,3.85,1.54,10.77,6.15,9.23,10,10,8.46,12.31,10,6.92,7.69,4.62,F,45_54
108,2000937,13.85,12.31,7.69,6.15,9.23,12.31,12.31,13.85,13.08,10,11.54,12.31,13.08,12.31,13.08,13.85,13.85,13.85,13.85,11.54,F,45_54
109,124425,11.54,9.92,9.23,18.46,7.62,13.85,18.46,15.46,16.85,15.46,11.54,16.15,11.54,13.85,13.85,8.54,6.23,3.92,9.23,4.62,F,45_54
110,3132661,8.46,12.31,9.23,11.54,11.54,7.69,13.08,12.31,18.46,1.54,5.38,10.77,10.77,10,9.23,11.54,0.77,9.23,10.77,10,F,45_54
111,2397782,10,5.38,6.92,12.31,5.38,5.38,9.23,6.15,6.92,8.46,10,7.69,5.38,6.15,3.85,6.92,7.69,7.69,6.15,6.15,F,45_54
112,25921774,6.15,6.15,7.69,10.77,11.54,10.77,16.92,11.54,15.38,13.85,13.08,10,12.31,9.23,10,12.31,10.77,13.85,14.62,8.46,F,45_54
113,35292829,1.54,6.92,3.85,3.85,4.62,5.38,1.54,3.08,4.62,6.92,1.54,6.15,7.69,7.69,6.15,6.15,13.08,9.23,7.69,2.31,F,45_54
114,2325742,7.81,7.81,9.96,10.77,14.54,16.96,24.5,14.54,8.35,9.96,1.62,6.19,4.58,9.15,9.96,9.15,9.15,9.96,9.96,6.19,F,45_54
115,644098,3.81,6.12,4.62,3.81,6.12,6.12,8.42,5.42,5.42,1.5,3.12,6.12,5.42,3.12,4.62,3.81,2.31,3.12,3.81,4.62,F,45_54
116,971525,12.23,9.92,11.54,6.23,11.54,11.54,19.15,9.23,6.92,10.85,2.31,7.62,6.23,6.23,6.23,7.62,7.62,3.92,7.62,6.92,F,45_54
117,22251819,16.92,14.77,13.85,12.31,16.92,19.38,18.46,17.54,18.46,9.23,15.38,7.08,10.15,17.54,17.54,15.38,13.85,16.31,6.15,9.23,F,45_54
118,18309343,10.77,10,6.92,10,10.77,6.15,8.46,10.77,15.38,13.08,14.62,11.54,11.54,12.31,9.23,10.77,13.08,11.54,14.62,12.31,F,45_54
119,4887281,6.15,6.92,5.38,10.77,6.15,6.92,5.38,6.15,13.85,7.69,0.77,6.15,9.23,7.69,9.23,6.15,5.38,5.38,9.23,2.31,F,45_54
120,13403562,4.62,9.23,6.92,10.77,10.77,10,9.23,3.85,11.54,6.92,8.46,12.31,11.54,6.92,11.54,10.77,10,11.54,0.77,5.38,F,45_54
121,2550106,5.54,13.23,16.92,18.46,13.85,10.77,12.31,9.23,12.31,16.31,14.77,8.62,14.77,13.23,21.54,22.46,20,17.54,14.77,11.69,F,45_54
122,263912,12.23,7.62,11.54,13.15,11.54,12.23,14.54,14.54,3,10.85,7.62,11.54,16.15,11.54,13.15,9.92,13.85,14.54,16.85,16.85,F,45_54
123,14566745,10.77,10.77,10,10.77,10.77,11.54,10,10.77,10.77,10.77,11.54,11.54,10,9.23,10,7.69,10.77,10,9.23,9.23,F,45_54
124,306299,10,9.23,10,6.15,10,8.46,10.77,6.15,11.54,10.77,11.54,6.92,13.08,13.85,10,13.08,14.62,14.62,5.38,9.23,F,45_54
125,14640188,5.31,9.23,11.54,20.08,9.92,7.62,11.54,9.92,3,3.92,12.23,7.62,9.92,9.92,16.85,10.85,13.15,10.85,15.46,6.92,F,45_54
126,3043651,5.38,14.54,10.77,7.81,5.38,12.38,8.35,11.58,14.54,16.15,14.54,23.96,17.77,9.15,9.15,8.35,18.58,8.35,14.54,8.35,F,45_54
127,3364856,2.31,2.31,3.08,3.08,3.08,1.54,0.77,3.08,2.31,3.08,1.54,0.77,1.54,1.54,1.54,1.54,3.08,2.31,2.31,0.77,F,45_54
128,272077,5.38,6.19,4.58,6.19,1.62,5.38,6.19,7.81,4.58,6.19,4.58,3.77,4.58,5.38,7.81,6.19,8.35,6.19,9.15,23.15,F,45_54
129,12046920,10,16.92,6.92,10.77,10.77,8.46,6.92,7.69,10,6.92,7.69,6.92,10.77,8.46,7.69,8.46,3.85,11.54,12.31,1.54,F,45_54
130,6322251,6.92,12.31,6.92,4.62,7.69,4.62,3.08,10.77,10.77,7.69,11.54,6.15,11.54,6.15,9.23,6.92,6.92,6.15,3.85,6.92,F,45_54
131,20929319,9.23,13.85,7.69,5.38,11.54,1.54,7.69,10,6.15,13.85,5.38,4.62,12.31,4.62,6.15,6.15,7.69,3.85,4.62,5.38,F,45_54
132,37755324,5.42,6.12,6.12,6.92,8.42,6.12,6.12,8.42,5.42,6.12,6.92,9.23,9.23,7.73,9.23,6.12,10.04,10.04,9.23,6.12,F,45_54
133,698332,8.54,14.54,9.23,8.54,11.54,8.54,6.23,20.77,16.85,6.23,3.92,6.92,11.54,8.54,16.85,8.54,9.23,9.92,9.23,8.54,F,45_54
134,19837,2.31,6.92,7.69,3.08,6.15,4.62,7.69,4.62,5.38,7.69,10.77,7.69,4.62,6.15,3.08,6.92,7.69,4.62,5.38,6.92,F,45_54
135,3987962,5.38,6.92,8.46,6.92,8.46,8.46,6.92,6.92,10.77,8.46,5.38,3.08,5.38,4.62,4.62,8.46,10,5.38,6.15,10.77,F,45_54
136,3783112,3.85,6.92,5.38,3.08,6.15,9.23,6.92,7.69,9.23,10.77,5.38,6.92,3.85,11.54,8.46,13.08,10,8.46,7.69,6.15,F,45_54
137,1417999,10.77,10.77,6.15,9.23,12.31,10,10,13.08,10.77,8.46,10,9.23,10.77,2.31,3.85,7.69,8.46,10,10.77,10.77,F,45_54
138,12805604,16.15,14.62,9.23,13.08,10.77,13.08,13.85,10.77,12.31,13.08,5.38,11.54,10.77,8.46,14.62,14.62,7.69,12.31,10.77,9.23,F,45_54
139,719656,7.69,5.38,1.54,3.08,3.85,2.31,10.77,10.77,5.38,6.92,5.38,1.54,6.15,7.69,10.77,10,7.69,13.85,11.54,1.54,F,45_54
140,550004,0.81,0.81,5.42,4.62,3.81,1.5,3.81,3.12,4.62,6.92,1.5,3.12,6.92,7.73,4.62,0.81,3.81,3.12,2.31,2.31,F,45_54
141,420414,16.92,11.54,11.54,9.23,11.54,11.54,13.85,11.54,10.77,12.31,11.54,9.23,10.77,3.85,8.46,8.46,8.46,12.31,10,5.38,F,55_64
142,30012765,2.31,6.92,3.85,3.85,3.85,3.08,10,5.38,5.38,10.77,7.69,5.38,10,7.69,8.46,5.38,9.23,11.54,5.38,4.62,F,55_64
143,17580895,12.31,6.92,12.31,15.38,12.31,17.69,18.46,13.85,14.62,13.85,9.23,11.54,13.08,14.62,10,10.77,0.77,12.31,13.85,10.77,F,55_64
144,6199157,9.23,8.46,6.92,6.92,6.92,6.92,7.69,10,4.62,1.54,6.92,9.23,9.23,9.23,4.62,10,6.92,13.08,8.46,6.92,F,55_64
145,306299,10,9.23,10,6.15,10,8.46,10.77,6.15,11.54,10.77,11.54,6.92,13.08,13.85,10,13.08,14.62,14.62,5.38,9.23,F,55_64
146,344735,9.23,8.54,2.31,5.31,6.92,22.38,5.31,7.62,3.92,5.31,12.23,10.85,6.92,9.92,12.23,12.23,7.62,7.62,10.85,9.23,F,55_64
147,5030742,4.62,6.92,7.69,4.62,7.69,11.54,6.92,12.31,10.77,4.62,13.08,7.69,12.31,2.31,10.77,7.69,7.69,7.69,6.15,5.38,F,55_64
148,15564659,6.12,5.42,3.81,5.42,7.73,6.92,6.92,7.73,6.12,6.12,6.12,6.12,6.12,9.23,4.62,6.12,5.42,6.12,6.92,6.92,F,55_64
149,22299259,9.23,11.54,10,8.46,9.23,10,6.15,3.08,6.92,10.77,7.69,12.31,12.31,10,13.85,9.23,7.69,14.62,9.23,8.46,F,55_64
150,29857653,8.31,7.62,17.65,9.35,9.35,13.85,9.35,8.31,8.31,13.85,13.85,10.73,13.85,14.54,14.54,16.96,12.46,4.5,14.54,10.04,F,55_64
151,21288994,6.77,5.5,7.62,39.35,2.96,4.65,4.65,4.65,5.5,6.35,7.62,3.81,4.65,2.96,2.96,6.35,6.35,6.35,5.5,4.65,F,55_64
152,564785,9.23,10.77,12.31,12.31,11.54,7.69,12.31,11.54,10.77,12.31,12.31,9.23,13.08,10.77,10.77,10,7.69,10.77,10,10.77,F,55_64
153,1486911,9.81,16.15,10.96,9.81,9.81,9.23,9.23,12.12,13.27,16.15,10.96,11.54,13.85,8.65,27.69,6.92,10.96,12.12,10.96,12.12,F,55_64
154,4784227,3.85,11.54,5.38,2.31,2.31,6.15,5.38,6.15,3.08,3.85,1.54,5.38,8.46,8.46,3.08,7.69,0.77,3.08,5.38,3.85,F,55_64
155,1115094,3.08,3.08,6.15,8.46,11.54,14.62,9.23,10,10.77,11.54,6.92,11.54,13.08,12.31,8.46,13.08,10,13.08,9.23,6.15,F,65_69
156,13204733,10.77,14.62,7.69,11.54,10,13.08,8.46,13.85,9.23,9.23,6.92,10,14.62,12.31,13.08,8.46,11.54,13.08,13.85,9.23,F,65_69
157,1289508,8.46,6.15,7.69,10.77,12.31,6.15,9.23,10,11.54,6.15,10,13.08,12.31,10.77,11.54,7.69,4.62,6.92,14.62,6.92,F,65_69
158,2571326,6.92,8.42,6.92,6.92,5.42,1.5,3.81,6.12,5.42,7.73,6.92,5.42,6.12,4.62,6.92,6.12,6.12,8.42,7.73,6.12,F,65_69
159,1924229,5.38,5.38,6.15,0.77,4.62,3.85,3.08,4.62,4.62,3.85,4.62,3.85,1.54,6.92,5.38,3.85,3.08,4.62,5.38,1.54,F,65_69
