,id,Week1,Week2,Week3,Week4,Week5,Week6,Week7,Week8,Week9,Week10,Week11,Week12,Week13,Week14,Week15,Week16,Week17,Week18,Week19,Week20,Gender,Age_Group
0,33272817,6.92,13.85,9.23,10.85,5.31,7.62,9.23,13.85,12.23,16.85,10.85,6.92,9.23,8.54,7.62,6.92,1.62,4.62,4.62,7.62,F,20_24
1,24484458,2.31,1.54,2.31,2.31,2.31,0.77,6.15,4.62,3.85,2.31,3.85,3.08,6.92,3.85,6.15,3.08,4.62,3.08,3.85,3.08,F,20_24
2,4231136,11.54,11.54,3.85,1.54,13.08,5.38,11.54,5.38,2.31,5.38,6.92,9.23,13.85,5.38,10,4.62,13.08,11.54,14.62,7.69,F,20_24
3,2817156,9.92,7.62,7.62,10.85,10.85,3.92,11.54,14.54,8.54,9.92,9.23,19.15,21.46,9.92,12.23,9.92,13.85,13.85,6.92,9.23,F,20_24
4,6407825,0.81,2.31,0.81,3.12,1.5,0.81,6.12,7.73,10.04,9.23,5.42,2.31,3.12,3.12,4.62,6.92,3.12,10.73,6.92,5.42,F,20_24
5,19994050,21.54,15.38,19.23,11.54,8.46,12.31,1.54,6.92,1.54,35.38,4.62,11.54,14.62,11.54,11.54,7.69,4.62,12.31,20.77,3.85,F,20_24
6,7253162,9.23,11.54,9.23,8.46,17.69,6.15,6.92,8.46,9.23,5.38,8.46,12.31,10,5.38,4.62,6.15,6.15,9.23,6.92,6.92,F,20_24
7,27519401,11.54,11.54,10.77,10,13.85,10.77,8.46,11.54,14.62,13.08,12.31,12.31,10,13.08,11.54,14.62,11.54,9.23,8.46,8.46,F,20_24
8,22498406,15.38,16.15,15.38,16.92,9.23,14.62,14.62,10.77,8.46,12.31,6.15,12.31,8.46,12.31,16.15,10,10,10.77,10,8.46,F,20_24
9,23875718,7.81,12.38,10.77,12.38,16.96,16.96,20.73,13.73,11.58,17.77,7,10.77,10.77,11.58,9.15,10.77,14.54,13.19,13.73,15.35,F,20_24
10,18823002,3.85,4.62,6.92,6.15,5.38,7.69,9.23,10,9.23,11.54,10,7.69,5.38,5.38,6.15,4.62,8.46,10.77,10,10.77,F,20_24
11,15720572,10.73,5.42,6.12,4.62,6.12,3.81,5.42,4.62,6.92,5.42,6.12,2.31,4.62,4.62,3.81,4.62,9.23,4.62,3.12,5.42,F,20_24
12,7582025,6.15,3.85,9.23,0.77,2.31,7.69,4.62,10,10,11.54,6.15,4.62,6.15,5.38,6.15,4.62,2.31,5.38,4.62,3.08,F,20_24
13,26027728,7.69,10.77,7.69,9.23,9.23,8.46,5.38,13.08,4.62,6.15,8.46,9.23,10.77,7.69,10,10,10,12.31,10.77,6.15,F,20_24
