,id,Week1,Week2,Week3,Week4,Week5,Week6,Week7,Week8,Week9,Week10,Week11,Week12,Week13,Week14,Week15,Week16,Week17,Week18,Week19,Week20,Gender,Age_Group
0,22403893,3.77,11.58,9.96,4.58,11.58,3.77,12.38,14.54,14.54,14.54,2.96,3.77,6.19,16.96,11.58,10.77,9.15,13.73,14.54,7,M,20_24
1,3702784,7,7,11.58,13.73,15.35,11.58,16.96,14.54,7.81,8.35,18.58,16.15,12.38,7,6.19,13.19,13.19,13.73,1.62,5.38,M,20_24
2,15455800,5.38,7.69,6.92,4.62,4.62,6.92,6.92,6.15,4.62,9.23,6.92,3.85,5.38,3.08,3.85,3.85,4.62,4.62,4.62,4.62,M,20_24
3,3875548,9.23,12.31,13.85,10,9.23,10,17.69,12.31,6.92,17.69,18.46,13.85,10,9.23,9.23,10,8.46,6.15,5.38,5.38,M,20_24
4,9473302,10.77,4.62,7.69,11.54,10.77,9.23,4.62,5.38,11.54,8.46,11.54,7.69,6.15,3.08,5.38,6.15,0.77,1.54,1.54,0.77,M,20_24
5,5387786,23.08,15.38,14.77,22.46,23.08,15.38,10.77,9.23,13.23,9.23,20.92,20,13.85,14.77,24,22.46,19.38,10.77,13.23,16.31,M,20_24
6,4379028,9.92,15.46,13.85,12.23,7.62,8.54,14.54,18.46,9.23,8.54,22.38,15.46,11.54,7.62,12.23,10.85,8.54,8.54,15.46,11.54,M,20_24
7,18555182,10,5.38,9.23,9.23,6.92,8.46,8.46,9.23,6.15,6.92,10.77,3.85,3.08,10,10.77,4.62,5.38,6.92,4.62,11.54,M,20_24
8,12485408,6.19,4.58,7.81,6.19,11.58,14.54,8.35,13.19,15.35,13.73,17.77,9.15,17.77,20.73,14.54,17.77,19.92,18.58,13.73,13.73,M,20_24
9,2199983,16.15,5.38,7,16.96,17.77,18.58,13.73,19.12,19.92,13.19,13.73,8.35,18.58,16.96,15.35,18.58,19.92,12.38,15.35,16.15,M,20_24
10,4667023,13.19,10.77,3.77,13.73,12.38,9.96,9.96,9.96,8.35,2.96,16.15,4.58,26.12,8.35,3.77,8.35,5.38,5.38,6.19,9.15,M,20_24
11,1778723,10.77,14.54,8.35,9.15,2.96,3.77,7.81,7.81,16.96,18.58,8.35,8.35,9.15,12.38,12.38,10.77,9.15,9.15,5.38,2.96,M,20_24
12,9069033,6.15,3.85,0.77,5.38,10,8.46,6.15,7.69,0.77,3.85,6.92,10,5.38,13.85,10,13.08,11.54,10.77,5.38,7.69,M,20_24
13,7328670,3,6.23,8.54,2.31,7.62,4.62,3.92,13.15,6.23,14.54,10.85,6.23,6.23,13.15,9.92,9.92,6.23,1.62,9.92,12.23,M,20_24
14,4621873,6.92,9.23,6.92,4.62,6.15,6.92,8.46,5.38,4.62,15.38,10.77,6.92,8.46,1.54,4.62,5.38,8.46,6.92,6.15,4.62,M,20_24
15,5839427,3.85,8.46,6.92,2.31,4.62,8.46,3.85,5.38,5.38,6.92,5.38,3.08,10,6.15,4.62,7.69,3.85,3.85,4.62,5.38,M,20_24
16,3942131,27.69,24,20,2.46,17.54,18.46,16.31,11.69,18.46,9.23,5.54,7.69,6.15,3.08,7.08,10.15,6.15,5.54,9.23,12.31,M,20_24
17,6116734,10.77,5.38,11.54,15.38,13.08,7.69,4.62,16.15,8.46,10.77,2.31,3.08,6.92,8.46,10.77,9.23,6.15,13.85,10,7.69,M,20_24
18,2153981,13.08,13.08,11.54,6.92,9.23,2.31,3.85,7.69,10,9.23,6.92,12.31,8.46,10,6.92,13.08,9.23,6.15,8.46,6.92,M,20_24
19,6242371,10,7.69,9.23,2.31,1.54,7.69,8.46,13.85,8.46,6.92,10,8.46,8.46,6.15,10,9.23,9.23,10,5.38,8.46,M,20_24
20,4851200,6.15,4.62,7.69,3.85,9.23,8.46,5.38,12.31,13.08,8.46,3.85,7.69,6.15,7.69,6.92,9.23,3.85,7.69,6.15,3.85,M,20_24
21,1713821,6.92,7.73,6.12,6.92,9.23,6.92,6.12,8.42,5.42,6.12,6.92,3.81,5.42,6.92,7.73,8.42,6.12,7.73,3.81,5.42,M,20_24
22,12630622,3.08,8.46,6.92,6.92,6.92,6.92,6.92,4.62,8.46,5.38,6.92,6.92,5.38,8.46,3.85,7.69,11.54,7.69,6.15,9.23,M,20_24
23,38702205,6.15,3.08,3.08,5.38,3.85,3.85,6.92,6.15,6.15,9.23,11.54,10,10.77,10,10.77,9.23,11.54,12.31,7.69,10,M,20_24
24,430673,12.31,13.85,10.15,21.54,21.54,16.92,10.77,1.54,22.46,22.46,25.54,20,21.54,24.62,16.92,24.62,24,11.69,13.23,18.46,M,25_34
25,5387978,17.77,6.92,7.62,15.46,17.77,15.46,15.46,5.31,12.23,6.92,6.92,16.15,15.46,16.85,16.85,9.92,11.54,8.54,12.23,14.54,M,25_34
26,1683441,8.46,6.15,13.08,8.46,7.69,8.46,11.54,13.85,10.77,14.62,13.85,7.69,10,7.69,2.31,7.69,12.31,12.31,11.54,9.23,M,25_34
27,3265678,16.85,18.46,21.46,12.23,16.15,15.46,14.54,11.54,5.31,13.15,3.92,14.54,16.15,11.54,16.15,13.85,20.77,17.77,18.46,7.62,M,25_34
28,7134796,21.46,5.31,17.77,7.62,10.85,1.62,12.23,11.54,18.46,16.15,1.62,6.92,13.85,13.15,12.23,15.46,22.38,19.15,13.85,7.62,M,25_34
29,10342404,8.54,9.23,9.92,9.23,9.23,20.08,13.85,15.46,13.15,13.15,14.54,13.85,13.85,10.85,13.15,11.54,13.85,7.62,1.62,4.62,M,25_34
30,12485408,6.19,4.58,7.81,6.19,11.58,14.54,8.35,13.19,15.35,13.73,17.77,9.15,17.77,20.73,14.54,17.77,19.92,18.58,13.73,13.73,M,25_34
31,1075424,6.23,13.85,16.85,14.54,13.85,14.54,9.92,6.92,10.85,13.85,21.46,13.85,7.62,8.54,13.15,7.62,9.23,10.85,20.77,4.62,M,25_34
32,25106228,3.12,3.12,10.73,3.81,4.62,3.81,6.92,5.42,5.42,5.42,4.62,5.42,3.81,6.92,5.42,3.12,10.73,6.12,4.62,0.81,M,25_34
33,3156831,9.92,6.92,7.62,1.62,10.85,12.23,13.15,14.54,12.23,13.85,9.23,9.92,8.54,2.31,3,3,9.23,12.23,12.23,13.15,M,25_34
34,4539432,7.62,4.5,10.04,3.12,8.31,4.5,6.23,6.23,6.92,5.54,6.92,1.38,5.54,6.23,6.92,7.62,9.35,6.23,6.23,10.73,M,25_34
35,7662564,10,9.23,10.77,9.23,10.77,8.46,7.69,11.54,11.54,10,9.23,8.46,13.85,12.31,11.54,12.31,10.77,7.69,12.31,8.46,M,25_34
36,6940559,11.54,4.62,11.54,3.08,9.23,5.38,1.54,8.46,15.38,10.77,10,9.23,11.54,13.85,10,10.77,13.85,17.69,15.38,7.69,M,25_34
37,1100640,6.73,8.08,6.73,6.73,8.08,8.08,10.77,9.42,6.73,12.12,9.42,13.46,8.08,9.42,6.73,8.08,8.08,10.77,10.77,8.08,M,25_34
38,677855,12.23,14.54,13.85,10.85,20.77,11.54,15.46,17.77,10.85,6.92,13.15,16.85,16.15,11.54,14.54,13.15,6.92,12.23,14.54,16.15,M,25_34
39,23394525,3.81,5.42,3.81,5.42,6.12,3.81,6.12,3.81,6.12,6.12,4.62,4.62,9.23,6.12,3.12,2.31,0.81,0.81,3.81,2.31,M,25_34
40,4805223,7.69,10.77,9.23,14.62,9.23,13.85,16.15,11.54,11.54,12.31,12.31,16.15,10.77,13.85,13.08,10,13.08,15.38,15.38,6.92,M,25_34
41,11233206,12.46,16.27,13.15,9.35,11.42,2.42,10.04,8.31,30.81,16.27,13.15,9.35,11.42,6.23,10.04,9.35,14.54,11.42,10.73,11.42,M,25_34
42,1011771,13.85,9.23,6.15,12.31,13.85,13.85,13.08,11.54,7.69,11.54,2.31,11.54,10.77,11.54,9.23,6.92,9.23,11.54,10.77,6.15,M,25_34
43,2753802,6.19,16.96,9.15,7.81,8.35,5.38,7.81,7.81,5.38,8.35,14.54,0.81,7,6.19,2.42,9.96,12.38,11.58,10.77,7.81,M,25_34
44,3842113,15.35,14.54,11.58,8.35,16.15,13.19,11.58,2.42,10.77,11.58,14.54,13.19,9.15,9.96,12.38,9.15,7,2.96,2.96,4.58,M,25_34
45,714106,6.92,6.15,7.69,10.77,10.77,5.38,13.85,6.15,7.69,10.77,12.31,12.31,11.54,10.77,12.31,12.31,6.92,6.15,11.54,7.69,M,25_34
46,209449,10,8.46,4.62,12.31,6.92,5.38,4.62,5.38,10,6.92,7.69,4.62,6.15,10,2.31,6.92,7.69,6.15,6.15,6.92,M,25_34
47,21915073,22.35,19.92,16.96,22.35,11.58,23.15,13.73,9.96,19.12,23.15,23.96,19.92,20.73,25.31,23.96,17.77,13.73,14.54,14.54,19.12,M,25_34
48,2253067,5.38,10.23,8.62,5.92,11.31,12.92,10.23,5.92,16.15,7.54,12.92,16.69,18.31,23.15,9.15,12.92,5.92,10.77,9.15,8.62,M,25_34
49,342699,10.77,9.23,9.23,10,6.92,10.77,10.77,13.08,13.08,11.54,11.54,10,6.15,13.85,13.85,14.62,14.62,15.38,14.62,10,M,25_34
50,1994860,3.12,6.12,3.12,4.62,3.12,5.42,4.62,5.42,4.62,4.62,6.12,6.12,2.31,3.81,4.62,6.12,6.92,3.81,2.31,5.42,M,25_34
51,2493685,12.23,16.85,6.23,10.85,11.54,3.92,11.54,12.23,17.77,13.15,17.77,14.54,16.15,9.92,16.15,9.23,12.23,13.85,6.92,9.23,M,25_34
52,4133453,13.85,12.23,17.77,6.92,9.23,0.69,8.54,9.23,9.23,7.62,8.54,17.77,8.54,14.54,16.15,6.23,9.23,4.62,9.23,6.92,M,25_34
53,5862027,9.96,7.81,7.81,5.38,9.15,9.15,13.19,6.19,7.81,12.38,14.54,10.77,13.73,10.77,9.15,15.35,12.38,12.38,5.38,9.15,M,25_34
54,1272955,4.62,5.38,1.54,2.31,3.08,1.54,0.77,3.08,3.08,3.85,4.62,4.62,3.08,4.62,4.62,2.31,0.77,3.08,2.31,1.54,M,25_34
55,4794762,6.92,3.81,3.81,6.92,8.42,6.92,7.73,6.92,6.92,9.23,10.73,6.12,7.73,10.04,4.62,9.23,6.92,6.12,4.62,0.81,M,25_34
56,7529404,3.85,6.92,6.92,9.23,12.31,8.46,10,10.77,3.85,6.92,6.15,3.85,6.15,4.62,6.92,5.38,5.38,6.92,6.15,5.38,M,25_34
57,732344,13.08,8.46,10.77,10,10,11.54,13.08,15.38,4.62,10,4.62,3.08,6.92,0.77,3.08,3.08,6.15,5.38,3.08,4.62,M,25_34
58,6410781,4.62,6.15,7.69,3.85,3.85,4.62,7.69,5.38,6.92,4.62,8.46,5.38,9.23,8.46,11.54,6.92,6.15,4.62,9.23,5.38,M,25_34
59,15381873,15.38,13.85,10.15,16.31,13.85,15.38,16.31,20,16.92,19.38,20,19.38,10.77,24,16.31,19.38,16.92,14.77,12.31,20.92,M,25_34
60,28975199,6.23,9.23,10.85,5.31,3,19.15,10.85,14.54,9.23,9.92,11.54,12.23,6.92,11.54,13.85,5.31,13.15,13.85,11.54,6.23,M,25_34
61,12216445,7.69,5.38,3.08,7.69,6.92,6.92,10,7.69,6.92,3.85,6.92,7.69,7.69,9.23,6.92,6.92,6.15,6.92,6.15,10.77,M,25_34
62,18004753,16.31,19.38,22.46,27.08,14.77,13.85,13.23,10.15,13.23,13.85,14.77,21.54,16.92,14.77,13.23,19.38,24,19.38,24,23.08,M,25_34
63,800035,10.77,12.31,11.54,10.77,11.54,11.54,12.31,11.54,10,13.08,11.54,10.77,10.77,11.54,11.54,9.23,9.23,6.92,9.23,9.23,M,25_34
64,16385665,9.23,7.69,9.23,10,11.54,4.62,9.23,11.54,7.69,6.92,7.69,6.92,7.69,12.31,9.23,9.23,9.23,10,7.69,9.23,M,25_34
65,2936410,5.38,8.46,7.69,11.54,3.08,6.15,8.46,10,10,14.62,14.62,3.85,17.69,0.77,3.85,4.62,3.08,4.62,0.77,1.54,M,25_34
66,1090827,9.15,5.38,5.38,13.19,7,8.35,10.77,24.5,7.81,11.58,10.77,7.81,6.19,7,6.19,10.77,9.15,13.73,12.38,4.58,M,25_34
67,4867712,9.23,2.31,10,10.77,9.23,4.62,10.77,7.69,11.54,7.69,12.31,7.69,10,13.85,8.46,12.31,10.77,13.08,12.31,8.46,M,25_34
68,3777451,16.96,13.73,12.38,16.96,15.35,7,10.77,0.81,0.81,5.38,9.96,13.19,7.81,7.81,7,5.38,4.58,9.15,11.58,9.15,M,25_34
69,16636152,17.77,5.31,12.23,13.85,22.38,16.15,14.54,14.54,16.15,17.77,13.15,15.46,17.77,15.46,11.54,12.23,13.15,17.77,16.85,11.54,M,25_34
70,1707769,8.42,4.62,6.92,6.12,6.92,9.23,6.12,6.92,6.92,8.42,5.42,7.73,6.12,4.62,9.23,4.62,5.42,5.42,6.12,5.42,M,25_34
71,398521,9.23,14.62,1.54,4.62,0.77,9.23,10,11.54,11.54,8.46,5.38,6.15,9.23,3.08,5.38,10,5.38,10,4.62,4.62,M,25_34
72,6039,12.31,12.31,10.77,13.08,10,5.38,10.77,7.69,5.38,16.92,10,8.46,15.38,7.69,7.69,8.46,5.38,2.31,6.15,8.46,M,25_34
73,2061161,12.31,12.31,11.54,11.54,13.08,18.46,13.08,13.85,9.23,16.15,13.08,10.77,13.85,16.15,14.62,12.31,11.54,16.92,12.31,10.77,M,25_34
74,22103583,11.54,16.15,11.54,10.77,14.62,5.38,8.46,10.77,7.69,10.77,9.23,12.31,14.62,18.46,9.23,12.31,12.31,11.54,10,12.31,M,25_34
75,121448,11.54,6.15,8.46,8.46,5.38,4.62,12.31,13.08,11.54,9.23,11.54,4.62,7.69,8.46,8.46,6.92,2.31,9.23,4.62,5.38,M,25_34
76,1100643,6.92,3.08,6.15,6.15,3.08,4.62,5.38,10,5.38,6.15,6.92,13.85,5.38,6.15,6.15,5.38,6.15,4.62,14.62,4.62,M,25_34
77,1548417,8.46,10,4.62,2.31,3.08,8.46,5.38,8.46,10,3.08,9.23,10.77,5.38,9.23,6.15,5.38,6.15,8.46,4.62,2.31,M,25_34
78,3293985,18.46,11.54,15.46,3,3.92,9.23,15.46,17.77,16.15,17.77,20.08,10.85,0.69,12.23,11.54,14.54,10.85,8.54,16.15,14.54,M,25_34
79,7274785,9.23,9.23,10.77,11.54,10,6.92,7.69,17.69,18.46,17.69,8.46,11.54,10,8.46,6.15,8.46,7.69,10,8.46,7.69,M,25_34
80,21995415,6.92,11.54,6.15,6.92,5.38,8.46,3.08,10,8.46,16.15,7.69,5.38,10.77,2.31,12.31,6.15,10.77,9.23,5.38,9.23,M,25_34
81,14069408,10.77,9.23,10.77,9.23,14.62,13.85,8.46,8.46,10,10.77,14.62,13.85,9.23,11.54,3.08,12.31,13.85,13.85,11.54,10.77,M,25_34
82,9069033,6.15,3.85,0.77,5.38,10,8.46,6.15,7.69,0.77,3.85,6.92,10,5.38,13.85,10,13.08,11.54,10.77,5.38,7.69,M,25_34
83,1086043,10,11.54,13.08,9.23,9.23,12.31,3.85,10,10,10,13.08,13.85,11.54,15.38,11.54,10,12.31,9.23,10.77,6.92,M,25_34
84,2140910,7.62,6.92,4.62,9.92,12.23,7.62,8.54,10.85,12.23,12.23,13.85,7.62,6.92,7.62,12.23,13.15,10.85,11.54,9.92,10.85,M,25_34
85,4667023,13.19,10.77,3.77,13.73,12.38,9.96,9.96,9.96,8.35,2.96,16.15,4.58,26.12,8.35,3.77,8.35,5.38,5.38,6.19,9.15,M,25_34
86,632418,13.08,8.46,3.08,6.15,7.69,5.38,4.62,0.77,2.31,3.08,10.77,7.69,6.92,5.38,6.92,4.62,9.23,6.92,2.31,2.31,M,25_34
87,5906838,12.31,16.15,9.23,10,13.08,10,13.08,10.77,12.31,13.08,8.46,12.31,13.85,8.46,9.23,6.15,14.62,13.85,6.92,16.15,M,25_34
88,186428,7,3.77,5.38,7,8.35,7.81,7.81,7,5.38,7.81,6.19,6.19,5.38,5.38,7,7.81,7.81,14.54,6.19,7.81,M,25_34
89,8404330,27.08,7.69,7.08,8.62,16.31,12.31,24,3.08,14.77,14.77,9.23,8.62,8.62,20,14.77,7.69,13.85,16.92,11.69,9.23,M,25_34
90,17430899,9.23,9.23,9.23,11.54,13.08,9.23,9.23,6.15,13.08,13.08,13.08,14.62,14.62,15.38,14.62,12.31,13.85,13.08,12.31,8.46,M,25_34
91,10402924,5.38,4.62,3.85,12.31,6.92,6.15,3.85,6.92,12.31,3.85,6.92,10,6.92,4.62,9.23,7.69,5.38,7.69,6.92,10.77,M,25_34
92,13990759,6.15,3.85,3.85,6.15,10.77,6.92,10,6.15,10,8.46,7.69,10,2.31,3.08,2.31,0.77,9.23,6.92,8.46,10,M,25_34
93,3216623,6.92,4.62,3.08,8.46,9.23,10,5.38,10.77,13.08,12.31,10.77,15.38,6.92,16.92,16.92,7.69,15.38,18.46,16.92,8.46,M,25_34
94,10063,5.38,4.62,6.15,3.08,3.85,5.38,4.62,4.62,4.62,7.69,6.92,14.62,12.31,10.77,13.85,13.08,5.38,16.15,10,6.92,M,25_34
95,3380729,2.31,7.73,3.12,5.42,8.42,10.04,9.23,9.23,8.42,4.62,5.42,8.42,10.04,1.5,3.12,6.92,3.12,6.92,3.81,8.42,M,25_34
96,1917123,19.15,13.15,14.54,20.08,9.23,11.54,12.23,18.46,20.77,8.54,17.77,14.54,12.23,1.62,16.85,16.85,13.85,12.23,14.54,11.54,M,25_34
97,20222989,13.85,10.73,11.42,12.46,8.31,9.35,13.85,9.35,13.15,16.96,13.85,13.85,7.62,13.85,9.35,6.92,7.62,10.73,7.62,5.54,M,25_34
98,1008128,12.23,8.54,9.92,9.92,10.85,3.92,9.92,6.92,13.15,11.54,13.15,8.54,13.85,12.23,12.23,9.92,13.15,6.23,13.85,5.31,M,25_34
99,171778,5.42,6.92,7.73,5.42,8.42,6.92,7.73,5.42,5.42,6.12,4.62,3.81,2.31,5.42,5.42,3.12,7.73,4.62,10.04,6.92,M,25_34
100,602003,7.69,13.08,10.77,13.08,9.23,7.69,6.92,18.46,14.62,9.23,10.77,5.38,10,10,7.69,6.92,6.92,8.46,9.23,6.92,M,25_34
101,5720606,9.23,8.46,10,1.54,7.69,8.46,8.46,9.23,10,9.23,11.54,3.08,6.15,16.92,6.92,6.15,7.69,3.08,7.69,7.69,M,25_34
102,8329005,10.85,16.15,8.54,10.85,4.62,9.23,5.31,21.46,2.31,12.23,9.23,5.31,6.23,12.23,12.23,5.31,13.85,10.85,2.31,3.92,M,25_34
103,29056944,11.58,9.96,12.38,14.54,13.73,11.58,12.38,2.42,9.15,12.38,10.77,9.96,10.77,9.15,10.77,9.96,11.58,13.73,7.81,10.77,M,25_34
104,2713151,9.23,16.15,13.85,13.15,3,11.54,8.54,6.23,16.85,15.46,17.77,18.46,17.77,17.77,21.46,13.15,16.85,19.15,17.77,10.85,M,25_34
105,8479353,9.23,7.69,6.15,6.92,9.23,6.15,7.69,13.08,13.08,15.38,12.31,10,10,3.85,5.38,9.23,10.77,12.31,10,13.08,M,25_34
106,11584075,3.85,8.46,2.31,5.38,5.38,8.46,11.54,12.31,14.62,11.54,10,14.62,14.62,15.38,15.38,12.31,10,12.31,6.15,1.54,M,25_34
107,222358,6.15,5.38,7.69,9.23,6.15,5.38,11.54,8.46,3.85,6.92,8.46,9.23,4.62,10,9.23,6.92,5.38,5.38,7.69,9.23,M,25_34
108,9418112,10.77,9.23,11.54,10,10,6.15,11.54,9.23,6.15,10,1.54,10.77,13.85,1.54,5.38,10,6.92,6.92,8.46,3.85,M,25_34
109,26962410,14.54,14.54,15.46,14.54,9.23,9.92,14.54,13.15,15.46,21.46,12.23,16.85,14.54,17.77,16.15,16.85,17.77,13.85,13.85,9.23,M,25_34
110,2989170,15.38,15.38,9.23,16.92,15.38,16.92,15.38,13.85,8.62,27.69,9.23,16.31,15.38,14.77,10.77,10.15,8.62,12.31,7.08,5.54,M,25_34
111,3046615,7.62,13.15,9.92,9.92,9.23,6.23,8.54,9.23,10.85,3.92,3,6.23,2.31,8.54,6.23,10.85,6.23,11.54,12.23,12.23,M,25_34
112,2091343,5.38,5.38,5.38,5.38,3.85,5.38,5.38,5.38,8.46,6.92,6.92,3.85,4.62,6.15,2.31,1.54,3.85,6.92,4.62,6.92,M,25_34
113,2012047,12.23,6.92,12.23,13.15,7.62,9.92,6.92,8.54,9.92,9.92,13.15,5.31,5.31,5.31,6.23,9.23,8.54,6.23,6.92,6.92,M,25_34
114,10495579,13.15,17.77,9.92,13.15,9.92,7.62,10.85,11.54,5.31,11.54,12.23,9.92,10.85,6.23,9.92,14.54,13.85,16.15,10.85,12.23,M,25_34
115,12672478,6.23,20.77,17.65,13.15,27,20.77,29.08,33.92,17.65,20.77,15.23,21.46,20.77,20.77,19.38,16.96,10.04,19.38,19.38,9.35,M,25_34
116,1283977,6.92,15.38,10,6.92,6.15,16.92,7.69,26.92,8.46,8.46,10.77,28.46,10.77,8.46,11.54,14.62,10.77,11.54,10,10,M,25_34
117,537034,3.85,4.62,0.77,2.31,11.54,13.85,9.23,3.85,16.92,12.31,11.54,8.46,14.62,5.38,1.54,9.23,3.85,9.23,4.62,3.85,M,25_34
118,23348995,9.23,10,10,7.69,10,10.77,10,10.77,8.46,11.54,10.77,12.31,13.08,13.08,14.62,7.69,10,13.08,6.15,14.62,M,25_34
119,370013,3.08,1.54,1.54,1.54,3.08,1.54,2.31,2.31,1.54,0.77,1.54,3.08,3.85,1.54,1.54,2.31,1.54,1.54,1.54,2.31,M,25_34
120,16696436,6.92,6.92,10.77,3.85,8.46,6.15,4.62,4.62,11.54,11.54,7.69,4.62,8.46,10.77,10,17.69,10,9.23,12.31,9.23,M,25_34
121,1885808,6.15,3.08,4.62,2.31,3.08,7.69,7.69,10,7.69,6.92,5.38,10.77,2.31,4.62,6.92,10,5.38,7.69,9.23,6.15,M,25_34
122,1826483,7.69,9.23,4.62,4.62,6.92,3.85,5.38,4.62,11.54,11.54,13.08,11.54,10,12.31,11.54,6.92,3.85,6.92,10,13.85,M,25_34
123,10959,7,2.96,0.81,3.77,6.19,2.96,7,23.15,11.58,3.77,6.19,2.42,7,8.35,10.77,15.35,3.77,4.58,9.15,8.35,M,25_34
124,12553623,12.23,6.23,7.62,5.31,13.15,5.31,3.92,10.85,5.31,16.15,11.54,15.46,14.54,13.15,12.23,8.54,15.46,20.08,9.23,13.15,M,25_34
125,5072181,0.77,3.85,7.69,1.54,6.15,6.15,3.08,8.46,4.62,3.08,1.54,9.23,12.31,16.92,6.92,6.92,8.46,8.46,2.31,9.23,M,25_34
126,1361553,2.31,10.04,5.42,7.73,7.73,6.12,5.42,4.62,7.73,9.23,7.73,7.73,3.12,5.42,5.42,9.23,7.73,1.5,5.42,8.42,M,25_34
127,306708,2.31,5.38,7.69,10,12.31,15.38,11.54,8.46,13.08,7.69,13.08,9.23,11.54,3.85,10,13.08,11.54,13.08,13.08,7.69,M,25_34
128,25246087,5.38,14.62,9.23,12.31,13.08,12.31,7.69,11.54,2.31,1.54,6.92,11.54,10.77,12.31,13.08,10.77,9.23,9.23,10.77,8.46,M,25_34
129,3972,5.38,3.08,5.38,5.38,5.38,5.38,4.62,5.38,2.31,6.15,4.62,2.31,3.85,3.85,3.08,4.62,2.31,3.85,5.38,4.62,M,25_34
130,2449033,11.54,15.38,9.23,12.31,12.31,10,2.31,9.23,11.54,10.77,14.62,9.23,14.62,13.08,11.54,16.15,15.38,9.23,6.92,10.77,M,25_34
131,2805456,7.08,10.15,11.69,13.23,10.15,12.31,15.38,7.08,15.38,10.77,14.77,13.23,9.23,11.69,8.62,10.15,9.23,7.08,12.31,3.08,M,25_34
132,10520454,5.38,14.62,6.15,6.92,6.15,2.31,8.46,6.92,6.92,4.62,7.69,7.69,2.31,4.62,3.85,6.92,7.69,6.92,6.15,6.92,M,25_34
133,4424759,5.38,6.15,6.92,5.38,3.08,4.62,3.85,2.31,2.31,10.77,0.77,3.08,6.15,5.38,7.69,6.92,6.15,8.46,10,6.92,M,25_34
134,1782702,6.12,6.92,6.12,3.12,7.73,4.62,10.04,0.81,6.12,6.92,7.73,5.42,7.73,6.92,10.04,9.23,5.42,6.92,5.42,5.42,M,25_34
135,4650480,10.85,16.15,13.85,13.85,17.77,12.23,13.15,15.46,17.77,13.15,13.15,6.23,9.92,3,11.54,16.15,16.15,15.46,13.15,13.15,M,25_34
136,117006,14.54,16.85,7.62,10.85,14.54,16.15,16.85,16.15,17.77,13.85,16.15,14.54,16.15,12.23,14.54,12.23,13.85,13.85,12.23,12.23,M,25_34
137,3333286,10.77,13.85,9.23,3.08,7.69,8.46,10,10.77,10,7.69,12.31,12.31,8.46,10.77,10,9.23,6.15,11.54,1.54,9.23,M,25_34
138,1891881,6.15,4.62,8.46,6.92,3.85,3.08,3.85,5.38,2.31,3.85,6.15,6.15,3.08,4.62,5.38,6.15,5.38,7.69,7.69,13.08,M,25_34
139,594966,2.31,3.12,1.5,0.81,0.81,2.31,3.81,0.81,5.42,7.73,4.62,5.42,3.12,4.62,7.73,3.12,3.81,7.73,2.31,3.12,M,25_34
140,2551093,9.23,6.23,2.31,11.54,11.54,4.62,6.92,0.69,6.23,4.62,13.15,7.62,6.92,11.54,9.23,6.23,3,9.23,5.31,7.62,M,25_34
141,28427681,4.58,2.96,7.81,13.73,8.35,5.38,7.81,14.54,12.38,12.38,8.35,3.77,7.81,6.19,7.81,10.77,5.38,15.35,7.81,3.77,M,25_34
142,8021300,11.42,6.92,6.23,10.04,13.15,10.04,12.46,7.62,4.5,14.54,5.54,8.31,9.35,31.5,15.23,13.15,11.42,13.15,13.85,6.23,M,25_34
143,185165,10,7.69,6.15,10.77,10.77,10.77,10.77,0.77,1.54,1.54,0.77,3.08,5.38,6.92,9.23,9.23,10.77,2.31,6.92,4.62,M,25_34
144,615220,10,7.69,9.23,5.38,6.92,7.69,14.62,6.15,7.69,4.62,3.85,6.15,2.31,4.62,3.85,5.38,4.62,3.08,9.23,5.38,M,25_34
145,16776345,6.15,6.15,4.62,9.23,8.46,12.31,9.23,10.77,9.23,6.15,3.85,10,10.77,7.69,7.69,7.69,6.15,12.31,9.23,7.69,M,25_34
146,15183868,14.54,13.15,9.23,16.15,13.15,16.15,9.23,12.23,4.62,14.54,16.15,15.46,16.15,6.23,18.46,16.15,19.15,15.46,13.85,12.23,M,25_34
147,2125116,4.62,5.42,7.73,7.73,6.12,9.23,4.62,5.42,6.12,6.12,3.81,8.42,3.12,3.81,5.42,4.62,4.62,3.81,4.62,3.12,M,25_34
148,16413273,0.81,3.12,4.62,1.5,6.92,2.31,3.12,5.42,3.81,1.5,5.42,3.81,4.62,1.5,4.62,4.62,4.62,4.62,1.5,4.62,M,25_34
149,12256657,13.15,9.23,15.46,2.31,3.92,3.92,8.54,8.54,21.46,10.85,9.23,12.23,11.54,7.62,13.85,10.85,10.85,11.54,13.85,7.62,M,25_34
150,844237,12.31,10.77,3.85,4.62,6.92,5.38,6.92,5.38,2.31,2.31,0.77,0.77,0.77,6.92,5.38,10,6.92,6.15,3.85,3.85,M,25_34
151,3522676,9.23,13.08,13.85,8.46,9.23,5.38,7.69,13.08,10,9.23,6.15,8.46,10,9.23,1.54,3.85,16.15,16.15,4.62,5.38,M,25_34
152,271219,6.15,6.15,6.15,6.92,9.23,6.15,9.23,12.31,12.31,8.46,10,8.46,10,4.62,9.23,4.62,3.85,8.46,9.23,6.92,M,25_34
153,2199983,16.15,5.38,7,16.96,17.77,18.58,13.73,19.12,19.92,13.19,13.73,8.35,18.58,16.96,15.35,18.58,19.92,12.38,15.35,16.15,M,25_34
154,2153981,13.08,13.08,11.54,6.92,9.23,2.31,3.85,7.69,10,9.23,6.92,12.31,8.46,10,6.92,13.08,9.23,6.15,8.46,6.92,M,25_34
155,2395497,12.31,16.92,12.31,13.85,8.46,9.23,1.54,8.46,9.23,11.54,11.54,11.54,10,13.08,5.38,6.15,2.31,10,10,8.46,M,25_34
156,644801,2.31,2.31,0.81,2.31,1.5,3.12,2.31,1.5,2.31,0.81,2.31,2.31,3.12,8.42,6.92,2.31,3.81,4.62,4.62,3.81,M,25_34
157,7268333,13.08,1.54,10,9.23,5.38,5.38,11.54,11.54,2.31,5.38,6.15,9.23,6.92,16.15,11.54,12.31,13.08,9.23,6.92,6.92,M,25_34
158,1250450,13.85,10,6.92,8.46,9.23,8.46,11.54,13.85,6.92,7.69,7.69,10,11.54,7.69,8.46,8.46,10,10,9.23,4.62,M,25_34
159,12480281,253.85,92.31,286.15,350.77,281.54,249.23,258.46,318.46,249.23,276.92,304.62,198.46,295.38,4.62,101.54,401.54,452.31,180,253.85,46.15,M,25_34
160,7367551,13.08,9.23,5.38,9.23,5.38,9.23,6.92,10.77,11.54,8.46,10.77,6.15,3.08,3.08,2.31,3.08,7.69,3.08,1.54,0.77,M,25_34
161,3972373,205.38,124.62,166.15,150,115.38,189.23,168.46,124.62,80.77,23.08,143.08,140.77,145.38,90,124.62,191.54,25.38,53.08,39.23,25.38,M,25_34
162,753343,10,9.23,7.69,10,8.46,4.62,10,10.77,10.77,10,10.77,12.31,12.31,14.62,14.62,9.23,15.38,10,8.46,14.62,M,25_34
163,8785122,11.54,5.31,13.85,16.85,13.85,18.46,19.15,13.15,14.54,16.85,17.77,9.92,13.85,10.85,20.08,10.85,9.23,16.15,14.54,9.92,M,25_34
164,1267855,12.23,0.69,10.85,12.23,18.46,8.54,7.62,8.54,12.23,13.85,20.77,9.92,12.23,0.69,9.23,9.92,6.92,8.54,9.92,0.69,M,25_34
165,2176663,4.62,13.08,14.62,3.85,9.23,10.77,10.77,0.77,3.85,4.62,5.38,8.46,7.69,3.85,4.62,5.38,3.85,3.08,3.85,5.38,M,25_34
166,2664748,7.69,4.62,9.23,4.62,3.08,3.85,4.62,5.38,1.54,1.54,0.77,6.92,3.08,3.08,3.08,6.15,6.15,7.69,4.62,6.92,M,25_34
167,556861,2.31,6.15,3.08,15.38,5.38,3.85,6.15,1.54,1.54,4.62,2.31,2.31,2.31,0.77,3.85,3.08,3.08,3.08,1.54,3.08,M,25_34
168,15884209,3.08,3.85,3.85,3.85,2.31,2.31,1.54,1.54,5.38,6.92,4.62,3.85,4.62,6.92,3.85,4.62,3.85,3.08,3.08,4.62,M,25_34
169,9298184,13.08,9.23,16.92,10,12.31,10,6.92,11.54,4.62,8.46,11.54,9.23,11.54,10.77,13.08,10.77,13.08,11.54,10,4.62,M,25_34
170,7047347,5.42,3.12,3.12,3.81,3.12,4.62,4.62,3.81,6.12,2.31,3.12,4.62,3.81,4.62,4.62,2.31,3.12,3.12,2.31,2.31,M,25_34
171,2495425,14.54,9.96,11.58,3.77,11.58,8.35,10.77,10.77,10.77,8.35,9.15,16.15,15.35,13.73,7.81,10.77,23.96,18.58,15.35,14.54,M,25_34
172,4501143,9.23,9.23,10,9.23,4.62,10,10.77,9.23,7.69,12.31,11.54,10,10,11.54,11.54,6.92,13.85,13.08,10,8.46,M,25_34
173,1810605,0.81,3.12,1.5,3.12,5.42,3.81,5.42,4.62,4.62,4.62,2.31,4.62,6.12,6.12,5.42,3.81,4.62,7.73,5.42,3.81,M,25_34
174,1217774,12.31,14.62,7.69,6.92,12.31,9.23,10,11.54,10.77,10,6.92,10,10.77,11.54,9.23,13.08,13.85,8.46,12.31,8.46,M,25_34
175,5121008,13.08,7.69,11.54,4.62,5.38,7.69,1.54,3.85,5.38,8.46,6.15,6.15,8.46,8.46,9.23,10,10,13.08,12.31,8.46,M,25_34
176,2280980,3.12,6.92,0.81,1.5,1.5,4.62,4.62,2.31,3.12,3.12,0.81,1.5,3.12,5.42,4.62,2.31,5.42,2.31,1.5,5.42,M,25_34
177,1289437,3.81,4.62,0.81,0.81,7.73,3.81,6.92,8.42,3.81,3.81,1.5,1.5,8.42,6.12,3.12,7.73,10.04,7.73,9.23,6.92,M,25_34
178,2409007,2.31,3.81,5.42,3.12,3.81,3.81,4.62,6.92,3.12,5.42,5.42,4.62,1.5,6.12,3.12,3.81,2.31,0.81,0.81,1.5,M,25_34
179,143364,6.92,6.12,5.42,6.12,6.92,5.42,6.12,5.42,5.42,1.5,2.31,4.62,3.81,5.42,3.81,5.42,3.81,0.81,0.81,0.81,M,25_34
180,422286,9.23,5.38,4.62,8.46,6.15,7.69,10,6.15,9.23,6.15,4.62,7.69,7.69,5.38,10,6.92,6.15,4.62,7.69,9.23,M,25_34
181,3417480,3.85,7.69,9.23,6.15,10,12.31,6.92,9.23,8.46,8.46,12.31,6.92,8.46,1.54,3.08,6.92,6.15,8.46,3.85,6.92,M,25_34
182,13470154,10.77,11.54,6.15,10.77,7.69,10.77,12.31,3.08,7.69,10.77,6.92,7.69,12.31,8.46,6.15,9.23,9.23,10.77,7.69,13.08,M,25_34
183,279642,5.38,11.54,10,11.54,10,6.92,9.23,4.62,4.62,7.69,4.62,9.23,10,7.69,6.92,3.08,5.38,3.85,3.08,2.31,M,25_34
184,24468529,9.23,5.42,9.23,8.42,4.62,4.62,6.92,5.42,6.92,6.12,4.62,5.42,4.62,8.42,9.23,6.92,10.73,5.42,6.12,9.23,M,25_34
185,367932,9.23,3.85,9.23,15.38,3.85,3.85,1.54,4.62,6.15,3.08,12.31,1.54,4.62,3.85,11.54,1.54,8.46,3.08,3.08,2.31,M,25_34
186,6134633,7.81,9.15,9.15,11.58,6.19,8.35,9.96,9.96,14.54,8.35,12.38,15.35,13.73,4.58,9.96,5.38,4.58,13.19,24.5,9.15,M,25_34
187,6482696,9.23,2.31,4.62,4.62,6.12,3.81,2.31,3.81,3.12,5.42,4.62,0.81,0.81,2.31,1.5,0.81,2.31,2.31,3.81,3.81,M,25_34
188,29233000,8.46,15.38,14.62,8.46,10.77,6.92,5.38,13.08,16.15,15.38,15.38,10,10.77,0.77,5.38,6.15,10,9.23,4.62,7.69,M,25_34
189,404290,7.73,6.92,6.92,6.92,6.92,7.73,5.42,7.73,6.92,7.73,7.73,8.42,8.42,7.73,6.92,9.23,10.04,10.73,8.42,6.92,M,25_34
190,2765424,11.54,6.92,4.62,9.23,6.92,7.69,10.77,10,16.15,14.62,10,10,13.08,7.69,5.38,8.46,3.08,6.92,6.15,6.15,M,25_34
191,4271187,7.69,8.46,1.54,6.92,12.31,10.77,6.92,6.92,3.85,4.62,7.69,6.15,14.62,8.46,7.69,3.85,3.85,3.85,9.23,3.85,M,25_34
192,9763949,6.23,6.92,6.92,8.54,7.62,5.31,6.92,3.92,4.62,4.62,7.62,6.92,11.54,10.85,7.62,4.62,3,7.62,9.23,9.23,M,25_34
193,13607635,34.62,9.23,9.23,11.54,5.38,10,12.31,13.08,10.77,11.54,10.77,12.31,13.08,12.31,10,11.54,12.31,2.31,9.23,3.85,M,25_34
194,14286567,6.15,10,4.62,10,10,4.62,3.85,10,10.77,11.54,6.92,10.77,13.85,15.38,8.46,11.54,14.62,13.85,7.69,3.85,M,25_34
195,140016,10,6.15,8.46,7.69,5.38,8.46,9.23,6.92,7.69,7.69,12.31,13.08,12.31,10.77,13.08,5.38,6.92,4.62,6.92,7.69,M,25_34
196,38863102,6.92,8.46,2.31,3.85,12.31,9.23,10.77,5.38,3.08,12.31,12.31,13.08,6.92,11.54,8.46,13.08,17.69,7.69,18.46,11.54,M,25_34
197,498390,1.5,3.81,4.62,4.62,4.62,2.31,7.73,5.42,7.73,6.92,7.73,7.73,5.42,10.73,10.04,6.92,3.12,6.92,5.42,3.81,M,25_34
198,3518457,8.46,5.38,7.69,11.54,13.85,4.62,7.69,10,10,13.85,10.77,7.69,3.85,10.77,9.23,11.54,8.46,10.77,3.08,1.54,M,25_34
199,10456171,6.12,9.23,6.12,6.12,6.12,9.23,7.73,5.42,6.12,7.73,7.73,4.62,5.42,5.42,9.23,6.12,6.12,7.73,3.81,6.12,M,25_34
200,29223136,3.12,3.12,3.12,3.12,3.81,3.81,6.92,2.31,3.12,1.5,1.5,2.31,2.31,5.42,2.31,2.31,3.12,2.31,3.81,4.62,M,25_34
201,1649993,0.77,0.77,0.77,0.77,1.54,3.85,2.31,1.54,2.31,0.77,1.54,0.77,0.77,1.54,1.54,1.54,0.77,2.31,0.77,2.31,M,25_34
202,2268580,0.81,6.12,8.42,6.12,10.04,6.92,4.62,0.81,3.12,4.62,6.12,3.81,4.62,5.42,3.81,6.12,3.12,8.42,10.04,6.12,F,0_19
203,33272817,6.92,13.85,9.23,10.85,5.31,7.62,9.23,13.85,12.23,16.85,10.85,6.92,9.23,8.54,7.62,6.92,1.62,4.62,4.62,7.62,F,20_24
204,24484458,2.31,1.54,2.31,2.31,2.31,0.77,6.15,4.62,3.85,2.31,3.85,3.08,6.92,3.85,6.15,3.08,4.62,3.08,3.85,3.08,F,20_24
205,4231136,11.54,11.54,3.85,1.54,13.08,5.38,11.54,5.38,2.31,5.38,6.92,9.23,13.85,5.38,10,4.62,13.08,11.54,14.62,7.69,F,20_24
206,2817156,9.92,7.62,7.62,10.85,10.85,3.92,11.54,14.54,8.54,9.92,9.23,19.15,21.46,9.92,12.23,9.92,13.85,13.85,6.92,9.23,F,20_24
207,6407825,0.81,2.31,0.81,3.12,1.5,0.81,6.12,7.73,10.04,9.23,5.42,2.31,3.12,3.12,4.62,6.92,3.12,10.73,6.92,5.42,F,20_24
208,19994050,21.54,15.38,19.23,11.54,8.46,12.31,1.54,6.92,1.54,35.38,4.62,11.54,14.62,11.54,11.54,7.69,4.62,12.31,20.77,3.85,F,20_24
209,7253162,9.23,11.54,9.23,8.46,17.69,6.15,6.92,8.46,9.23,5.38,8.46,12.31,10,5.38,4.62,6.15,6.15,9.23,6.92,6.92,F,20_24
210,27519401,11.54,11.54,10.77,10,13.85,10.77,8.46,11.54,14.62,13.08,12.31,12.31,10,13.08,11.54,14.62,11.54,9.23,8.46,8.46,F,20_24
211,22498406,15.38,16.15,15.38,16.92,9.23,14.62,14.62,10.77,8.46,12.31,6.15,12.31,8.46,12.31,16.15,10,10,10.77,10,8.46,F,20_24
212,23875718,7.81,12.38,10.77,12.38,16.96,16.96,20.73,13.73,11.58,17.77,7,10.77,10.77,11.58,9.15,10.77,14.54,13.19,13.73,15.35,F,20_24
213,18823002,3.85,4.62,6.92,6.15,5.38,7.69,9.23,10,9.23,11.54,10,7.69,5.38,5.38,6.15,4.62,8.46,10.77,10,10.77,F,20_24
214,15720572,10.73,5.42,6.12,4.62,6.12,3.81,5.42,4.62,6.92,5.42,6.12,2.31,4.62,4.62,3.81,4.62,9.23,4.62,3.12,5.42,F,20_24
215,7582025,6.15,3.85,9.23,0.77,2.31,7.69,4.62,10,10,11.54,6.15,4.62,6.15,5.38,6.15,4.62,2.31,5.38,4.62,3.08,F,20_24
216,26027728,7.69,10.77,7.69,9.23,9.23,8.46,5.38,13.08,4.62,6.15,8.46,9.23,10.77,7.69,10,10,10,12.31,10.77,6.15,F,20_24
217,8294292,8.46,10,11.54,7.69,10,10,8.46,8.46,8.46,6.15,6.15,6.15,6.92,5.38,4.62,5.38,6.92,5.38,6.15,6.15,F,25_34
218,7560433,13.15,13.15,14.54,18.46,13.15,16.85,16.15,10.85,11.54,17.77,15.46,19.15,20.08,12.23,14.54,13.85,8.54,14.54,17.77,13.15,F,25_34
219,25165601,12.31,6.92,10.77,12.31,10.77,10.77,10.77,6.92,11.54,10,1.54,12.31,12.31,13.85,16.15,13.85,12.31,16.92,13.08,10,F,25_34
220,11800911,13.85,9.23,10,14.62,10.77,13.08,9.23,9.23,10,10.77,8.46,8.46,10.77,6.15,9.23,7.69,7.69,10,9.23,10.77,F,25_34
221,1688321,8.46,8.46,4.62,6.92,11.54,10,8.46,10,10.77,13.08,9.23,3.08,4.62,4.62,8.46,9.23,5.38,7.69,9.23,10,F,25_34
222,27479916,14.62,6.15,1.54,10.77,11.54,13.85,12.31,14.62,14.62,14.62,13.08,12.31,16.15,13.85,10.77,16.92,18.46,18.46,10.77,14.62,F,25_34
223,18865876,17.69,3.85,4.62,5.38,3.85,7.69,6.92,4.62,6.15,11.54,12.31,6.92,10.77,6.15,1.54,0.77,5.38,6.15,7.69,4.62,F,25_34
224,7726458,7.69,11.54,4.62,14.62,13.08,16.15,16.15,5.38,11.54,13.85,15.38,18.46,13.08,15.38,9.23,12.31,12.31,15.38,13.85,12.31,F,25_34
225,26303897,6.92,6.92,6.15,3.08,6.15,6.92,7.69,9.23,4.62,3.85,8.46,8.46,7.69,8.46,11.54,3.08,6.15,6.92,6.15,3.08,F,25_34
226,4227042,8.35,9.96,10.77,14.54,9.15,7,9.96,11.58,8.35,7.81,19.12,10.77,6.19,6.19,5.38,10.77,7.81,4.58,26.12,13.19,F,25_34
227,7009539,11.54,11.54,10,11.54,10.77,6.15,10.77,1.54,3.08,6.15,7.69,8.46,9.23,9.23,5.38,8.46,9.23,4.62,5.38,6.15,F,25_34
228,6962263,9.23,9.23,11.54,15.38,15.38,11.54,16.15,13.85,9.23,16.92,18.46,18.46,16.15,8.46,10.77,17.69,18.46,13.08,12.31,17.69,F,25_34
229,7680101,16.92,15.38,14.62,13.85,12.31,5.38,14.62,10.77,11.54,15.38,16.92,13.85,11.54,3.85,7.69,10.77,12.31,15.38,6.15,9.23,F,25_34
230,2738510,8.46,16.15,10,13.08,13.08,0.77,7.69,11.54,13.85,10,16.15,10.77,15.38,10,3.08,16.15,16.92,16.92,10,11.54,F,25_34
231,15853348,3.85,3.08,4.62,6.92,4.62,6.15,3.85,6.15,5.38,5.38,6.92,3.08,3.08,5.38,6.92,6.15,6.92,6.92,5.38,4.62,F,25_34
232,21219293,9.23,6.92,11.54,10,6.92,9.23,12.31,2.31,7.69,9.23,6.92,10.77,10,6.15,1.54,10.77,15.38,12.31,10.77,12.31,F,25_34
233,25407510,2.31,5.31,6.23,6.23,6.23,9.23,3.92,7.62,6.92,3.92,7.62,6.23,5.31,13.15,3.92,8.54,7.62,9.23,11.54,19.15,F,25_34
234,8202188,9.23,8.46,6.92,6.92,8.46,8.46,10,6.15,6.92,6.92,9.23,6.15,6.92,5.38,7.69,10,9.23,9.23,5.38,8.46,F,25_34
235,205387,0.77,3.08,0.77,2.31,2.31,2.31,0.77,2.31,0.77,1.54,2.31,1.54,1.54,1.54,1.54,2.31,2.31,2.31,0.77,0.77,F,25_34
236,302682,144.62,73.85,196.92,12.31,18.46,55.38,104.62,147.69,120,43.08,153.85,193.85,249.23,249.23,9.23,120,70.77,95.38,126.15,80,F,25_34
237,1770110,10,9.23,8.46,10,7.69,5.38,15.38,8.46,7.69,11.54,1.54,6.15,0.77,8.46,5.38,8.46,7.69,4.62,6.92,6.15,F,25_34
238,646090,6.15,5.38,2.31,3.08,10.77,10,3.85,7.69,6.92,6.15,6.92,6.92,3.85,7.69,7.69,8.46,4.62,10.77,13.08,9.23,F,25_34
239,7435442,10.77,5.38,10,6.15,6.92,6.92,11.54,10.77,6.15,7.69,3.85,10.77,10,7.69,4.62,6.15,6.15,4.62,2.31,3.85,F,25_34
240,21337326,7.62,5.31,6.92,10.85,7.62,6.92,7.62,8.54,10.85,14.54,9.92,8.54,12.23,3,3,3.92,6.92,5.31,9.92,5.31,F,25_34
241,19610942,4.62,7.69,0.77,4.62,4.62,2.31,4.62,6.92,4.62,3.85,5.38,10,6.15,10.77,10,6.15,8.46,1.54,8.46,10.77,F,25_34
242,8839118,13.08,8.46,7.69,10,10,8.46,11.54,6.92,12.31,10,7.69,8.46,8.46,10.77,3.85,5.38,6.15,9.23,10.77,9.23,F,25_34
243,1829263,9.23,10.85,7.62,10.85,9.92,9.92,13.15,13.85,10.85,13.85,10.85,13.85,10.85,8.54,10.85,5.31,3.92,5.31,6.23,7.62,F,25_34
244,10721665,12.31,13.08,13.85,10,13.85,3.08,8.46,10.77,12.31,13.08,13.85,10,10.77,11.54,13.08,9.23,8.46,9.23,13.08,5.38,F,25_34
245,37919528,12.31,12.31,7.69,8.46,13.85,16.15,10,8.46,4.62,17.69,14.62,12.31,13.08,10,14.62,8.46,7.69,18.46,17.69,9.23,F,25_34
246,8977117,14.54,1.62,6.92,8.54,6.92,3,4.62,6.92,12.23,14.54,13.85,13.85,16.15,14.54,15.46,14.54,14.54,12.23,0.69,0.69,F,25_34
247,30759327,3.08,4.62,5.38,6.92,5.38,4.62,5.38,10,10,10,4.62,11.54,7.69,8.46,6.15,10,12.31,9.23,10,4.62,F,25_34
248,8272718,6.92,17.69,10.77,7.69,6.92,13.08,7.69,8.46,8.46,10.77,10,13.08,10,6.15,11.54,9.23,12.31,15.38,12.31,3.85,F,25_34
249,28440884,8.54,9.23,9.23,6.23,6.92,6.23,5.31,10.85,4.62,3.92,13.85,9.92,9.92,13.15,9.23,11.54,7.62,3,12.23,14.54,F,25_34
250,14276886,6.12,8.42,8.42,6.12,8.42,9.23,3.81,3.12,6.12,5.42,3.81,6.92,9.23,6.12,4.62,6.12,2.31,5.42,4.62,3.12,F,25_34
251,1402315,6.92,11.54,7.69,10,11.54,10,10.77,10.77,9.23,6.92,10,11.54,13.08,9.23,4.62,11.54,3.85,3.85,3.08,3.08,F,25_34
252,8696732,6.92,6.92,6.92,7.73,6.92,8.42,6.92,2.31,5.42,2.31,3.12,4.62,5.42,4.62,5.42,6.92,4.62,3.12,6.12,5.42,F,25_34
253,6348331,5.42,4.62,5.42,5.42,4.62,4.62,4.62,4.62,6.12,4.62,3.12,10.04,6.12,6.92,6.12,6.12,3.81,3.81,7.73,3.81,F,25_34
254,3560997,10.85,8.54,12.23,0.69,0.69,5.31,3.92,2.31,0.69,3,6.92,0.69,3.92,3.92,2.31,1.62,5.31,6.23,6.92,6.92,F,25_34
255,20368203,6.15,10,4.62,11.54,10.77,6.15,2.31,7.69,9.23,7.69,7.69,5.38,11.54,12.31,15.38,16.92,5.38,13.85,13.85,9.23,F,25_34
256,369252,1.54,3.08,5.38,2.31,6.15,6.92,3.08,5.38,6.92,3.85,7.69,17.69,4.62,5.38,8.46,5.38,5.38,6.92,9.23,3.08,F,25_34
257,26831737,14.62,6.92,13.08,13.08,7.69,7.69,2.31,8.46,10,7.69,13.85,9.23,6.92,15.38,6.15,10.77,9.23,9.23,10,9.23,F,25_34
258,3965607,0.69,2.31,9.23,9.92,9.23,13.15,10.85,13.15,9.92,13.85,8.54,12.23,12.23,13.85,16.85,10.85,11.54,22.38,9.92,14.54,F,25_34
259,13608653,13.08,5.38,8.46,1.54,5.38,6.92,13.08,4.62,6.92,6.15,4.62,9.23,8.46,5.38,6.92,3.08,1.54,3.85,10.77,12.31,F,25_34
260,1606129,3.85,3.85,6.15,5.38,4.62,3.85,3.85,3.08,2.31,2.31,3.08,1.54,3.85,1.54,3.08,2.31,2.31,3.08,1.54,3.08,F,25_34
261,12615113,13.5,14.54,13.5,13.5,14.54,13.5,4.15,13.5,21.81,14.54,16.62,17.65,1.04,10.38,14.54,13.5,8.31,16.62,11.42,7.27,F,25_34
