,Local Rank,Kona Rank,id,Week 1,Week 2,Week 3,Week 4,Week 5,Week 6,Week 7,Week 8,Week 9,Week 10,Week 11,Week 12,Week 13,Week 14,Week 15,Week 16,Week 17,Week 18,Week 19,Week 20,Gender,Age_Group,Link to Strava,Cluster #,Cluster Median,Cluster Mean
0,0,12,8149665,8.54,9.23,6.92,7.62,10.85,8.54,13.15,6.23,9.23,8.54,12.23,20.77,7.62,6.92,8.54,14.54,15.46,10.85,7.62,12.23,F,35_44,https://www.strava.com/athletes/8149665,1,8.46,8.288
1,3,85,13887062,0.0,0.0,0.0,0.0,0.0,3.08,4.62,3.85,4.62,11.54,11.54,10.77,14.62,8.46,6.92,13.08,13.08,11.54,11.54,8.46,F,35_44,https://www.strava.com/athletes/13887062,1,8.46,8.288
2,4,93,21399228,0.0,0.0,0.0,0.77,6.92,11.54,0.0,1.54,6.15,6.15,8.46,10.77,13.08,9.23,12.31,10.0,13.08,10.0,12.31,6.92,F,35_44,https://www.strava.com/athletes/21399228,1,8.46,8.288
3,5,97,5502085,10.77,7.69,6.92,7.69,8.46,9.23,10.77,10.0,7.69,8.46,16.15,13.85,10.0,11.54,10.77,10.77,9.23,8.46,5.38,12.31,F,35_44,https://www.strava.com/athletes/5502085,1,8.46,8.288
4,8,125,14320652,1.54,5.38,6.15,7.69,1.54,5.38,6.15,6.15,10.77,8.46,10.77,10.0,7.69,10.77,13.85,11.54,9.23,10.77,6.15,7.69,F,35_44,https://www.strava.com/athletes/14320652,1,8.46,8.288
5,9,136,2815256,0.0,6.92,7.69,0.77,1.54,7.69,8.46,7.69,10.77,9.23,10.77,7.69,9.23,10.77,10.77,6.15,6.92,8.46,10.0,4.62,F,35_44,https://www.strava.com/athletes/2815256,1,8.46,8.288
6,14,12,1622304,4.62,3.08,6.15,5.38,4.62,9.23,5.38,1.54,3.85,8.46,9.23,7.69,12.31,10.77,8.46,18.46,10.0,11.54,9.23,6.15,F,45_54,https://www.strava.com/athletes/1622304,1,8.46,8.288
7,18,28,21195212,4.62,5.38,2.31,6.15,3.85,8.46,13.08,11.54,13.08,7.69,13.08,10.77,12.31,7.69,10.0,10.77,12.31,7.69,9.23,8.46,F,45_54,https://www.strava.com/athletes/21195212,1,8.46,8.288
8,19,40,2014292,0.0,9.23,7.73,4.62,10.04,4.62,8.42,6.92,6.92,7.73,9.23,6.12,7.73,8.42,9.23,10.04,6.92,3.81,0.81,4.62,F,45_54,https://www.strava.com/athletes/2014292,1,8.46,8.288
9,23,72,13403562,12.31,6.15,7.69,6.92,4.62,13.08,11.54,10.0,9.23,13.85,10.77,9.23,10.77,3.08,6.92,8.46,11.54,11.54,6.15,14.62,F,45_54,https://www.strava.com/athletes/13403562,1,8.46,8.288
10,24,82,2018968,8.46,6.92,4.62,6.92,0.77,8.46,7.69,7.69,10.0,17.69,10.77,12.31,10.0,13.85,8.46,11.54,12.31,11.54,4.62,13.08,F,45_54,https://www.strava.com/athletes/2018968,1,8.46,8.288
11,28,95,320432,0.0,7.69,3.85,6.92,7.69,6.92,3.85,6.92,3.85,10.0,12.31,9.23,10.77,13.08,6.15,13.08,8.46,13.08,1.54,6.15,F,45_54,https://www.strava.com/athletes/320432,1,8.46,8.288
12,29,104,272077,3.23,7.54,9.15,31.77,11.31,12.38,8.62,12.38,7.54,53.31,2.15,2.15,2.15,5.38,9.15,12.92,7.54,7.0,7.54,15.62,F,45_54,https://www.strava.com/athletes/272077,1,8.46,8.288
13,32,107,20929319,13.85,6.15,5.38,4.62,7.69,6.92,6.92,6.92,10.77,12.31,12.31,5.38,12.31,5.38,9.23,8.46,5.38,7.69,7.69,4.62,F,45_54,https://www.strava.com/athletes/20929319,1,8.46,8.288
14,33,109,698332,6.15,6.92,3.08,10.0,6.15,10.0,12.31,5.38,8.46,13.08,7.69,8.46,13.85,8.46,12.31,10.0,10.0,6.15,11.54,9.23,F,45_54,https://www.strava.com/athletes/698332,1,8.46,8.288
15,35,119,3783112,0.0,6.92,5.38,3.08,6.15,9.23,6.92,7.69,9.23,10.77,5.38,6.92,3.85,11.54,8.46,13.08,10.0,8.46,7.69,6.15,F,45_54,https://www.strava.com/athletes/3783112,1,8.46,8.288
16,36,120,1417999,6.92,2.31,6.15,2.31,8.46,10.0,8.46,6.92,5.38,9.23,3.85,13.08,13.85,10.77,13.85,12.31,8.46,3.85,10.77,5.38,F,45_54,https://www.strava.com/athletes/1417999,1,8.46,8.288
17,41,27,5030742,0.0,6.92,7.69,4.62,7.69,11.54,6.92,12.31,10.77,4.62,13.08,7.69,12.31,2.31,10.77,7.69,7.69,7.69,6.15,5.38,F,55_64,https://www.strava.com/athletes/5030742,1,8.46,8.288
18,42,28,15564659,5.38,2.31,6.15,6.92,9.23,8.46,6.92,8.46,8.46,6.92,18.46,0.0,7.69,8.46,12.31,11.54,0.77,5.38,7.69,8.46,F,55_64,https://www.strava.com/athletes/15564659,1,8.46,8.288
19,43,29,22299259,0.0,11.54,10.0,8.46,9.23,10.0,6.15,3.08,6.92,10.77,7.69,12.31,12.31,10.0,13.85,9.23,7.69,14.62,9.23,8.46,F,55_64,https://www.strava.com/athletes/22299259,1,8.46,8.288
20,44,32,21288994,1.54,6.92,7.69,7.69,6.92,5.38,7.69,7.69,8.46,8.46,9.23,10.77,7.69,8.46,10.0,10.0,7.69,7.69,8.46,6.92,F,55_64,https://www.strava.com/athletes/21288994,1,8.46,8.288
21,45,41,736615,0.77,8.46,7.69,6.92,4.62,7.69,3.08,0.0,6.92,6.92,7.69,8.46,4.62,9.23,10.0,8.46,3.85,9.23,7.69,6.92,F,55_64,https://www.strava.com/athletes/736615,1,8.46,8.288
22,46,42,4784227,7.69,9.23,4.62,6.92,8.46,7.69,7.69,6.15,9.23,9.23,11.54,5.38,15.38,8.46,6.15,8.46,6.92,13.08,6.15,5.38,F,55_64,https://www.strava.com/athletes/4784227,1,8.46,8.288
23,47,4,1289508,0.0,6.15,7.69,10.77,12.31,6.15,9.23,10.0,11.54,6.15,10.0,13.08,12.31,10.77,11.54,7.69,4.62,6.92,14.62,6.92,F,65_69,https://www.strava.com/athletes/1289508,1,8.46,8.288
24,48,5,2571326,7.69,7.69,9.23,5.38,10.77,6.92,10.77,5.38,7.69,8.46,9.23,9.23,9.23,12.31,6.92,12.31,10.0,6.92,5.38,4.62,F,65_69,https://www.strava.com/athletes/2571326,1,8.46,8.288
25,49,6,1924229,6.15,2.31,6.15,5.38,6.92,7.69,7.69,8.46,11.54,6.92,10.0,6.15,13.08,10.77,13.08,10.0,10.77,10.0,8.46,14.62,F,65_69,https://www.strava.com/athletes/1924229,1,8.46,8.288
26,1,39,4218798,12.23,5.31,19.15,6.92,6.23,12.23,13.85,12.23,9.23,11.54,2.31,4.62,9.23,9.23,9.92,9.92,12.23,11.54,13.15,8.54,F,35_44,https://www.strava.com/athletes/4218798,2,8.54,8.722
27,2,53,2068058,11.54,8.46,11.54,8.46,6.15,5.38,13.08,9.23,13.08,9.23,7.69,1.54,10.0,8.46,13.08,15.38,6.92,15.38,10.77,7.69,F,35_44,https://www.strava.com/athletes/2068058,2,8.54,8.722
28,6,107,2325742,12.0,4.0,8.0,16.0,8.0,12.0,8.0,12.0,8.0,12.0,0.0,4.0,8.0,12.0,12.0,12.0,8.0,4.0,12.0,4.0,F,35_44,https://www.strava.com/athletes/2325742,2,8.54,8.722
29,21,50,2325742,0.0,7.81,9.96,10.77,14.54,16.96,24.5,14.54,8.35,9.96,1.62,6.19,4.58,9.15,9.96,9.15,9.15,9.96,9.96,6.19,F,45_54,https://www.strava.com/athletes/2325742,2,8.54,8.722
30,7,118,4257279,7.69,6.15,5.38,3.85,7.69,7.69,7.69,6.92,9.23,5.38,7.69,5.38,9.23,13.08,10.77,5.38,13.85,9.23,8.46,6.15,F,35_44,https://www.strava.com/athletes/4257279,2,8.54,8.722
31,10,143,12000976,1.54,6.15,11.54,9.23,6.15,10.77,11.54,0.0,0.0,1.54,0.0,5.38,9.23,14.62,10.77,12.31,7.69,6.92,8.46,6.15,F,35_44,https://www.strava.com/athletes/12000976,2,8.54,8.722
32,11,150,3473874,12.31,15.38,8.46,14.62,15.38,12.31,6.92,11.54,0.0,3.85,7.69,6.15,8.46,10.77,4.62,8.46,10.0,10.77,7.69,7.69,F,35_44,https://www.strava.com/athletes/3473874,2,8.54,8.722
33,12,175,3336296,8.46,7.69,7.69,6.15,0.0,0.0,6.15,6.92,4.62,10.0,4.62,10.0,9.23,10.77,11.54,14.62,16.15,18.46,9.23,8.46,F,35_44,https://www.strava.com/athletes/3336296,2,8.54,8.722
34,13,10,349170,7.69,6.92,9.23,6.15,12.31,8.46,8.46,6.92,6.92,6.15,10.0,0.0,3.85,10.0,12.31,13.08,11.54,7.69,13.08,6.92,F,45_54,https://www.strava.com/athletes/349170,2,8.54,8.722
35,15,17,2484858,9.23,15.38,10.0,7.69,16.92,14.62,13.08,0.0,3.85,10.77,13.85,6.92,6.92,9.23,10.77,12.31,16.92,7.69,7.69,6.15,F,45_54,https://www.strava.com/athletes/2484858,2,8.54,8.722
36,16,19,815138,6.92,8.46,5.38,12.31,9.23,10.77,9.23,7.69,4.62,10.0,0.77,5.38,7.69,3.85,10.0,7.69,12.31,10.0,8.46,10.0,F,45_54,https://www.strava.com/athletes/815138,2,8.54,8.722
37,17,27,19690536,4.62,6.92,16.92,13.08,7.69,10.0,0.0,0.0,0.0,1.54,9.23,16.92,9.23,10.0,1.54,11.54,11.54,11.54,10.0,0.77,F,45_54,https://www.strava.com/athletes/19690536,2,8.54,8.722
38,20,47,48456864,11.54,6.92,7.69,9.23,10.0,10.0,8.46,8.46,8.46,4.62,6.15,9.23,11.54,1.54,5.38,9.23,9.23,16.15,11.54,7.69,F,45_54,https://www.strava.com/athletes/48456864,2,8.54,8.722
39,6,107,2325742,12.0,4.0,8.0,16.0,8.0,12.0,8.0,12.0,8.0,12.0,0.0,4.0,8.0,12.0,12.0,12.0,8.0,4.0,12.0,4.0,F,35_44,https://www.strava.com/athletes/2325742,2,8.54,8.722
40,21,50,2325742,0.0,7.81,9.96,10.77,14.54,16.96,24.5,14.54,8.35,9.96,1.62,6.19,4.58,9.15,9.96,9.15,9.15,9.96,9.96,6.19,F,45_54,https://www.strava.com/athletes/2325742,2,8.54,8.722
41,22,60,644098,5.38,7.0,7.0,8.35,3.77,23.96,10.77,10.77,10.77,8.35,7.0,7.81,9.96,11.58,6.19,9.15,10.77,8.35,4.58,16.15,F,45_54,https://www.strava.com/athletes/644098,2,8.54,8.722
42,25,83,306299,8.46,9.23,10.0,4.62,10.0,9.23,4.62,10.0,7.69,8.46,6.92,9.23,10.77,8.46,13.85,16.92,12.31,8.46,5.38,15.38,F,45_54,https://www.strava.com/athletes/306299,2,8.54,8.722
43,26,87,14640188,0.0,9.23,11.54,20.08,9.92,7.62,11.54,9.92,3.0,3.92,12.23,7.62,9.92,9.92,16.85,10.85,13.15,10.85,15.46,6.92,F,45_54,https://www.strava.com/athletes/14640188,2,8.54,8.722
44,27,91,2218930,0.0,6.92,6.15,7.69,9.23,6.92,3.85,4.62,5.38,10.0,6.92,6.15,8.46,10.0,7.69,7.69,10.77,11.54,11.54,1.54,F,45_54,https://www.strava.com/athletes/2218930,2,8.54,8.722
45,30,105,12046920,16.92,5.38,6.92,6.92,7.69,5.38,8.46,9.23,9.23,5.38,6.15,10.77,10.0,10.77,7.69,9.23,11.54,10.77,13.08,10.0,F,45_54,https://www.strava.com/athletes/12046920,2,8.54,8.722
46,31,106,6322251,13.15,14.54,13.85,6.23,7.62,6.23,0.0,0.0,0.0,5.31,8.54,10.85,8.54,10.85,3.92,10.85,4.62,11.54,7.62,6.23,F,45_54,https://www.strava.com/athletes/6322251,2,8.54,8.722
47,34,112,19837,10.77,5.38,5.38,9.23,0.0,8.46,7.69,9.23,7.69,8.46,5.38,3.85,12.31,10.0,6.15,10.77,10.77,10.77,8.46,3.85,F,45_54,https://www.strava.com/athletes/19837,2,8.54,8.722
48,37,15,6199157,8.54,10.85,9.92,8.54,2.31,20.08,0.0,1.62,8.54,3.0,6.92,8.54,9.23,9.23,13.15,9.23,12.23,14.54,11.54,6.92,F,55_64,https://www.strava.com/athletes/6199157,2,8.54,8.722
49,38,18,344735,8.46,7.69,0.0,6.15,9.23,5.38,8.46,9.23,5.38,4.62,8.46,6.92,8.46,9.23,13.85,13.85,12.31,13.85,13.08,9.23,F,55_64,https://www.strava.com/athletes/344735,2,8.54,8.722
50,39,23,16107330,6.92,6.15,10.77,10.77,8.46,9.23,0.0,0.77,3.85,5.38,5.38,8.46,13.08,10.77,13.08,9.23,7.69,12.31,9.23,9.23,F,55_64,https://www.strava.com/athletes/16107330,2,8.54,8.722
51,40,26,8679657,9.23,10.77,4.62,6.15,5.38,8.46,7.69,12.31,6.15,3.85,10.77,7.69,3.85,13.08,13.08,15.38,8.46,16.92,12.31,5.38,F,55_64,https://www.strava.com/athletes/8679657,2,8.54,8.722
