,Local Rank,Kona Rank,id,Week 1,Week 2,Week 3,Week 4,Week 5,Week 6,Week 7,Week 8,Week 9,Week 10,Week 11,Week 12,Week 13,Week 14,Week 15,Week 16,Week 17,Week 18,Week 19,Week 20,Gender,Age_Group,Link to Strava,Cluster #,Cluster Median,Cluster Mean
0,1,10,5730036,0.0,8.54,7.62,19.15,16.15,12.23,16.85,11.54,10.85,0.0,6.92,6.92,6.92,7.62,6.23,6.92,7.62,6.92,9.23,7.62,M,20_24,https://www.strava.com/athletes/5730036,1,8.46,8.34
1,3,36,1570419,2.96,18.58,10.77,9.15,26.12,15.35,19.92,23.96,9.96,11.58,18.58,2.42,8.35,6.19,6.19,9.15,10.77,3.77,9.15,3.77,M,20_24,https://www.strava.com/athletes/1570419,1,8.46,8.34
2,5,61,5839427,0.0,9.23,4.62,10.0,8.46,9.23,10.0,10.77,10.0,2.31,0.77,6.15,9.23,11.54,10.0,4.62,6.15,7.69,10.0,3.08,M,20_24,https://www.strava.com/athletes/5839427,1,8.46,8.34
3,6,69,6116734,0.77,5.38,11.54,15.38,13.08,7.69,4.62,16.15,8.46,10.77,2.31,3.08,6.92,8.46,10.77,9.23,6.15,13.85,10.0,7.69,M,20_24,https://www.strava.com/athletes/6116734,1,8.46,8.34
4,8,74,3518815,8.46,4.62,16.15,13.85,10.0,11.54,0.0,0.0,5.38,1.54,8.46,7.69,9.23,6.92,10.77,10.77,9.23,7.69,6.92,7.69,M,20_24,https://www.strava.com/athletes/3518815,1,8.46,8.34
5,9,79,35207108,0.0,10.0,10.0,10.0,7.69,8.46,10.0,6.92,6.15,10.0,0.0,4.62,6.15,3.85,8.46,6.15,7.69,10.0,6.15,5.38,M,20_24,https://www.strava.com/athletes/35207108,1,8.46,8.34
6,10,81,6242371,5.38,7.69,10.77,10.0,10.77,9.23,10.77,9.23,3.85,7.69,10.0,7.69,7.69,13.08,11.54,10.0,7.69,10.0,13.08,3.08,M,20_24,https://www.strava.com/athletes/6242371,1,8.46,8.34
7,11,85,4851200,0.0,4.62,7.69,3.85,9.23,8.46,5.38,12.31,13.08,8.46,3.85,7.69,6.15,7.69,6.92,9.23,3.85,7.69,6.15,3.85,M,20_24,https://www.strava.com/athletes/4851200,1,8.46,8.34
8,14,74,1996704,5.38,0.0,0.0,4.62,9.23,9.23,7.69,8.46,6.15,6.92,6.92,5.38,13.08,10.0,8.46,4.62,10.0,8.46,7.69,6.15,M,25_34,https://www.strava.com/athletes/1996704,1,8.46,8.34
9,15,95,341596,7.81,11.58,9.96,9.96,8.35,7.81,9.96,0.0,1.62,6.19,8.35,6.19,7.0,14.54,10.77,8.35,9.15,7.81,8.35,9.96,M,25_34,https://www.strava.com/athletes/341596,1,8.46,8.34
10,20,135,16385665,0.0,7.69,9.23,10.0,11.54,4.62,9.23,11.54,7.69,6.92,7.69,6.92,7.69,12.31,9.23,9.23,9.23,10.0,7.69,9.23,M,25_34,https://www.strava.com/athletes/16385665,1,8.46,8.34
11,21,139,1090827,0.0,5.38,5.38,13.19,7.0,8.35,10.77,24.5,7.81,11.58,10.77,7.81,6.19,7.0,6.19,10.77,9.15,13.73,12.38,4.58,M,25_34,https://www.strava.com/athletes/1090827,1,8.46,8.34
12,25,163,6039,11.54,3.08,10.0,3.85,11.54,5.38,9.23,13.08,8.46,9.23,4.62,10.0,10.77,6.92,10.0,10.77,5.38,14.62,3.08,3.85,M,25_34,https://www.strava.com/athletes/6039,1,8.46,8.34
13,28,180,1548417,7.69,10.77,10.0,3.85,6.15,13.85,9.23,10.77,10.77,0.0,6.92,8.46,10.0,10.77,6.15,4.62,17.69,11.54,11.54,6.92,M,25_34,https://www.strava.com/athletes/1548417,1,8.46,8.34
14,31,191,729442,2.31,10.85,10.85,4.62,9.23,4.62,10.85,5.31,5.31,8.54,3.0,3.92,6.23,6.92,10.85,11.54,11.54,10.85,9.23,6.92,M,25_34,https://www.strava.com/athletes/729442,1,8.46,8.34
15,35,213,186428,10.85,7.62,12.23,9.23,9.92,8.54,9.23,9.92,9.92,7.62,6.23,10.85,8.54,12.23,10.85,5.31,5.31,9.23,10.85,5.31,M,25_34,https://www.strava.com/athletes/186428,1,8.46,8.34
16,38,236,3380729,6.15,10.0,7.69,9.23,10.77,10.77,6.15,7.69,8.46,0.0,9.23,7.69,14.62,10.77,10.0,10.77,10.0,10.0,4.62,5.38,M,25_34,https://www.strava.com/athletes/3380729,1,8.46,8.34
17,47,282,9418112,8.35,7.81,7.0,7.81,11.58,13.19,9.15,7.0,9.15,7.0,8.35,5.38,6.19,6.19,4.58,8.35,9.96,7.0,5.38,12.38,M,25_34,https://www.strava.com/athletes/9418112,1,8.46,8.34
18,50,295,2012047,8.46,6.92,11.54,8.46,10.77,6.15,9.23,0.0,4.62,6.92,9.23,8.46,12.31,6.15,7.69,9.23,10.0,11.54,10.0,5.38,M,25_34,https://www.strava.com/athletes/2012047,1,8.46,8.34
19,51,306,370013,6.15,3.85,6.15,8.46,6.92,11.54,7.69,6.15,6.92,7.69,8.46,4.62,10.0,9.23,9.23,8.46,3.85,7.69,5.38,7.69,M,25_34,https://www.strava.com/athletes/370013,1,8.46,8.34
20,52,320,546457,6.92,8.46,10.0,10.0,10.77,7.69,13.08,9.23,8.46,9.23,2.31,5.38,8.46,9.23,6.92,9.23,10.77,9.23,9.23,6.15,M,25_34,https://www.strava.com/athletes/546457,1,8.46,8.34
21,54,335,306708,7.69,6.15,10.0,8.46,9.23,11.54,10.77,10.0,10.77,14.62,6.15,6.92,14.62,2.31,10.0,11.54,11.54,5.38,9.23,6.92,M,25_34,https://www.strava.com/athletes/306708,1,8.46,8.34
22,60,368,28427681,0.0,2.96,7.81,13.73,8.35,5.38,7.81,14.54,12.38,12.38,8.35,3.77,7.81,6.19,7.81,10.77,5.38,15.35,7.81,3.77,M,25_34,https://www.strava.com/athletes/28427681,1,8.46,8.34
23,61,379,16776345,0.0,6.15,4.62,9.23,8.46,12.31,9.23,10.77,9.23,6.15,3.85,10.0,10.77,7.69,7.69,7.69,6.15,12.31,9.23,7.69,M,25_34,https://www.strava.com/athletes/16776345,1,8.46,8.34
24,62,380,6142974,3.08,6.92,13.85,10.0,9.23,10.77,10.77,10.77,9.23,1.54,7.69,5.38,10.0,8.46,6.92,5.38,7.69,8.46,5.38,6.92,M,25_34,https://www.strava.com/athletes/6142974,1,8.46,8.34
25,65,390,3461424,1.54,8.46,16.92,8.46,9.23,10.77,11.54,10.0,8.46,11.54,9.23,9.23,9.23,7.69,4.62,13.08,10.0,7.69,14.62,13.08,M,25_34,https://www.strava.com/athletes/3461424,1,8.46,8.34
26,68,397,2712209,6.92,8.46,13.85,5.38,8.46,9.23,7.69,10.0,11.54,2.31,5.38,10.0,11.54,10.0,6.92,7.69,7.69,10.0,4.62,7.69,M,25_34,https://www.strava.com/athletes/2712209,1,8.46,8.34
27,71,410,2199983,9.15,12.38,11.58,7.81,18.58,9.96,9.15,23.96,14.54,9.15,9.15,8.35,10.77,6.19,9.15,9.96,11.58,3.77,7.81,8.35,M,25_34,https://www.strava.com/athletes/2199983,1,8.46,8.34
28,73,418,4384776,9.92,12.23,3.0,13.15,8.54,13.15,3.92,0.0,6.23,3.0,8.54,6.92,9.23,3.0,8.54,0.0,8.54,3.92,11.54,9.92,M,25_34,https://www.strava.com/athletes/4384776,1,8.46,8.34
29,74,421,693539,0.0,0.0,1.62,20.08,1.62,4.62,9.92,7.62,9.92,12.23,8.54,4.62,12.23,5.31,6.92,9.23,9.23,7.62,9.23,9.92,M,25_34,https://www.strava.com/athletes/693539,1,8.46,8.34
30,75,423,7268333,0.0,1.54,10.0,9.23,5.38,5.38,11.54,11.54,2.31,5.38,6.15,9.23,6.92,16.15,11.54,12.31,13.08,9.23,6.92,6.92,M,25_34,https://www.strava.com/athletes/7268333,1,8.46,8.34
31,76,424,1250450,0.0,10.0,6.92,8.46,9.23,8.46,11.54,13.85,6.92,7.69,7.69,10.0,11.54,7.69,8.46,8.46,10.0,10.0,9.23,4.62,M,25_34,https://www.strava.com/athletes/1250450,1,8.46,8.34
32,80,479,10039598,0.0,8.46,6.15,10.0,10.0,12.31,9.23,8.46,10.0,0.77,5.38,9.23,9.23,3.85,8.46,12.31,5.38,6.15,6.92,6.92,M,25_34,https://www.strava.com/athletes/10039598,1,8.46,8.34
33,82,497,5121008,3.92,9.23,11.54,11.54,19.15,6.23,7.62,6.92,12.23,7.62,8.54,5.31,9.92,11.54,13.15,10.85,6.92,12.23,13.15,6.92,M,25_34,https://www.strava.com/athletes/5121008,1,8.46,8.34
34,83,502,1289437,4.62,8.46,14.62,11.54,8.46,7.69,11.54,11.54,9.23,6.92,4.62,10.0,10.77,9.23,6.15,6.92,10.0,12.31,7.69,6.92,M,25_34,https://www.strava.com/athletes/1289437,1,8.46,8.34
35,86,512,3417480,0.0,7.69,9.23,6.15,10.0,12.31,6.92,9.23,8.46,8.46,12.31,6.92,8.46,1.54,3.08,6.92,6.15,8.46,3.85,6.92,M,25_34,https://www.strava.com/athletes/3417480,1,8.46,8.34
36,87,513,13470154,0.0,11.54,6.15,10.77,7.69,10.77,12.31,3.08,7.69,10.77,6.92,7.69,12.31,8.46,6.15,9.23,9.23,10.77,7.69,13.08,M,25_34,https://www.strava.com/athletes/13470154,1,8.46,8.34
37,89,528,6482696,11.54,6.15,10.77,10.0,11.54,6.15,10.77,7.69,8.46,1.54,0.0,2.31,7.69,10.77,12.31,6.92,15.38,14.62,5.38,6.92,M,25_34,https://www.strava.com/athletes/6482696,1,8.46,8.34
38,90,530,29233000,0.0,15.38,14.62,8.46,10.77,6.92,5.38,13.08,16.15,15.38,15.38,10.0,10.77,0.77,5.38,6.15,10.0,9.23,4.62,7.69,M,25_34,https://www.strava.com/athletes/29233000,1,8.46,8.34
39,91,536,1084908,5.38,7.69,11.54,10.77,5.38,11.54,10.0,5.38,7.69,8.46,6.15,4.62,5.38,12.31,4.62,0.77,16.92,6.92,9.23,5.38,M,25_34,https://www.strava.com/athletes/1084908,1,8.46,8.34
40,96,575,122766,8.46,4.62,7.69,10.77,8.46,10.77,6.15,10.0,3.08,10.77,11.54,6.15,9.23,7.69,2.31,11.54,10.0,4.62,10.0,4.62,M,25_34,https://www.strava.com/athletes/122766,1,8.46,8.34
41,99,585,746256,0.77,2.31,8.46,11.54,6.15,10.0,6.92,12.31,13.08,8.46,10.0,6.15,8.46,11.54,1.54,10.77,10.0,15.38,7.69,7.69,M,25_34,https://www.strava.com/athletes/746256,1,8.46,8.34
42,0,7,15217952,0.0,0.0,0.0,16.08,0.0,0.0,0.0,0.0,0.0,0.0,16.08,0.0,16.08,16.08,16.08,16.08,16.08,16.08,16.08,16.08,M,0_19,https://www.strava.com/athletes/15217952,2,8.46,8.286
43,2,24,1780607,13.15,0.0,0.0,0.0,9.92,9.23,8.54,4.62,4.62,4.62,5.31,3.92,7.62,2.31,2.31,9.92,16.85,19.15,10.85,13.85,M,20_24,https://www.strava.com/athletes/1780607,2,8.46,8.286
44,4,41,1256549,2.31,7.69,10.0,0.0,0.0,3.85,7.69,4.62,0.77,3.08,8.46,10.0,10.0,11.54,11.54,13.08,8.46,9.23,8.46,6.15,M,20_24,https://www.strava.com/athletes/1256549,2,8.46,8.286
45,7,70,1954492,3.85,4.62,7.69,6.15,8.46,6.92,6.92,5.38,10.77,10.0,5.38,4.62,10.77,13.08,7.69,8.46,10.77,5.38,12.31,10.0,M,20_24,https://www.strava.com/athletes/1954492,2,8.46,8.286
46,12,93,1713821,7.69,6.15,7.69,8.46,4.62,6.92,5.38,8.46,5.38,8.46,10.77,9.23,6.15,8.46,13.08,10.77,8.46,10.77,4.62,10.77,M,20_24,https://www.strava.com/athletes/1713821,2,8.46,8.286
47,13,48,32654853,0.0,6.92,10.0,2.31,4.62,6.92,12.31,13.85,13.85,12.31,15.38,16.15,12.31,13.08,6.15,8.46,10.0,3.08,0.0,0.0,M,25_34,https://www.strava.com/athletes/32654853,2,8.46,8.286
48,16,104,5862027,1.62,7.81,7.81,5.38,9.15,9.15,13.19,6.19,7.81,12.38,14.54,10.77,13.73,10.77,9.15,15.35,12.38,12.38,5.38,9.15,M,25_34,https://www.strava.com/athletes/5862027,2,8.46,8.286
49,17,106,566237,6.15,0.92,4.62,4.62,10.77,0.92,7.69,13.85,15.38,7.69,6.15,7.08,7.08,10.77,8.62,13.23,7.08,7.08,29.23,24.0,M,25_34,https://www.strava.com/athletes/566237,2,8.46,8.286
50,18,115,5277291,9.23,4.0,2.46,7.08,3.08,6.15,8.62,13.85,13.23,15.38,11.69,10.77,13.23,10.15,4.0,8.62,12.31,9.23,10.77,3.08,M,25_34,https://www.strava.com/athletes/5277291,2,8.46,8.286
51,19,130,7039339,9.23,15.38,6.92,13.85,0.0,9.23,13.85,16.92,18.46,15.38,11.54,8.46,13.08,2.31,9.23,5.38,7.69,8.46,12.31,9.23,M,25_34,https://www.strava.com/athletes/7039339,2,8.46,8.286
52,22,143,42117994,0.0,3.0,3.0,0.0,6.92,7.62,9.23,10.85,13.85,11.54,3.92,9.23,12.23,6.23,9.23,9.23,13.15,12.23,10.85,7.62,M,25_34,https://www.strava.com/athletes/42117994,2,8.46,8.286
53,23,146,4949666,4.62,9.23,0.0,0.0,0.0,0.0,0.0,8.54,19.15,18.46,13.85,11.54,19.15,13.85,3.0,6.23,2.31,12.23,14.54,8.54,M,25_34,https://www.strava.com/athletes/4949666,2,8.46,8.286
54,24,158,1707769,9.23,6.15,6.15,7.69,6.92,7.69,11.54,6.92,6.15,9.23,7.69,6.92,4.62,8.46,5.38,8.46,9.23,12.31,6.92,6.92,M,25_34,https://www.strava.com/athletes/1707769,2,8.46,8.286
55,26,164,16227552,8.46,0.0,0.0,0.0,0.0,0.0,0.0,12.31,10.77,16.92,16.15,11.54,12.31,1.54,9.23,14.62,12.31,13.08,6.92,10.0,M,25_34,https://www.strava.com/athletes/16227552,2,8.46,8.286
56,27,167,294664,13.15,9.92,0.69,13.15,5.31,0.69,5.31,9.23,1.62,22.38,13.15,9.23,3.92,5.31,10.85,7.62,16.15,14.54,8.54,11.54,M,25_34,https://www.strava.com/athletes/294664,2,8.46,8.286
57,29,182,150272,8.46,16.92,1.54,1.54,0.77,5.38,5.38,5.38,4.62,10.0,7.69,5.38,15.38,15.38,9.23,8.46,12.31,14.62,10.77,6.92,M,25_34,https://www.strava.com/athletes/150272,2,8.46,8.286
58,30,188,13395969,6.15,6.15,6.92,6.92,7.69,6.15,9.23,11.54,13.85,10.77,3.85,8.46,17.69,14.62,7.69,8.46,7.69,6.92,9.23,6.92,M,25_34,https://www.strava.com/athletes/13395969,2,8.46,8.286
59,32,198,1696837,4.62,6.23,0.0,0.0,5.31,1.62,5.31,5.31,6.23,7.62,9.23,11.54,9.23,15.46,13.15,14.54,20.08,13.85,14.54,20.77,M,25_34,https://www.strava.com/athletes/1696837,2,8.46,8.286
60,33,198,9069033,0.0,3.85,0.77,5.38,10.0,8.46,6.15,7.69,0.77,3.85,6.92,10.0,5.38,13.85,10.0,13.08,11.54,10.77,5.38,7.69,M,25_34,https://www.strava.com/athletes/9069033,2,8.46,8.286
61,34,212,5906838,3.85,7.69,6.92,11.54,7.69,10.77,7.69,6.92,3.08,3.85,10.0,15.38,15.38,14.62,7.69,9.23,10.0,16.15,13.08,9.23,M,25_34,https://www.strava.com/athletes/5906838,2,8.46,8.286
62,36,225,5014073,0.0,4.5,9.35,9.35,4.5,3.12,8.31,3.81,13.85,15.23,13.85,13.15,3.12,13.15,16.27,6.92,5.54,30.81,11.42,3.81,M,25_34,https://www.strava.com/athletes/5014073,2,8.46,8.286
63,37,226,325204,10.0,10.0,8.46,7.69,6.15,9.23,6.15,6.92,10.77,6.15,3.85,9.23,5.38,7.69,6.15,3.08,15.38,13.85,13.08,7.69,M,25_34,https://www.strava.com/athletes/325204,2,8.46,8.286
64,39,248,602003,1.62,4.58,5.38,5.38,7.0,3.77,2.96,7.0,9.96,15.35,8.35,6.19,8.35,4.58,9.15,9.15,8.35,15.35,6.19,8.35,M,25_34,https://www.strava.com/athletes/602003,2,8.46,8.286
65,40,248,7210554,7.81,3.77,0.0,3.77,4.58,7.0,8.35,9.15,0.0,13.73,9.96,13.19,11.58,14.54,1.62,3.77,19.92,20.73,15.35,5.38,M,25_34,https://www.strava.com/athletes/7210554,2,8.46,8.286
66,41,254,18286261,8.46,7.69,9.23,9.23,9.23,8.46,10.0,2.31,6.15,9.23,7.69,8.46,0.77,3.08,10.0,12.31,10.77,10.77,11.54,10.0,M,25_34,https://www.strava.com/athletes/18286261,2,8.46,8.286
67,42,264,4554846,6.92,4.62,14.54,0.0,3.0,2.31,4.62,6.92,10.85,13.15,9.92,11.54,11.54,13.15,7.62,13.15,9.92,13.85,9.23,7.62,M,25_34,https://www.strava.com/athletes/4554846,2,8.46,8.286
68,43,274,8479353,0.0,7.69,6.15,6.92,9.23,6.15,7.69,13.08,13.08,15.38,12.31,10.0,10.0,3.85,5.38,9.23,10.77,12.31,10.0,13.08,M,25_34,https://www.strava.com/athletes/8479353,2,8.46,8.286
69,44,275,28905364,0.0,1.54,1.54,0.0,8.46,10.77,7.69,6.92,17.69,5.38,14.62,10.77,11.54,5.38,13.85,11.54,13.08,11.54,10.0,5.38,M,25_34,https://www.strava.com/athletes/28905364,2,8.46,8.286
70,45,276,2396546,0.0,9.96,8.35,0.0,0.81,7.0,6.19,2.96,3.77,9.15,3.77,2.42,0.0,0.81,7.0,7.81,11.58,14.54,13.73,8.35,M,25_34,https://www.strava.com/athletes/2396546,2,8.46,8.286
71,46,281,643128,7.69,4.62,2.31,4.62,8.46,6.92,6.92,6.92,10.0,12.31,4.62,11.54,6.15,6.15,8.46,14.62,8.46,13.85,6.15,7.69,M,25_34,https://www.strava.com/athletes/643128,2,8.46,8.286
72,48,284,2419111,0.0,6.92,8.46,3.08,0.0,0.77,6.15,9.23,7.69,8.46,4.62,7.69,11.54,10.77,9.23,16.92,15.38,6.15,0.0,3.85,M,25_34,https://www.strava.com/athletes/2419111,2,8.46,8.286
73,49,290,139697,0.0,6.15,8.46,11.54,8.46,4.62,5.38,6.92,9.23,9.23,13.08,11.54,3.85,9.23,0.0,5.38,7.69,11.54,8.46,6.92,M,25_34,https://www.strava.com/athletes/139697,2,8.46,8.286
74,53,333,1047319,0.0,1.54,3.85,1.54,1.54,1.54,7.69,10.77,8.46,8.46,10.0,3.85,13.08,13.85,10.77,7.69,9.23,12.31,8.46,11.54,M,25_34,https://www.strava.com/athletes/1047319,2,8.46,8.286
75,55,339,325180,2.31,0.0,0.0,0.0,0.77,6.15,9.23,10.77,8.46,12.31,12.31,9.23,7.69,10.77,7.69,13.85,13.08,9.23,7.69,5.38,M,25_34,https://www.strava.com/athletes/325180,2,8.46,8.286
76,56,344,1573685,7.08,0.0,0.0,4.62,0.0,7.08,5.54,10.77,8.62,9.23,12.31,11.69,5.54,12.31,16.31,8.62,27.08,30.15,13.23,11.69,M,25_34,https://www.strava.com/athletes/1573685,2,8.46,8.286
77,57,348,4424759,10.0,8.46,11.54,8.46,3.08,3.85,8.46,3.08,3.85,5.38,12.31,10.77,11.54,6.92,12.31,12.31,9.23,3.08,9.23,9.23,M,25_34,https://www.strava.com/athletes/4424759,2,8.46,8.286
78,58,362,2551093,3.92,6.23,6.92,5.31,6.92,11.54,9.92,12.23,11.54,17.77,9.23,7.62,9.23,9.23,4.62,10.85,13.15,12.23,12.23,6.92,M,25_34,https://www.strava.com/athletes/2551093,2,8.46,8.286
79,59,366,1612478,0.0,6.92,0.77,7.69,6.15,0.77,10.77,11.54,8.46,1.54,10.0,7.69,13.08,13.08,6.15,8.46,4.62,12.31,2.31,12.31,M,25_34,https://www.strava.com/athletes/1612478,2,8.46,8.286
80,63,385,2125116,9.23,9.92,5.31,6.92,5.31,9.92,2.31,6.23,3.0,6.92,10.85,20.08,8.54,9.23,12.23,12.23,13.15,13.85,11.54,9.92,M,25_34,https://www.strava.com/athletes/2125116,2,8.46,8.286
81,64,389,16761353,1.54,4.62,7.69,0.0,2.31,4.62,7.69,10.77,6.92,13.08,11.54,13.08,8.46,10.77,5.38,9.23,11.54,10.0,9.23,5.38,M,25_34,https://www.strava.com/athletes/16761353,2,8.46,8.286
82,66,392,844237,17.77,2.31,1.62,2.31,5.31,5.31,6.92,6.92,15.46,20.08,13.15,9.23,8.54,7.62,13.15,14.54,13.85,13.85,12.23,7.62,M,25_34,https://www.strava.com/athletes/844237,2,8.46,8.286
83,67,396,3522676,9.23,3.85,6.15,7.69,6.15,3.08,2.31,10.0,16.15,13.08,8.46,9.23,6.92,8.46,2.31,4.62,8.46,7.69,6.92,3.85,M,25_34,https://www.strava.com/athletes/3522676,2,8.46,8.286
84,69,401,1552627,2.88,6.35,5.19,7.5,8.65,4.62,6.92,7.5,7.5,9.81,8.65,9.81,8.65,9.23,55.96,4.62,10.96,6.35,1.73,4.04,M,25_34,https://www.strava.com/athletes/1552627,2,8.46,8.286
85,70,409,271219,3.08,0.0,2.31,4.62,6.92,11.54,7.69,11.54,4.62,10.77,11.54,8.46,13.08,11.54,6.15,11.54,11.54,7.69,8.46,8.46,M,25_34,https://www.strava.com/athletes/271219,2,8.46,8.286
86,72,415,307086,0.77,10.0,6.92,8.46,4.62,7.69,4.62,5.38,9.23,8.46,7.69,10.77,6.15,9.23,12.31,10.0,10.0,10.0,5.38,10.77,M,25_34,https://www.strava.com/athletes/307086,2,8.46,8.286
87,77,454,5390469,10.77,6.92,9.23,6.92,4.62,7.69,1.54,7.69,3.08,10.0,10.77,11.54,11.54,5.38,6.92,10.0,13.08,11.54,10.77,14.62,M,25_34,https://www.strava.com/athletes/5390469,2,8.46,8.286
88,78,456,2664748,8.46,10.0,8.46,0.0,4.62,3.08,3.85,6.92,9.23,7.69,10.0,10.0,2.31,11.54,8.46,6.92,4.62,12.31,10.77,9.23,M,25_34,https://www.strava.com/athletes/2664748,2,8.46,8.286
89,79,458,556861,7.69,7.69,11.54,10.0,6.15,5.38,10.0,3.85,6.15,3.08,8.46,9.23,9.23,10.0,9.23,13.08,10.77,10.0,9.23,10.77,M,25_34,https://www.strava.com/athletes/556861,2,8.46,8.286
90,81,493,1660296,4.62,10.77,10.0,3.08,3.85,10.0,9.23,9.23,6.92,6.15,6.15,9.23,8.46,0.77,8.46,11.54,13.08,8.46,8.46,12.31,M,25_34,https://www.strava.com/athletes/1660296,2,8.46,8.286
91,84,504,4080891,0.0,11.54,6.92,6.92,8.46,6.15,8.46,9.23,10.77,10.77,9.23,6.92,11.54,2.31,7.69,10.77,9.23,6.15,6.92,13.08,M,25_34,https://www.strava.com/athletes/4080891,2,8.46,8.286
92,85,511,422286,2.46,0.62,4.92,0.62,3.69,1.85,0.0,0.62,18.46,14.77,11.08,9.85,8.0,6.15,9.23,11.69,15.38,16.0,6.15,8.62,M,25_34,https://www.strava.com/athletes/422286,2,8.46,8.286
93,88,526,6134633,0.0,9.15,9.15,11.58,6.19,8.35,9.96,9.96,14.54,8.35,12.38,15.35,13.73,4.58,9.96,5.38,4.58,13.19,24.5,9.15,M,25_34,https://www.strava.com/athletes/6134633,2,8.46,8.286
94,92,540,2378958,11.54,9.23,6.92,5.38,5.38,14.62,0.0,7.69,10.0,10.77,13.08,9.23,10.77,2.31,7.69,6.15,6.15,12.31,7.69,3.08,M,25_34,https://www.strava.com/athletes/2378958,2,8.46,8.286
95,93,562,10370041,7.62,3.92,7.62,8.54,7.62,4.62,10.85,8.54,21.46,8.54,14.54,13.85,7.62,10.85,0.69,5.31,6.23,8.54,6.23,4.62,M,25_34,https://www.strava.com/athletes/10370041,2,8.46,8.286
96,94,566,14286567,0.0,8.46,10.77,10.77,4.62,6.15,8.46,4.62,8.46,10.77,13.85,8.46,10.0,11.54,8.46,6.92,6.15,12.31,10.0,4.62,M,25_34,https://www.strava.com/athletes/14286567,2,8.46,8.286
97,95,567,140016,6.92,9.23,10.77,9.23,6.92,5.38,9.23,9.23,10.0,6.92,11.54,11.54,8.46,10.77,4.62,6.92,6.92,9.23,10.0,7.69,M,25_34,https://www.strava.com/athletes/140016,2,8.46,8.286
98,97,580,1595759,3.85,0.0,3.08,5.38,6.15,8.46,6.92,6.92,7.69,10.77,5.38,6.15,12.31,11.54,10.77,11.54,8.46,10.77,7.69,6.15,M,25_34,https://www.strava.com/athletes/1595759,2,8.46,8.286
99,98,584,307033,28.62,12.31,7.08,4.0,7.08,7.69,8.62,4.0,7.08,5.54,7.69,7.08,12.31,4.0,10.15,9.23,10.15,9.23,5.54,5.54,M,25_34,https://www.strava.com/athletes/307033,2,8.46,8.286
100,100,594,10456171,3.08,6.15,0.0,0.0,0.0,5.38,10.0,7.69,3.08,8.46,7.69,8.46,8.46,9.23,9.23,7.69,8.46,8.46,9.23,2.31,M,25_34,https://www.strava.com/athletes/10456171,2,8.46,8.286
101,101,601,8718319,1.54,6.15,6.15,5.38,3.08,0.0,13.08,13.08,15.38,10.77,2.31,3.85,6.15,9.23,9.23,12.31,15.38,13.08,8.46,4.62,M,25_34,https://www.strava.com/athletes/8718319,2,8.46,8.286
102,102,608,2177013,6.15,2.46,1.54,0.0,7.69,3.08,7.08,10.77,8.62,0.92,11.69,7.69,29.23,22.46,13.23,6.15,14.77,7.08,4.0,13.23,M,25_34,https://www.strava.com/athletes/2177013,2,8.46,8.286
