,Rank,id,Week 1,Week 2,Week 3,Week 4,Week 5,Week 6,Week 7,Week 8,Week 9,Week 10,Week 11,Week 12,Week 13,Week 14,Week 15,Week 16,Week 17,Week 18,Week 19,Week 20,Gender,Age_Group
0,29,27519401,0.0,11.54,10.77,10.0,13.85,10.77,8.46,11.54,14.62,13.08,12.31,12.31,10.0,13.08,11.54,14.62,11.54,9.23,8.46,8.46,F,20_24
1,30,7858550,10.77,5.38,9.23,0.0,3.85,7.69,6.92,9.23,12.31,12.31,15.38,13.85,10.0,11.54,16.15,16.92,15.38,13.85,6.92,10.0,F,20_24
2,32,22498406,0.0,16.15,15.38,16.92,9.23,14.62,14.62,10.77,8.46,12.31,6.15,12.31,8.46,12.31,16.15,10.0,10.0,10.77,10.0,8.46,F,20_24
3,4,8294292,10.0,3.08,10.0,3.08,10.0,15.38,16.15,12.31,10.77,6.15,8.46,16.92,16.15,10.0,11.54,2.31,16.15,7.69,13.85,9.23,F,25_34
4,5,7560433,13.15,5.31,9.23,17.77,16.85,14.54,16.15,16.85,15.46,13.85,16.15,6.23,13.15,11.54,9.92,8.54,16.15,17.77,16.85,12.23,F,25_34
5,12,1688321,8.46,16.92,18.46,13.08,10.0,6.15,13.08,17.69,17.69,17.69,14.62,20.77,20.0,13.85,14.62,18.46,28.46,36.15,23.85,22.31,F,25_34
6,13,27479916,0.77,6.15,1.54,10.77,11.54,13.85,12.31,14.62,14.62,14.62,13.08,12.31,16.15,13.85,10.77,16.92,18.46,18.46,10.77,14.62,F,25_34
7,23,7726458,11.54,13.08,10.0,10.0,10.77,14.62,11.54,10.0,15.38,12.31,13.08,11.54,13.85,12.31,9.23,16.15,8.46,10.77,15.38,10.77,F,25_34
8,26,28809104,7.0,7.0,7.81,9.96,10.77,0.0,7.0,10.77,8.35,10.77,7.81,9.96,23.15,10.77,11.58,8.35,12.38,13.73,4.58,9.96,F,25_34
9,31,26303897,6.92,13.85,14.62,14.62,13.08,12.31,8.46,7.69,12.31,0.77,5.38,8.46,10.0,8.46,10.77,11.54,16.15,13.85,12.31,3.08,F,25_34
10,40,12312831,1.62,13.19,9.15,0.0,7.81,14.54,22.35,23.15,10.77,19.92,15.35,20.73,10.77,25.31,10.77,17.77,18.58,9.96,11.58,13.19,F,25_34
11,42,3406726,11.54,3.92,3.0,11.54,14.54,13.85,13.15,12.23,13.15,19.15,20.77,21.46,19.15,9.23,4.62,20.08,19.15,20.08,12.23,11.54,F,25_34
12,43,16738260,10.0,8.46,7.69,10.0,11.54,10.0,11.54,12.31,12.31,11.54,13.08,13.08,12.31,14.62,13.08,13.85,13.85,15.38,13.08,8.46,F,25_34
13,45,6962263,3.08,9.23,11.54,15.38,15.38,11.54,16.15,13.85,9.23,16.92,18.46,18.46,16.15,8.46,10.77,17.69,18.46,13.08,12.31,17.69,F,25_34
14,47,7680101,10.85,10.85,5.31,15.46,9.23,3.0,15.46,21.46,12.23,10.85,15.46,16.85,9.92,13.85,12.23,13.15,6.92,20.77,14.54,8.54,F,25_34
15,52,2738510,0.0,16.15,10.0,13.08,13.08,0.77,7.69,11.54,13.85,10.0,16.15,10.77,15.38,10.0,3.08,16.15,16.92,16.92,10.0,11.54,F,25_34
16,55,15853348,3.08,6.92,12.31,9.23,16.92,7.69,14.62,10.0,9.23,3.08,12.31,13.85,14.62,10.77,13.08,8.46,13.85,16.15,15.38,9.23,F,25_34
17,63,8202188,8.46,13.85,9.23,6.15,4.62,9.23,13.85,13.08,11.54,13.08,10.77,6.92,14.62,2.31,6.92,10.77,10.0,12.31,11.54,6.92,F,25_34
18,84,8839118,8.46,13.08,13.08,10.77,13.08,11.54,12.31,10.0,13.85,8.46,13.08,11.54,13.85,7.69,10.77,8.46,10.0,13.85,13.08,7.69,F,25_34
19,86,1829263,10.0,8.46,11.54,6.92,13.08,12.31,15.38,14.62,8.46,16.92,2.31,9.23,10.0,10.0,12.31,12.31,10.0,15.38,12.31,7.69,F,25_34
20,88,10721665,0.0,13.08,13.85,10.0,13.85,3.08,8.46,10.77,12.31,13.08,13.85,10.0,10.77,11.54,13.08,9.23,8.46,9.23,13.08,5.38,F,25_34
21,90,37919528,0.0,12.31,7.69,8.46,13.85,16.15,10.0,8.46,4.62,17.69,14.62,12.31,13.08,10.0,14.62,8.46,7.69,18.46,17.69,9.23,F,25_34
22,96,8977117,3.0,0.69,6.92,13.15,20.77,21.46,16.15,16.15,13.85,14.54,16.85,15.46,12.23,13.15,12.23,10.85,12.23,21.46,17.77,14.54,F,25_34
23,110,8272718,0.0,17.69,10.77,7.69,6.92,13.08,7.69,8.46,8.46,10.77,10.0,13.08,10.0,6.15,11.54,9.23,12.31,15.38,12.31,3.85,F,25_34
24,119,2653767,10.77,9.15,13.19,0.0,6.19,8.35,12.38,13.19,8.35,13.73,14.54,17.77,17.77,18.58,16.96,19.92,13.73,16.15,8.35,13.19,F,25_34
25,124,1676396,0.92,6.15,7.08,0.0,0.92,7.08,13.85,14.77,15.38,19.38,16.92,7.08,8.62,15.38,17.54,16.31,10.77,17.54,11.69,10.15,F,25_34
26,127,32079115,2.31,10.77,12.31,14.62,10.0,10.0,0.0,9.23,7.69,10.77,8.46,13.08,8.46,9.23,11.54,8.46,11.54,10.77,13.08,4.62,F,25_34
27,129,14276886,10.0,6.92,13.08,1.54,4.62,5.38,6.92,13.08,9.23,10.0,11.54,11.54,11.54,13.08,6.92,9.23,13.08,10.77,13.85,11.54,F,25_34
28,147,3560997,0.0,0.0,11.54,12.31,10.0,10.77,10.77,13.85,13.85,10.0,11.54,10.77,9.23,11.54,10.0,9.23,9.23,6.92,3.85,6.15,F,25_34
29,154,14825498,0.0,10.0,0.0,3.08,8.46,10.77,5.38,11.54,11.54,13.08,14.62,15.38,16.15,13.85,10.77,15.38,10.77,9.23,0.0,13.08,F,25_34
30,167,3965607,10.77,10.0,6.15,6.92,15.38,10.0,11.54,10.0,10.77,10.0,0.0,0.0,7.69,10.77,13.08,10.77,7.69,10.0,14.62,9.23,F,25_34
31,1,1801334,11.69,11.69,10.15,14.77,13.85,19.38,18.46,0.0,16.92,23.08,25.54,5.54,1.54,9.23,7.69,4.0,10.77,8.62,6.15,2.46,M,0_19
32,6,292661,0.0,6.15,7.08,5.54,4.62,0.0,19.38,24.62,24.0,7.69,18.46,21.54,20.0,4.62,13.23,13.85,20.92,6.15,10.77,10.77,M,20_24
33,7,3702784,0.0,7.0,11.58,13.73,15.35,11.58,16.96,14.54,7.81,8.35,18.58,16.15,12.38,7.0,6.19,13.19,13.19,13.73,1.62,5.38,M,20_24
34,11,8989052,0.0,3.0,9.92,16.15,17.77,13.85,16.15,13.85,9.92,11.54,10.85,15.46,14.54,14.54,13.85,15.46,9.92,15.46,11.54,7.62,M,20_24
35,16,3875548,7.0,15.35,23.96,13.73,17.77,11.58,16.15,16.15,16.96,18.58,12.38,17.77,20.73,20.73,13.73,6.19,16.96,20.73,16.15,13.19,M,20_24
36,18,5387786,13.73,18.58,14.54,19.92,9.15,10.77,1.62,7.0,7.81,9.96,10.77,16.96,21.54,13.19,15.35,14.54,22.35,16.15,7.81,8.35,M,20_24
37,28,9388586,0.0,13.15,16.15,13.85,1.62,0.0,7.62,6.92,7.62,10.85,13.85,12.23,11.54,7.62,13.15,13.85,10.85,10.85,10.85,7.62,M,20_24
38,30,12485408,10.85,13.85,13.15,9.92,6.23,8.54,11.54,18.46,13.15,13.15,13.15,8.54,10.85,3.92,9.23,10.85,12.23,14.54,2.31,9.92,M,20_24
39,31,2199983,12.38,11.58,2.96,9.15,13.19,19.12,4.58,11.58,16.15,5.38,12.38,4.58,9.96,4.58,6.19,12.38,11.58,17.77,7.0,10.77,M,20_24
40,33,4667023,13.15,8.54,9.92,8.54,12.23,13.85,16.15,8.54,10.85,2.31,8.54,13.15,13.85,7.62,9.92,16.85,16.15,14.54,15.46,7.62,M,20_24
41,53,21413629,13.85,8.54,6.23,9.23,1.62,4.62,7.62,7.62,10.85,13.15,10.85,11.54,10.85,12.23,12.23,1.62,8.54,13.15,14.54,7.62,M,20_24
42,54,4384776,8.35,12.38,13.19,11.58,9.15,12.38,17.77,7.81,11.58,6.19,14.54,9.96,13.19,9.15,8.35,9.96,13.19,14.54,9.96,9.15,M,20_24
43,66,3942131,16.15,13.15,15.46,2.31,10.85,16.85,17.77,10.85,11.54,7.62,16.85,13.85,14.54,14.54,16.85,12.23,13.15,20.08,21.46,17.77,M,20_24
44,91,6413415,13.19,25.31,13.19,0.0,0.0,3.77,16.15,9.15,11.58,13.19,10.77,16.15,10.77,12.38,13.19,16.15,15.35,13.73,7.81,11.58,M,20_24
45,1,430673,11.58,13.19,12.38,0.0,9.96,13.19,16.96,2.96,11.58,9.15,24.5,17.77,10.77,13.73,23.96,9.96,3.77,16.96,19.12,16.96,M,25_34
46,2,5387978,0.0,6.92,7.62,15.46,17.77,15.46,15.46,5.31,12.23,6.92,6.92,16.15,15.46,16.85,16.85,9.92,11.54,8.54,12.23,14.54,M,25_34
47,55,4805223,2.31,10.77,9.23,14.62,9.23,13.85,16.15,11.54,11.54,12.31,12.31,16.15,10.77,13.85,13.08,10.0,13.08,15.38,15.38,6.92,M,25_34
48,78,21915073,0.0,19.92,16.96,22.35,11.58,23.15,13.73,9.96,19.12,23.15,23.96,19.92,20.73,25.31,23.96,17.77,13.73,14.54,14.54,19.12,M,25_34
49,85,342699,0.0,9.23,9.23,10.0,6.92,10.77,10.77,13.08,13.08,11.54,11.54,10.0,6.15,13.85,13.85,14.62,14.62,15.38,14.62,10.0,M,25_34
50,87,592754,0.0,11.54,9.23,9.92,11.54,9.92,15.46,19.15,13.85,10.85,15.46,13.15,6.92,21.46,6.92,12.23,13.15,14.54,9.92,8.54,M,25_34
51,94,2493685,0.0,16.85,6.23,10.85,11.54,3.92,11.54,12.23,17.77,13.15,17.77,14.54,16.15,9.92,16.15,9.23,12.23,13.85,6.92,9.23,M,25_34
52,108,2906280,14.54,14.54,3.77,7.81,16.96,16.96,12.38,12.38,12.38,19.92,17.77,21.54,16.96,14.54,9.15,24.5,23.15,19.12,9.96,11.58,M,25_34
53,109,23883403,0.0,13.85,16.92,8.46,14.62,12.31,12.31,3.08,6.92,12.31,15.38,13.85,14.62,13.85,16.92,14.62,18.46,16.15,16.92,11.54,M,25_34
54,119,7529404,6.15,13.23,28.62,12.31,12.31,12.31,13.85,15.38,14.77,15.38,13.23,8.62,10.77,8.62,11.69,9.23,7.69,11.69,16.31,8.62,M,25_34
55,121,732344,10.0,6.92,8.46,7.69,11.54,5.38,7.69,10.77,3.85,10.77,10.77,10.0,3.08,5.38,13.85,13.85,15.38,16.15,15.38,6.15,M,25_34
56,127,28975199,0.0,9.23,10.85,5.31,3.0,19.15,10.85,14.54,9.23,9.92,11.54,12.23,6.92,11.54,13.85,5.31,13.15,13.85,11.54,6.23,M,25_34
57,132,18004753,0.0,19.38,22.46,27.08,14.77,13.85,13.23,10.15,13.23,13.85,14.77,21.54,16.92,14.77,13.23,19.38,24.0,19.38,24.0,23.08,M,25_34
58,141,4867712,0.0,2.31,10.0,10.77,9.23,4.62,10.77,7.69,11.54,7.69,12.31,7.69,10.0,13.85,8.46,12.31,10.77,13.08,12.31,8.46,M,25_34
59,148,16636152,0.0,5.31,12.23,13.85,22.38,16.15,14.54,14.54,16.15,17.77,13.15,15.46,17.77,15.46,11.54,12.23,13.15,17.77,16.85,11.54,M,25_34
60,172,2061161,0.77,12.31,11.54,11.54,13.08,18.46,13.08,13.85,9.23,16.15,13.08,10.77,13.85,16.15,14.62,12.31,11.54,16.92,12.31,10.77,M,25_34
61,176,22103583,14.77,13.85,11.69,10.15,13.23,11.69,10.15,8.62,13.23,16.31,12.31,13.23,13.85,8.62,12.31,15.38,13.85,14.77,13.85,11.69,M,25_34
62,179,1100643,9.23,9.23,6.92,12.23,2.31,4.62,10.85,12.23,13.15,11.54,12.23,15.46,11.54,9.23,16.85,13.15,16.15,14.54,14.54,7.62,M,25_34
63,185,227643,0.0,10.77,13.73,16.15,16.96,17.77,22.35,15.35,13.73,12.38,6.19,13.73,15.35,16.96,8.35,16.15,19.92,19.92,11.58,13.73,M,25_34
64,190,385863,0.0,11.54,11.54,9.23,9.23,12.31,15.38,9.23,8.46,13.85,5.38,6.92,11.54,14.62,12.31,16.15,12.31,8.46,1.54,0.0,M,25_34
65,191,3293985,12.38,8.35,21.54,7.81,7.0,12.38,8.35,13.73,7.0,7.0,13.73,7.81,7.81,24.5,14.54,7.81,12.38,15.35,12.38,12.38,M,25_34
66,193,7274785,12.23,4.62,1.62,3.92,3.92,6.23,8.54,9.92,2.31,7.62,16.15,19.15,12.23,12.23,13.85,13.85,11.54,16.15,6.23,14.54,M,25_34
67,200,1086043,0.0,11.54,13.08,9.23,9.23,12.31,3.85,10.0,10.0,10.0,13.08,13.85,11.54,15.38,11.54,10.0,12.31,9.23,10.77,6.92,M,25_34
68,214,8404330,0.0,7.81,7.0,8.35,16.15,12.38,23.96,2.96,14.54,14.54,9.15,8.35,8.35,19.92,14.54,7.81,13.73,16.96,11.58,9.15,M,25_34
69,217,17430899,0.0,9.23,9.23,11.54,13.08,9.23,9.23,6.15,13.08,13.08,13.08,14.62,14.62,15.38,14.62,12.31,13.85,13.08,12.31,8.46,M,25_34
70,226,3216623,1.54,4.62,3.08,8.46,9.23,10.0,5.38,10.77,13.08,12.31,10.77,15.38,6.92,16.92,16.92,7.69,15.38,18.46,16.92,8.46,M,25_34
71,230,1502135,7.62,7.62,17.77,13.15,10.85,12.23,12.23,2.31,6.23,10.85,12.23,8.54,13.85,11.54,9.23,5.31,14.54,12.23,3.92,13.85,M,25_34
72,232,10063,0.0,19.15,12.23,14.54,9.23,16.15,16.85,19.15,7.62,13.15,7.62,11.54,13.15,11.54,10.85,15.46,13.85,9.92,7.62,9.92,M,25_34
73,236,655241,6.15,10.0,10.0,6.15,11.54,4.62,12.31,12.31,4.62,13.08,16.15,12.31,15.38,5.38,12.31,6.15,13.85,6.15,9.23,6.92,M,25_34
74,238,1917123,12.23,6.92,9.23,9.23,19.15,10.85,17.77,16.85,21.46,7.62,16.15,14.54,17.77,8.54,16.85,13.15,17.77,9.92,14.54,12.23,M,25_34
75,241,20222989,0.0,10.77,11.69,12.31,8.62,9.23,13.85,9.23,13.23,16.92,13.85,13.85,7.69,13.85,9.23,7.08,7.69,10.77,7.69,5.54,M,25_34
76,243,1008128,0.0,8.46,10.0,10.0,10.77,3.85,10.0,6.92,13.08,11.54,13.08,8.46,13.85,12.31,12.31,10.0,13.08,6.15,13.85,5.38,M,25_34
77,246,534398,16.15,15.35,7.0,9.96,10.77,9.96,15.35,13.73,14.54,13.19,9.96,9.15,14.54,9.96,9.15,14.54,11.58,16.15,16.15,7.0,M,25_34
78,252,3501803,0.0,9.23,7.62,9.92,6.92,12.23,16.15,13.85,4.62,14.54,19.15,14.54,16.85,15.46,15.46,8.54,14.54,3.92,9.92,7.62,M,25_34
79,258,45551896,6.15,14.62,10.0,14.62,14.62,7.69,10.0,3.85,10.0,10.0,13.85,15.38,15.38,8.46,17.69,10.0,14.62,9.23,11.54,7.69,M,25_34
80,260,1296350,4.58,8.35,12.38,15.35,9.96,11.58,12.38,20.73,9.96,7.81,23.15,11.58,11.58,8.35,12.38,14.54,15.35,22.35,9.15,12.38,M,25_34
81,272,2713151,0.0,16.15,13.85,13.15,3.0,11.54,8.54,6.23,16.85,15.46,17.77,18.46,17.77,17.77,21.46,13.15,16.85,19.15,17.77,10.85,M,25_34
82,277,11584075,0.0,8.46,2.31,5.38,5.38,8.46,11.54,12.31,16.15,11.54,10.0,14.62,14.62,15.38,15.38,12.31,10.0,12.31,6.15,1.54,M,25_34
83,283,26962410,0.0,14.54,15.46,14.54,9.23,9.92,14.54,13.15,15.46,21.46,12.23,16.85,14.54,17.77,16.15,16.85,17.77,13.85,13.85,9.23,M,25_34
84,287,2989170,9.92,0.0,6.92,10.85,9.92,14.54,12.23,15.46,14.54,12.23,5.31,17.77,15.46,10.85,11.54,9.23,15.46,11.54,10.85,12.23,M,25_34
85,288,3046615,0.0,12.23,12.23,14.54,15.46,6.92,10.85,9.23,20.08,14.54,16.15,12.23,13.85,14.54,9.92,9.92,16.85,13.15,11.54,3.92,M,25_34
86,289,1705405,10.0,6.15,6.92,9.23,6.92,12.31,10.77,10.0,16.15,17.69,13.08,14.62,13.85,4.62,14.62,14.62,14.62,10.0,10.0,7.69,M,25_34
87,296,10495579,0.69,17.77,9.92,13.15,9.92,7.62,10.85,11.54,5.31,11.54,12.23,9.92,10.85,6.23,9.92,14.54,13.85,16.15,10.85,12.23,M,25_34
88,298,12672478,3.92,5.31,13.15,13.85,5.31,14.54,10.85,13.15,3.92,17.77,16.15,6.92,13.15,0.0,18.46,22.38,12.23,14.54,13.85,8.54,M,25_34
89,302,1283977,0.0,15.38,10.15,7.08,6.15,16.92,7.69,27.08,8.62,8.62,10.77,28.62,10.77,8.62,11.69,14.77,10.77,11.69,10.15,10.15,M,25_34
90,303,23348995,0.77,10.0,10.0,7.69,10.0,10.77,10.0,10.77,8.46,11.54,10.77,12.31,13.08,13.08,14.62,7.69,10.0,13.08,6.15,14.62,M,25_34
91,309,5134458,8.54,0.0,2.31,4.62,9.23,5.31,6.92,10.85,13.85,14.54,14.54,11.54,12.23,9.23,10.85,12.23,10.85,11.54,9.92,16.85,M,25_34
92,319,1826483,1.54,5.38,12.31,11.54,9.23,10.77,13.08,12.31,13.08,7.69,4.62,12.31,8.46,13.08,10.0,6.92,13.85,1.54,10.77,10.0,M,25_34
93,326,12553623,0.0,6.23,7.62,5.31,13.15,5.31,3.92,10.85,5.31,16.15,11.54,15.46,14.54,13.15,12.23,8.54,15.46,20.08,9.23,13.15,M,25_34
94,328,11664662,10.15,9.23,11.69,2.46,6.15,13.85,16.92,19.38,20.0,27.69,13.85,16.92,15.38,12.31,26.15,15.38,13.23,8.62,10.15,10.15,M,25_34
95,336,25246087,0.0,14.62,9.23,12.31,13.08,12.31,7.69,11.54,2.31,1.54,6.92,11.54,10.77,12.31,13.08,10.77,9.23,9.23,10.77,8.46,M,25_34
96,340,352731,15.35,14.54,0.81,4.58,12.38,19.12,7.81,13.73,13.73,13.19,9.15,12.38,11.58,15.35,11.58,12.38,14.54,21.54,9.96,11.58,M,25_34
97,341,3972,11.54,9.23,14.54,13.15,5.31,20.08,2.31,7.62,8.54,13.15,12.23,6.23,12.23,10.85,16.85,8.54,10.85,6.92,10.85,6.92,M,25_34
98,343,2449033,0.0,15.38,9.23,12.31,12.31,10.0,2.31,9.23,11.54,10.77,14.62,9.23,14.62,13.08,11.54,16.15,15.38,9.23,6.92,10.77,M,25_34
99,345,2805456,1.69,16.92,8.46,8.46,10.15,13.54,8.46,10.15,23.69,27.08,27.08,13.54,3.38,18.62,22.0,20.31,16.92,13.54,10.15,165.85,M,25_34
100,351,1782702,12.46,12.46,11.42,16.27,12.46,15.23,13.85,7.62,13.85,12.46,12.46,20.77,12.46,10.04,13.85,18.35,13.15,12.46,13.15,10.04,M,25_34
101,352,117006,16.92,0.0,0.0,0.0,0.0,0.0,0.0,0.0,9.23,11.54,13.85,13.85,13.85,13.08,11.54,9.23,15.38,16.92,11.54,6.92,M,25_34
102,355,3333286,10.0,6.15,8.46,9.23,3.85,10.0,7.69,10.0,15.38,10.0,13.08,15.38,11.54,10.0,16.15,12.31,9.23,12.31,12.31,5.38,M,25_34
103,361,1985621,5.38,6.15,8.46,6.92,1.54,6.92,13.08,13.08,13.08,10.0,13.85,13.85,9.23,14.62,11.54,8.46,13.85,11.54,13.08,12.31,M,25_34
104,365,627039,21.46,18.46,18.46,18.46,18.46,20.08,19.15,19.15,18.46,16.15,19.15,19.15,12.23,9.23,0.0,3.92,13.15,16.85,20.77,13.15,M,25_34
105,371,8021300,0.0,6.92,6.23,10.04,13.15,10.04,12.46,7.62,4.5,14.54,5.54,8.31,9.35,31.5,15.23,13.15,11.42,13.15,13.85,6.23,M,25_34
106,376,185165,4.62,10.0,15.38,12.31,11.54,16.92,14.62,12.31,9.23,10.77,3.85,5.38,0.77,3.08,9.23,10.77,6.15,12.31,11.54,7.69,M,25_34
107,383,15183868,0.69,13.15,9.23,16.15,13.15,16.15,9.23,12.23,4.62,14.54,16.15,15.46,16.15,6.23,18.46,16.15,19.15,15.46,13.85,12.23,M,25_34
108,388,12256657,0.0,9.23,15.46,2.31,3.92,3.92,8.54,8.54,21.46,10.85,9.23,12.23,11.54,7.62,13.85,10.85,10.85,11.54,13.85,7.62,M,25_34
109,394,1482957,10.85,20.77,13.15,6.92,8.54,8.54,13.85,13.85,9.92,8.54,11.54,13.15,13.15,9.23,13.85,8.54,13.85,16.85,14.54,10.85,M,25_34
110,399,16594312,13.85,9.23,13.23,10.77,7.08,3.08,17.54,8.62,2.46,8.62,15.38,16.31,8.62,7.69,11.69,12.31,9.23,13.23,10.77,4.0,M,25_34
111,406,518339,6.15,9.23,4.62,10.77,12.31,0.0,4.62,9.23,11.54,13.85,8.46,0.0,6.92,14.62,11.54,13.85,15.38,13.08,11.54,3.08,M,25_34
112,408,1720189,0.0,8.46,17.69,11.54,10.0,13.85,12.31,9.23,13.08,2.31,10.0,9.23,16.92,0.0,8.46,12.31,6.92,12.31,8.46,13.85,M,25_34
113,412,2153981,5.38,13.73,10.77,9.96,22.35,11.58,11.58,11.58,5.38,10.77,2.42,2.96,4.58,9.96,10.77,11.58,2.42,7.0,9.96,5.38,M,25_34
114,419,15101603,2.42,10.77,9.96,10.77,12.38,10.77,0.0,4.58,10.77,6.19,12.38,10.77,4.58,9.15,7.81,9.96,8.35,11.58,11.58,5.38,M,25_34
115,431,12480281,0.77,3.85,12.31,14.62,10.0,10.0,10.0,16.92,10.0,10.77,10.77,7.69,12.31,0.0,3.85,15.38,18.46,6.15,9.23,1.54,M,25_34
116,438,7367551,15.35,11.58,13.19,25.31,6.19,6.19,9.15,12.38,10.77,8.35,13.19,2.96,10.77,9.96,12.38,9.96,12.38,10.77,9.96,11.58,M,25_34
117,441,3972373,10.77,16.92,16.92,12.31,7.69,17.69,12.31,9.23,10.0,5.38,9.23,11.54,10.77,9.23,10.0,14.62,10.0,11.54,2.31,8.46,M,25_34
118,444,29901776,0.0,10.77,10.77,13.08,10.0,7.69,13.85,16.15,13.85,6.92,9.23,5.38,6.92,13.08,13.85,13.85,10.0,14.62,13.08,6.92,M,25_34
119,449,1267855,13.85,9.23,10.0,0.77,11.54,3.85,8.46,2.31,3.08,14.62,13.08,13.85,10.0,8.46,10.77,10.77,16.92,10.0,5.38,11.54,M,25_34
120,471,9298184,12.23,6.23,9.23,9.23,18.46,8.54,16.85,3.92,5.31,12.23,12.23,9.92,12.23,9.92,11.54,13.15,12.23,11.54,9.92,4.62,M,25_34
121,475,2495425,1.54,9.23,10.77,15.38,14.62,13.85,15.38,8.46,10.0,0.77,2.31,13.08,16.15,13.85,16.92,12.31,15.38,15.38,8.46,6.92,M,25_34
122,476,1004722,3.85,5.38,6.92,4.62,10.0,6.92,13.08,7.69,13.08,11.54,8.46,7.69,11.54,14.62,13.08,11.54,10.77,10.77,12.31,8.46,M,25_34
123,488,1570419,17.65,8.31,3.12,0.0,3.12,4.5,0.0,0.0,0.0,21.46,17.65,22.15,11.42,20.08,23.19,30.12,17.65,30.81,13.85,10.73,M,25_34
124,500,1060877,0.0,3.85,11.54,12.31,13.08,6.92,10.77,10.77,10.77,8.46,0.0,6.92,8.46,12.31,13.08,8.46,14.62,12.31,13.85,6.92,M,25_34
125,507,2409007,5.38,11.54,16.15,16.15,13.85,14.62,9.23,10.0,8.46,0.0,6.15,13.08,10.77,15.38,14.62,4.62,15.38,13.08,15.38,6.15,M,25_34
126,508,143364,3.85,10.0,9.23,13.08,11.54,6.15,11.54,14.62,13.08,14.62,9.23,10.77,8.46,10.77,3.85,5.38,10.0,10.0,6.92,9.23,M,25_34
127,518,4320387,3.92,0.69,9.23,16.85,9.23,6.92,19.15,16.15,11.54,9.23,13.85,13.85,10.85,5.31,13.15,10.85,12.23,14.54,10.85,9.23,M,25_34
128,531,9085076,15.46,6.92,14.54,10.85,14.54,15.46,18.46,10.85,13.15,7.62,12.23,0.0,2.31,10.85,13.15,19.15,12.23,3.0,7.62,3.92,M,25_34
129,533,404290,7.69,13.85,18.46,14.62,13.85,8.46,10.77,13.08,13.08,14.62,15.38,14.62,14.62,13.08,13.08,11.54,9.23,11.54,6.15,11.54,M,25_34
130,538,2765424,7.69,10.0,10.77,8.46,10.0,9.23,8.46,6.92,13.08,13.85,10.77,11.54,10.77,12.31,10.77,12.31,11.54,11.54,5.38,9.23,M,25_34
131,553,2680509,13.85,11.54,8.46,10.0,7.69,4.62,13.85,16.15,5.38,16.15,17.69,8.46,10.77,3.08,4.62,10.77,13.08,15.38,13.85,9.23,M,25_34
132,554,8249004,10.15,10.77,9.23,10.77,13.85,18.46,1.54,4.0,7.08,4.62,27.08,10.15,23.08,27.69,11.69,9.23,21.54,7.69,8.62,5.54,M,25_34
133,560,13607635,0.77,9.23,9.23,11.54,5.38,10.0,12.31,13.08,10.77,11.54,10.77,12.31,13.08,12.31,10.0,11.54,12.31,2.31,9.23,3.85,M,25_34
134,576,38863102,0.0,8.46,2.31,3.85,12.31,9.23,10.77,5.38,3.08,12.31,12.31,13.08,6.92,11.54,8.46,13.08,17.69,7.69,18.46,11.54,M,25_34
135,581,3518457,16.92,4.62,6.15,13.08,10.0,12.31,12.31,13.85,13.85,37.69,21.54,13.85,9.23,9.23,20.77,20.0,16.92,13.85,11.54,16.92,M,25_34
