,Rank,id,Week 1,Week 2,Week 3,Week 4,Week 5,Week 6,Week 7,Week 8,Week 9,Week 10,Week 11,Week 12,Week 13,Week 14,Week 15,Week 16,Week 17,Week 18,Week 19,Week 20,Gender,Age_Group
0,2,7750235,10.0,11.54,10.77,4.62,10.0,10.0,10.0,14.62,7.69,11.54,2.31,9.23,11.54,13.08,13.85,10.0,16.15,13.08,16.15,11.54,F,35_44
1,7,356358,0.0,13.15,9.92,11.54,11.54,9.23,6.92,9.92,13.85,11.54,14.54,13.85,13.15,14.54,15.46,15.46,15.46,14.54,13.15,14.54,F,35_44
2,9,8370121,7.81,7.0,8.35,7.0,7.81,14.54,17.77,19.92,9.15,23.96,16.15,20.73,12.38,11.58,7.0,21.54,15.35,7.0,9.96,6.19,F,35_44
3,13,3797919,9.15,14.54,16.15,13.73,16.96,8.35,11.58,1.62,7.81,2.96,14.54,19.92,19.12,23.96,18.58,9.96,9.15,19.92,15.35,17.77,F,35_44
4,21,1547539,3.08,13.08,11.54,10.77,12.31,5.38,8.46,3.08,11.54,10.77,13.08,13.08,12.31,13.08,11.54,12.31,10.77,16.15,7.69,9.23,F,35_44
5,23,14721337,13.85,6.92,11.54,10.85,8.54,9.23,6.92,14.54,20.77,9.92,15.46,7.62,11.54,21.46,9.92,14.54,11.54,16.15,10.85,7.62,F,35_44
6,25,26938842,0.0,6.92,6.92,10.85,11.54,13.15,13.15,6.23,16.15,8.54,19.15,14.54,14.54,13.15,6.92,14.54,14.54,14.54,6.23,13.15,F,35_44
7,28,148287,20.08,9.23,11.54,8.54,6.23,11.54,3.0,10.85,13.15,6.92,9.23,9.92,9.92,14.54,9.92,13.15,12.23,11.54,5.31,11.54,F,35_44
8,29,26191738,0.0,17.77,14.54,16.15,16.15,16.15,15.35,12.38,23.15,13.19,0.0,4.58,13.73,15.35,11.58,15.35,16.15,18.58,10.77,11.58,F,35_44
9,34,27492965,3.08,8.46,10.0,7.69,6.92,10.77,9.23,11.54,13.85,12.31,14.62,15.38,15.38,15.38,8.46,5.38,3.08,12.31,16.92,6.15,F,35_44
10,37,4412469,0.77,10.0,11.54,11.54,10.0,12.31,10.0,7.69,6.92,13.08,13.85,10.0,12.31,12.31,8.46,11.54,1.54,8.46,9.23,6.92,F,35_44
11,44,18180125,22.46,7.69,10.77,10.77,13.85,9.23,24.62,10.77,13.85,7.08,12.31,2.46,8.62,12.31,9.23,6.15,9.23,11.69,11.69,8.62,F,35_44
12,61,13436203,0.0,10.15,1.54,5.54,10.15,3.08,15.38,1.54,17.54,13.85,13.23,10.15,0.0,7.69,10.15,10.15,13.23,12.31,4.62,4.62,F,35_44
13,64,4023266,16.0,1.5,15.5,28.5,30.0,37.0,17.5,31.5,29.0,24.5,24.5,49.0,31.5,24.0,16.0,11.0,31.0,27.0,19.0,14.0,F,35_44
14,65,3487920,2.31,10.0,6.15,10.77,8.46,9.23,12.31,12.31,12.31,6.92,10.77,11.54,13.08,13.08,8.46,11.54,12.31,9.23,9.23,11.54,F,35_44
15,72,1886022,1.54,5.38,13.85,13.85,11.54,16.15,18.46,14.62,13.08,11.54,2.31,4.62,2.31,9.23,10.77,7.69,6.15,15.38,18.46,12.31,F,35_44
16,77,296546,4.62,9.23,8.46,3.08,6.92,12.31,10.77,6.15,12.31,11.54,10.0,11.54,12.31,10.0,11.54,6.92,15.38,13.85,8.46,17.69,F,35_44
17,84,13304647,13.08,16.92,18.46,8.46,12.31,12.31,12.31,10.77,11.54,3.85,9.23,10.77,10.77,12.31,12.31,11.54,13.08,10.0,6.15,10.0,F,35_44
18,91,200428,11.54,8.46,14.62,8.46,11.54,10.77,5.38,10.77,7.69,12.31,10.77,8.46,12.31,12.31,10.77,12.31,6.15,9.23,12.31,9.23,F,35_44
19,95,1460905,7.69,10.0,14.62,16.92,15.38,14.62,14.62,14.62,16.15,16.15,14.62,16.92,17.69,10.77,16.92,18.46,15.38,16.15,15.38,13.08,F,35_44
20,108,2483782,0.69,15.46,14.54,9.92,9.92,14.54,5.31,13.15,9.23,10.85,12.23,12.23,11.54,10.85,10.85,8.54,9.23,12.23,7.62,5.31,F,35_44
21,109,1667805,4.62,6.15,3.08,10.0,8.46,10.0,12.31,7.69,11.54,11.54,11.54,10.77,9.23,6.92,11.54,13.08,10.0,11.54,3.08,0.0,F,35_44
22,119,5033871,10.77,11.54,7.69,13.08,8.46,10.0,10.0,9.23,13.08,8.46,6.15,5.38,2.31,4.62,12.31,9.23,13.85,12.31,10.0,10.0,F,35_44
23,129,179268,11.58,12.38,16.96,16.15,9.15,9.15,23.15,11.58,13.73,13.73,7.0,11.58,7.81,13.73,15.35,15.35,19.12,19.92,13.19,11.58,F,35_44
24,133,36497661,3.08,8.46,7.69,10.77,10.77,7.69,10.77,11.54,13.85,12.31,10.0,7.69,13.85,14.62,13.85,14.62,9.23,16.15,16.92,10.0,F,35_44
25,159,3591597,1.54,12.31,2.31,12.31,8.46,6.92,10.77,12.31,13.08,14.62,7.69,10.77,8.46,14.62,16.15,12.31,13.85,13.85,11.54,6.92,F,35_44
26,5,182287,20.77,16.15,14.54,13.85,9.23,12.23,6.23,12.23,12.23,9.23,10.85,16.85,17.77,13.85,8.54,8.54,15.46,13.85,11.54,12.23,F,45_54
27,8,4269490,3.0,17.77,15.46,16.15,16.85,16.85,10.85,3.92,13.85,14.54,12.23,18.46,20.08,17.77,15.46,10.85,18.46,19.15,17.77,13.85,F,45_54
28,15,23582630,0.0,32.15,24.54,5.5,37.65,5.5,6.35,21.58,7.62,37.65,19.88,23.27,8.46,25.38,20.73,12.27,17.77,19.88,30.04,23.69,F,45_54
29,16,5480780,7.62,13.15,12.23,20.08,18.46,9.92,13.85,10.85,7.62,11.54,7.62,8.54,12.23,10.85,8.54,13.15,10.85,9.92,13.15,3.0,F,45_54
30,20,8249172,5.38,7.69,10.77,0.0,1.54,6.15,6.15,6.92,10.77,12.31,13.85,15.38,14.62,10.77,11.54,12.31,16.15,16.92,10.0,10.77,F,45_54
31,23,2730442,0.0,6.92,7.69,10.0,10.0,10.77,10.0,12.31,9.23,6.15,8.46,10.77,10.77,8.46,13.08,13.08,10.0,13.85,10.77,8.46,F,45_54
32,31,2000937,0.96,12.5,7.69,5.77,9.62,12.5,12.5,13.46,13.46,9.62,11.54,12.5,13.46,12.5,13.46,13.46,13.46,13.46,13.46,11.54,F,45_54
33,34,124425,7.62,8.46,11.0,5.08,14.38,16.92,11.0,10.15,9.31,13.54,6.77,80.38,11.85,15.23,10.15,5.08,10.15,15.23,13.54,8.46,F,45_54
34,41,3132661,1.54,12.31,9.23,11.54,11.54,7.69,13.08,12.31,18.46,1.54,5.38,10.77,10.77,10.0,9.23,11.54,0.77,9.23,10.77,10.0,F,45_54
35,42,2397782,5.31,6.23,5.31,17.77,9.23,11.54,7.62,12.23,10.85,10.85,9.92,7.62,19.15,15.46,14.54,7.62,10.85,9.92,11.54,9.23,F,45_54
36,43,25921774,0.77,6.15,7.69,10.77,11.54,10.77,16.92,11.54,15.38,13.85,13.08,10.0,12.31,9.23,10.0,12.31,10.77,13.85,14.62,8.46,F,45_54
37,61,971525,9.23,6.23,9.23,13.15,16.85,14.54,8.54,16.85,10.85,9.92,10.85,9.23,13.85,20.77,16.15,12.23,11.54,12.23,14.54,11.54,F,45_54
38,66,22251819,14.54,9.15,3.77,5.38,2.96,3.77,6.19,3.77,2.42,23.96,16.15,17.77,19.12,16.96,18.58,13.19,10.77,12.38,14.54,9.96,F,45_54
39,67,7380405,12.31,6.15,6.92,2.31,6.15,10.0,10.77,12.31,11.54,11.54,10.0,10.0,9.23,9.23,14.62,14.62,16.15,16.15,13.85,9.23,F,45_54
40,68,18309343,9.23,16.92,12.31,5.38,3.85,5.38,15.38,10.0,16.15,16.92,16.92,13.85,16.92,16.15,14.62,18.46,13.85,17.69,8.46,13.08,F,45_54
41,69,1667805,3.08,8.46,11.54,13.85,15.38,16.15,15.38,12.31,7.69,11.54,2.31,7.69,9.23,9.23,10.0,15.38,10.77,10.77,10.0,6.15,F,45_54
42,76,2550106,13.15,18.46,16.15,13.15,7.62,5.31,6.92,8.54,12.23,20.77,20.77,11.54,14.54,13.85,22.38,17.77,22.38,15.46,18.46,12.23,F,45_54
43,78,263912,13.73,11.58,13.73,14.54,14.54,17.77,17.77,23.15,13.19,13.73,13.73,15.35,14.54,13.73,16.96,13.19,14.54,11.58,5.38,13.19,F,45_54
44,88,3043651,2.96,14.54,10.77,7.81,5.38,12.38,8.35,11.58,14.54,16.15,14.54,23.96,17.77,9.15,9.15,8.35,18.58,8.35,14.54,8.35,F,45_54
45,99,4854005,6.15,12.31,13.08,10.0,8.46,10.0,12.31,10.77,12.31,0.77,8.46,11.54,11.54,12.31,8.46,7.69,13.85,11.54,10.0,16.15,F,45_54
46,101,17001407,3.0,16.85,15.46,6.92,10.85,21.46,13.85,16.85,11.54,9.92,4.62,9.92,13.15,10.85,13.15,9.23,20.08,18.46,16.15,8.54,F,45_54
47,122,12805604,3.08,14.62,9.23,13.08,10.77,13.08,13.85,10.77,12.31,13.08,5.38,11.54,10.77,8.46,14.62,14.62,7.69,12.31,10.77,9.23,F,45_54
48,14,17580895,9.23,15.38,13.08,13.08,9.23,1.54,7.69,10.77,7.69,11.54,12.31,16.92,9.23,16.92,14.62,10.0,9.23,16.92,13.08,10.77,F,55_64
49,17,306299,1.54,9.23,10.0,6.15,10.0,8.46,10.77,6.15,11.54,10.77,11.54,6.92,13.08,13.85,10.0,13.08,14.62,14.62,5.38,9.23,F,55_64
50,25,48547151,10.77,3.08,29.23,0.92,10.77,19.38,18.46,17.54,14.77,24.0,17.54,15.38,26.15,3.08,9.23,2.46,7.69,7.08,7.08,7.69,F,55_64
51,31,29857653,7.69,17.69,9.23,10.77,10.77,6.92,13.85,6.92,11.54,10.77,14.62,7.69,10.77,7.69,6.92,16.15,3.08,10.77,16.92,8.46,F,55_64
52,33,2060463,0.77,11.54,12.31,15.38,11.54,6.92,10.77,0.0,2.31,6.15,6.92,8.46,6.15,12.31,10.0,10.77,10.77,10.77,10.77,5.38,F,55_64
53,39,1486911,7.62,6.92,12.23,10.85,9.23,13.85,3.0,7.62,3.92,7.62,12.23,11.54,13.15,13.85,14.54,13.15,12.23,13.15,12.23,8.54,F,55_64
54,1,1115094,0.77,3.08,6.15,8.46,11.54,14.62,9.23,10.0,10.77,11.54,6.92,11.54,13.08,12.31,8.46,13.08,10.0,13.08,9.23,6.15,F,65_69
55,2,13204733,14.54,16.15,12.38,13.19,15.35,7.0,11.58,6.19,19.12,7.0,23.15,9.96,10.77,14.54,13.73,15.35,7.0,13.19,16.96,10.77,F,65_69
56,1,430673,13.85,11.69,11.69,19.38,17.54,9.23,1.54,18.46,13.23,16.92,7.69,24.0,26.15,20.92,25.54,13.23,10.77,21.54,22.46,20.92,M,35_44
57,3,10736261,10.77,3.85,7.69,7.69,10.77,12.31,8.46,9.23,12.31,7.69,13.08,12.31,12.31,9.23,13.85,14.62,16.92,13.08,16.15,8.46,M,35_44
58,9,120662,19.15,9.92,13.15,9.92,9.92,10.85,5.31,10.85,13.15,9.92,11.54,12.23,11.54,15.46,10.85,13.15,13.85,13.15,4.62,11.54,M,35_44
59,11,1696826,0.81,12.38,11.58,13.73,13.73,9.96,11.58,13.19,13.19,5.38,10.77,10.77,22.35,23.96,6.19,13.73,14.54,15.35,14.54,11.58,M,35_44
60,17,8289026,0.0,18.58,15.35,9.96,16.15,13.73,16.96,11.58,15.35,16.96,17.77,13.73,13.19,23.96,26.12,23.15,11.58,23.96,22.35,15.35,M,35_44
61,26,31887288,1.62,14.54,14.54,14.54,9.92,4.62,13.85,19.15,14.54,6.23,4.62,17.77,14.54,7.62,11.54,6.23,13.15,14.54,12.23,8.54,M,35_44
62,38,11537236,7.0,5.38,7.81,7.0,16.96,7.81,10.77,14.54,22.35,16.15,14.54,5.38,16.15,10.77,15.35,9.15,18.58,13.73,10.77,10.77,M,35_44
63,43,12672478,0.0,20.77,17.65,13.15,27.0,20.77,29.08,33.92,17.65,20.77,15.23,21.46,20.77,20.77,19.38,16.96,10.04,19.38,19.38,9.35,M,35_44
64,44,33755417,10.77,5.38,16.15,8.46,5.38,35.38,14.62,36.15,6.15,17.69,12.31,28.46,13.08,8.46,16.92,4.62,11.54,12.31,16.15,11.54,M,35_44
65,45,1917123,13.19,9.96,12.38,0.0,9.96,12.38,15.35,21.54,19.12,11.58,17.77,16.96,11.58,12.38,17.77,16.96,13.73,16.15,13.73,12.38,M,35_44
66,46,1757706,6.15,9.23,5.38,9.23,7.69,13.85,12.31,18.46,18.46,12.31,16.15,12.31,9.23,4.62,9.23,10.0,12.31,10.77,11.54,9.23,M,35_44
67,47,15067972,13.85,17.69,13.85,7.69,15.38,11.54,13.08,6.92,8.46,13.85,11.54,16.15,13.08,16.15,10.0,15.38,13.85,16.15,13.85,10.77,M,35_44
68,50,8013765,20.73,6.77,9.31,0.0,0.0,8.46,10.15,10.15,11.42,4.65,12.27,10.15,13.96,10.58,16.92,14.81,14.81,9.31,13.12,13.96,M,35_44
69,53,16259692,2.31,16.15,16.15,10.0,10.0,3.85,8.46,3.85,16.92,10.0,10.0,16.92,12.31,7.69,13.85,18.46,14.62,16.92,16.92,3.08,M,35_44
70,56,2408534,8.46,11.54,7.69,10.77,11.54,4.62,11.54,10.0,11.54,5.38,10.0,14.62,8.46,10.77,4.62,14.62,15.38,15.38,8.46,7.69,M,35_44
71,57,1133191,6.19,7.0,9.96,4.58,10.77,8.35,2.96,3.77,9.15,12.38,13.19,16.96,7.81,15.35,16.15,9.15,13.19,12.38,16.15,11.58,M,35_44
72,61,1049645,4.62,9.92,9.23,3.0,7.62,12.23,14.54,12.23,12.23,10.85,13.15,13.15,10.85,9.23,11.54,19.15,14.54,12.23,13.85,6.23,M,35_44
73,62,3689794,6.15,16.15,14.62,7.69,11.54,14.62,11.54,9.23,12.31,8.46,5.38,12.31,13.85,16.15,6.92,16.15,13.08,13.08,12.31,11.54,M,35_44
74,66,3342349,10.77,11.69,6.15,9.23,11.69,12.31,5.54,12.31,12.31,7.08,11.69,9.23,13.23,8.62,16.92,9.23,13.23,6.15,12.31,16.92,M,35_44
75,71,291894,9.23,8.54,20.77,5.31,14.54,7.62,9.92,10.85,11.54,16.15,11.54,13.85,18.46,13.85,14.54,16.85,14.54,14.54,13.15,11.54,M,35_44
76,77,4064328,0.0,13.85,10.85,12.23,17.77,12.23,12.23,16.15,13.85,10.85,1.62,6.23,9.92,6.92,13.15,13.85,21.46,8.54,13.15,10.85,M,35_44
77,87,276612,1.62,15.46,12.23,9.23,14.54,10.85,3.0,6.23,17.77,14.54,16.85,16.15,16.15,19.15,16.15,20.08,20.08,20.08,16.15,11.54,M,35_44
78,95,1001589,1.54,8.46,10.0,8.46,9.23,5.38,3.85,13.08,8.46,12.31,12.31,12.31,12.31,12.31,16.92,11.54,16.15,12.31,15.38,10.0,M,35_44
79,97,13213802,5.38,14.62,10.0,6.92,13.08,8.46,12.31,10.77,12.31,10.0,4.62,5.38,10.77,13.08,12.31,12.31,13.08,13.08,8.46,17.69,M,35_44
80,97,7033158,4.62,4.62,9.23,5.38,7.69,1.54,13.08,10.0,11.54,11.54,13.08,16.15,14.62,15.38,16.92,13.08,16.15,18.46,13.85,7.69,M,35_44
81,100,621935,8.46,12.31,11.54,9.23,12.31,13.85,10.0,14.62,9.23,12.31,0.0,9.23,5.38,6.15,11.54,13.08,10.77,13.85,10.77,10.77,M,35_44
82,104,2395497,16.92,12.31,14.62,13.85,9.23,10.0,0.0,2.31,8.46,6.92,13.08,10.0,14.62,14.62,15.38,8.46,14.62,8.46,12.31,5.38,M,35_44
83,110,3613369,13.15,5.31,3.92,9.92,6.92,5.31,10.85,10.85,13.15,14.54,9.23,9.92,16.85,16.15,16.15,18.46,20.77,16.15,15.46,14.54,M,35_44
84,112,1954083,1.54,9.23,7.69,12.31,8.46,10.0,10.77,10.0,10.77,8.46,8.46,3.85,4.62,10.77,13.85,11.54,10.0,11.54,10.0,6.92,M,35_44
85,115,1942565,8.46,9.23,15.38,12.31,12.31,13.08,6.15,10.0,6.15,9.23,12.31,11.54,12.31,13.85,14.62,6.92,7.69,12.31,12.31,9.23,M,35_44
86,118,1881841,13.15,7.62,30.81,13.85,6.92,14.54,17.65,6.92,16.96,8.31,18.35,7.62,16.96,10.04,26.31,17.65,15.23,10.04,13.85,6.92,M,35_44
87,121,1614220,6.92,7.62,16.15,10.85,9.23,12.23,9.23,6.23,13.85,16.15,16.15,10.85,14.54,15.46,14.54,12.23,13.15,16.15,16.15,11.54,M,35_44
88,127,6068408,10.77,10.15,7.69,7.69,8.62,8.62,24.62,8.62,14.77,11.69,10.77,29.23,13.23,10.77,10.15,8.62,16.31,10.15,13.23,10.15,M,35_44
89,128,16434887,12.31,10.0,7.69,14.62,13.08,7.69,10.77,14.62,8.46,15.38,5.38,10.0,14.62,15.38,6.92,10.77,13.08,12.31,5.38,10.0,M,35_44
90,130,117763,5.38,10.77,12.31,10.77,10.77,37.69,16.15,13.85,13.08,19.23,23.08,11.54,16.92,9.23,13.85,6.15,17.69,11.54,7.69,9.23,M,35_44
91,142,18978353,4.62,12.31,6.15,11.69,8.62,13.85,16.92,12.31,13.23,13.23,2.46,10.77,16.31,0.92,1.54,4.0,7.69,12.31,13.85,9.23,M,35_44
92,148,1277475,2.31,15.38,14.62,3.08,13.85,14.62,16.15,12.31,12.31,5.38,10.0,10.77,14.62,13.85,11.54,14.62,12.31,11.54,7.69,6.92,M,35_44
93,149,1114217,0.0,10.77,10.77,15.35,12.38,7.0,10.77,15.35,13.73,7.81,3.77,9.15,15.35,16.15,16.96,15.35,12.38,13.19,13.73,9.15,M,35_44
94,151,945535,9.23,9.92,12.23,3.92,5.31,11.54,13.85,11.54,9.23,9.92,12.23,12.23,11.54,11.54,7.62,8.54,11.54,13.15,12.23,8.54,M,35_44
95,158,1542397,9.92,20.08,8.54,17.77,14.54,21.46,20.08,20.77,21.46,20.08,20.77,20.77,11.54,19.15,20.77,17.77,13.15,9.92,8.54,5.31,M,35_44
96,161,687397,10.0,11.54,8.46,10.77,11.54,8.46,10.77,10.77,9.23,10.77,2.31,8.46,6.92,10.77,9.23,8.46,11.54,10.0,10.0,7.69,M,35_44
97,165,4908481,10.0,6.92,11.54,8.46,10.0,10.77,6.92,6.92,11.54,11.54,13.08,14.62,14.62,13.08,8.46,12.31,14.62,12.31,13.85,10.77,M,35_44
98,178,627039,17.77,18.46,20.77,21.46,20.77,16.85,19.15,16.85,18.46,21.46,22.38,20.77,22.38,11.54,11.54,18.46,20.08,19.15,17.77,13.85,M,35_44
99,180,3511267,10.0,13.08,9.23,11.54,11.54,13.08,10.77,7.69,14.62,13.85,7.69,11.54,14.62,10.0,6.92,15.38,16.92,9.23,14.62,7.69,M,35_44
100,181,6587268,0.77,11.54,12.31,10.77,10.0,13.08,13.08,16.15,8.46,13.08,13.08,16.15,10.77,6.15,10.0,11.54,11.54,10.77,15.38,10.0,M,35_44
101,182,151193,9.23,17.77,11.54,13.85,13.85,6.23,12.23,13.15,6.23,13.15,9.23,6.92,13.85,15.46,19.15,9.23,16.85,15.46,1.62,6.23,M,35_44
102,183,6275151,0.0,10.77,12.31,15.38,10.0,10.0,9.23,11.54,10.0,13.08,13.08,14.62,12.31,10.77,17.69,5.38,13.85,17.69,13.85,13.08,M,35_44
103,185,131259,1.54,6.92,11.54,3.08,13.08,6.15,8.46,6.92,11.54,10.77,5.38,13.08,13.85,12.31,13.08,13.85,13.85,14.62,15.38,10.0,M,35_44
104,187,1699901,14.54,17.77,14.54,11.54,12.23,9.23,12.23,11.54,13.15,10.85,15.46,15.46,14.54,13.85,12.23,3.0,13.15,17.77,15.46,16.15,M,35_44
105,189,26802461,6.15,9.23,10.77,11.54,5.38,12.31,9.23,14.62,13.08,14.62,15.38,3.08,16.92,16.92,15.38,15.38,13.85,11.54,16.15,10.77,M,35_44
106,191,11920099,11.54,15.38,13.85,13.85,6.15,6.92,12.31,4.62,9.23,10.0,10.0,14.62,9.23,12.31,10.77,10.77,13.85,13.85,7.69,10.0,M,35_44
107,195,12080104,12.31,11.54,10.77,9.23,9.23,12.31,11.54,13.85,7.69,16.15,12.31,14.62,10.77,8.46,7.69,11.54,12.31,13.08,13.08,8.46,M,35_44
108,203,8785122,0.0,5.31,13.85,16.85,13.85,18.46,19.15,13.15,14.54,16.85,17.77,9.92,13.85,10.85,20.08,10.85,9.23,16.15,14.54,9.92,M,35_44
109,208,13925472,0.0,16.15,14.62,8.46,13.08,12.31,1.54,2.31,9.23,6.92,13.85,13.08,9.23,4.62,10.0,14.62,16.92,12.31,10.77,12.31,M,35_44
110,209,8373985,10.15,10.77,13.85,12.31,10.77,11.69,15.38,8.62,11.69,4.62,9.23,30.15,13.23,13.23,16.31,16.92,13.85,14.77,16.31,9.23,M,35_44
111,210,12529877,0.0,0.77,6.15,8.46,3.08,10.77,6.15,9.23,14.62,14.62,6.92,13.08,9.23,14.62,13.85,11.54,13.08,9.23,12.31,10.77,M,35_44
112,219,3333286,10.0,8.46,6.15,9.23,10.77,10.0,11.54,8.46,10.77,11.54,11.54,6.92,13.08,14.62,16.15,13.85,14.62,13.85,13.85,9.23,M,35_44
113,224,3265678,0.0,18.46,21.46,12.23,16.15,15.46,14.54,11.54,5.31,13.15,3.92,14.54,16.15,11.54,16.15,13.85,20.77,17.77,18.46,7.62,M,35_44
114,227,2043506,2.31,20.08,8.54,10.85,12.23,9.92,14.54,10.85,10.85,12.23,2.31,6.92,7.62,9.23,11.54,9.23,10.85,8.54,5.31,12.23,M,35_44
115,231,1855824,9.23,8.46,8.46,11.54,10.0,8.46,14.62,8.46,12.31,13.85,11.54,14.62,14.62,10.77,12.31,8.46,10.0,12.31,13.08,8.46,M,35_44
116,234,17858415,2.31,9.23,12.31,7.69,12.31,9.23,12.31,10.0,12.31,6.92,13.85,15.38,16.15,10.0,15.38,11.54,13.08,13.08,3.08,13.08,M,35_44
117,317,540254,4.62,7.69,10.0,11.54,12.31,13.85,12.31,15.38,11.54,14.62,14.62,13.08,4.62,5.38,16.15,11.54,12.31,10.0,3.08,8.46,M,35_44
118,327,7420460,0.77,10.0,12.31,13.08,9.23,7.69,4.62,10.0,7.69,10.77,11.54,13.08,13.85,13.85,13.85,9.23,13.85,10.77,14.62,9.23,M,35_44
119,331,1643397,27.69,12.31,14.77,16.92,20.92,20.92,18.46,13.23,17.54,19.38,23.08,20.92,16.92,13.85,3.08,16.31,16.31,7.69,18.46,11.69,M,35_44
120,340,538424,11.58,9.15,13.19,4.58,9.15,6.19,13.73,9.96,13.19,17.77,15.35,10.77,9.96,7.0,11.58,11.58,13.73,12.38,11.58,9.15,M,35_44
121,341,1518539,8.46,10.0,11.54,3.85,6.92,9.23,12.31,11.54,13.85,9.23,15.38,13.08,13.85,10.77,12.31,15.38,13.08,14.62,9.23,13.08,M,35_44
122,343,45478746,7.62,12.23,11.54,17.77,12.23,16.15,16.15,16.15,12.23,13.85,18.46,5.31,1.62,15.46,16.15,12.23,9.92,11.54,16.15,8.54,M,35_44
123,345,4361390,3.81,8.46,13.96,7.62,10.15,9.31,13.12,3.81,5.5,16.92,10.58,6.77,12.27,15.23,12.27,15.23,18.62,16.08,10.15,8.46,M,35_44
124,347,1703649,10.77,10.77,3.85,7.69,6.15,10.77,12.31,10.77,12.31,7.69,7.69,6.15,12.31,9.23,11.54,10.0,13.85,13.85,11.54,4.62,M,35_44
125,348,1724751,10.0,10.77,9.23,10.77,11.54,12.31,8.46,11.54,13.08,13.08,10.77,8.46,11.54,3.85,8.46,11.54,10.0,10.0,8.46,14.62,M,35_44
126,349,614053,2.31,15.46,10.85,9.23,12.23,22.38,17.77,12.23,1.62,4.62,8.54,11.54,7.62,9.23,13.15,21.46,12.23,13.85,21.46,11.54,M,35_44
127,350,1166521,0.0,9.23,11.54,7.69,10.77,10.0,6.92,11.54,13.85,11.54,15.38,13.08,13.85,10.77,13.08,10.0,13.08,14.62,11.54,9.23,M,35_44
128,356,264624,7.69,10.0,6.15,10.0,8.46,4.62,10.0,11.54,13.08,11.54,12.31,13.85,10.0,11.54,8.46,13.08,6.92,6.92,3.08,3.85,M,35_44
129,362,3089694,0.0,13.85,13.85,18.46,8.54,16.15,13.85,14.54,17.77,14.54,12.23,20.08,19.15,18.46,13.85,20.08,16.85,17.77,13.85,11.54,M,35_44
130,368,42178719,0.0,8.46,11.54,10.0,8.46,9.23,10.77,10.77,9.23,13.08,4.62,10.0,9.23,13.08,11.54,10.0,14.62,10.77,12.31,4.62,M,35_44
131,370,5896944,0.77,0.0,11.54,11.54,8.46,3.08,13.08,13.85,12.31,7.69,11.54,1.54,11.54,11.54,7.69,7.69,14.62,7.69,11.54,6.92,M,35_44
132,374,737944,5.31,16.85,16.15,17.77,15.46,17.77,19.15,20.08,15.46,14.54,18.46,18.46,11.54,2.31,15.46,16.15,13.15,14.54,12.23,16.85,M,35_44
133,382,1443501,15.38,15.38,13.08,8.46,10.77,5.38,14.62,13.08,11.54,9.23,13.85,13.08,13.08,17.69,13.85,9.23,13.08,15.38,14.62,10.0,M,35_44
134,383,4254942,9.23,9.92,19.15,11.54,9.92,10.85,9.92,17.77,13.15,15.46,11.54,16.85,17.77,11.54,13.15,6.23,16.85,16.15,18.46,16.15,M,35_44
135,386,5738735,13.85,8.46,8.46,13.08,13.85,13.08,10.0,6.92,14.62,16.92,17.69,7.69,11.54,14.62,15.38,15.38,15.38,12.31,7.69,12.31,M,35_44
136,393,548400,14.62,7.69,15.38,9.23,10.77,11.54,6.92,17.69,13.85,10.77,10.0,6.92,10.0,4.62,8.46,11.54,14.62,16.92,8.46,8.46,M,35_44
137,407,1799567,0.77,3.08,6.15,6.92,10.77,10.0,13.85,12.31,14.62,13.85,9.23,8.46,13.85,14.62,14.62,16.15,15.38,16.92,16.92,10.0,M,35_44
138,409,6059590,3.85,16.15,16.92,13.85,11.54,14.62,0.0,5.38,6.92,10.77,11.54,7.69,13.08,13.08,13.08,3.85,13.85,18.46,14.62,13.85,M,35_44
139,430,21428038,9.23,0.0,11.54,9.92,16.85,9.23,22.38,16.15,4.62,5.31,6.23,10.85,9.92,6.92,13.15,16.15,13.85,9.23,12.23,15.46,M,35_44
140,432,12710454,12.31,6.92,10.0,13.08,13.85,9.23,15.38,13.85,10.0,14.62,13.85,13.08,10.77,14.62,13.85,12.31,15.38,15.38,12.31,10.0,M,35_44
141,436,581887,16.85,13.15,13.15,13.85,6.23,7.62,10.85,7.62,6.92,8.54,12.23,13.85,11.54,9.92,15.46,10.85,7.62,13.15,8.54,8.54,M,35_44
142,439,758114,8.46,6.92,12.31,13.85,6.92,13.85,10.0,5.38,10.77,2.31,10.77,12.31,6.92,13.08,10.77,7.69,9.23,10.77,10.0,4.62,M,35_44
143,447,1658532,12.27,11.42,13.12,9.31,13.12,16.08,9.31,3.81,0.0,0.0,0.0,0.0,18.62,10.58,13.12,21.58,12.27,6.35,11.42,4.65,M,35_44
144,451,6436989,0.0,5.31,14.54,16.85,9.92,13.15,8.54,6.23,10.85,9.92,12.23,16.15,6.92,9.92,12.23,10.85,12.23,13.85,10.85,9.23,M,35_44
145,457,1306370,18.46,13.15,5.31,5.31,5.31,4.62,13.85,5.31,9.23,16.85,5.31,10.85,19.15,16.85,17.77,19.15,16.85,19.15,16.15,13.85,M,35_44
146,461,2282386,2.31,13.85,13.85,12.31,13.08,7.69,11.54,10.77,13.08,6.92,10.77,0.0,3.85,12.31,13.08,10.77,10.0,12.31,5.38,6.15,M,35_44
147,472,6287869,7.62,20.77,13.85,9.92,0.0,0.0,10.85,13.85,6.23,7.62,17.77,15.46,13.85,14.54,6.92,16.85,15.46,15.46,5.31,9.92,M,35_44
148,481,11664662,0.0,6.23,9.92,0.0,6.92,10.85,13.85,13.15,15.46,8.54,19.15,12.23,16.15,9.92,13.15,16.15,13.15,9.92,6.92,6.92,M,35_44
149,482,1484617,13.08,7.69,10.77,15.38,13.85,9.23,12.31,1.54,4.62,3.08,5.38,6.92,5.38,10.77,11.54,16.15,10.77,12.31,11.54,10.77,M,35_44
150,493,5784869,17.77,11.58,13.19,14.54,21.54,14.54,16.96,9.96,12.38,4.58,7.0,8.35,6.19,7.0,12.38,7.81,10.77,10.77,5.38,16.15,M,35_44
151,502,1110032,10.77,8.46,7.69,0.0,11.54,13.08,13.08,4.62,15.38,14.62,14.62,6.92,15.38,15.38,14.62,8.46,13.08,11.54,7.69,11.54,M,35_44
152,510,2902457,0.0,10.77,18.46,10.0,13.85,9.23,12.31,3.85,3.85,11.54,10.0,9.23,12.31,13.08,5.38,11.54,7.69,10.77,13.08,3.85,M,35_44
153,511,14971294,1.62,16.85,13.15,13.15,4.62,16.85,16.15,14.54,18.46,10.85,15.46,5.31,9.92,3.0,13.85,13.15,9.92,10.85,5.31,3.0,M,35_44
154,511,2620861,1.62,16.15,13.15,16.85,14.54,14.54,11.54,22.38,7.62,11.54,12.23,14.54,17.77,16.85,17.77,19.15,16.85,7.62,15.46,13.15,M,35_44
155,515,1105374,6.15,4.62,6.92,14.62,14.62,13.08,14.62,13.85,10.0,11.54,0.0,6.15,9.23,11.54,12.31,13.08,10.77,10.77,11.54,7.69,M,35_44
156,521,754680,9.23,10.77,12.31,10.77,12.31,11.54,11.54,13.08,10.77,7.69,10.0,6.15,10.0,2.31,6.92,7.69,9.23,6.92,4.62,10.77,M,35_44
157,528,74765,8.46,10.0,13.85,13.85,11.54,15.38,16.15,11.54,12.31,10.77,2.31,9.23,13.08,12.31,16.15,9.23,10.77,16.15,11.54,11.54,M,35_44
158,534,1110205,0.0,9.92,13.85,12.23,16.15,10.85,13.15,11.54,18.46,8.54,13.85,9.92,13.15,17.77,12.23,11.54,14.54,17.77,9.23,14.54,M,35_44
159,538,697411,7.62,20.77,9.92,20.77,16.85,14.54,13.85,14.54,20.08,12.23,14.54,11.54,9.92,11.54,5.31,7.62,13.15,14.54,13.15,9.23,M,35_44
160,549,1638651,12.31,3.85,8.46,10.0,12.31,10.77,14.62,15.38,10.0,16.15,13.08,16.92,14.62,13.85,13.08,10.0,13.85,11.54,9.23,11.54,M,35_44
161,554,169572,3.85,11.54,6.15,9.23,14.62,10.0,6.92,14.62,10.77,8.46,13.85,11.54,13.85,13.85,13.08,10.0,14.62,14.62,11.54,9.23,M,35_44
162,557,4123759,8.46,11.54,10.77,12.31,11.54,13.08,16.15,11.54,11.54,1.54,8.46,7.69,12.31,17.69,9.23,13.85,13.85,13.85,16.15,7.69,M,35_44
163,561,169328,13.85,14.54,15.46,13.85,15.46,16.15,11.54,13.85,16.15,16.15,17.77,16.15,16.85,19.15,16.85,17.77,17.77,18.46,12.23,9.92,M,35_44
164,563,3584705,10.0,11.54,12.31,0.0,3.08,10.77,12.31,13.85,13.85,15.38,10.77,16.92,16.15,11.54,12.31,17.69,11.54,14.62,17.69,10.0,M,35_44
165,569,3424326,0.0,8.46,9.23,10.0,13.08,13.85,10.0,4.62,10.77,13.08,15.38,10.77,9.23,11.54,10.77,11.54,13.85,8.46,9.23,18.46,M,35_44
166,573,22762726,0.0,11.54,13.15,12.23,6.92,9.23,9.23,11.54,12.23,13.85,12.23,12.23,11.54,12.23,7.62,15.46,13.85,10.85,8.54,11.54,M,35_44
167,575,7307388,10.0,14.62,13.08,12.31,7.69,14.62,14.62,10.77,13.85,15.38,7.69,16.15,16.92,10.77,16.15,17.69,16.92,13.08,16.92,6.92,M,35_44
168,577,27323883,0.0,12.62,12.62,12.62,9.46,9.46,9.46,15.77,9.46,12.62,9.46,6.31,12.62,9.46,12.62,12.62,12.62,12.62,9.46,312.23,M,35_44
169,580,1886802,4.62,7.69,13.08,9.23,14.62,0.77,11.54,16.92,13.85,14.62,17.69,13.08,9.23,13.08,0.0,8.46,10.77,9.23,13.08,9.23,M,35_44
170,586,6257952,13.85,12.31,3.85,14.62,15.38,14.62,16.15,16.15,13.08,12.31,15.38,3.08,7.69,7.69,8.46,2.31,11.54,8.46,8.46,11.54,M,35_44
171,589,137454,0.0,17.54,9.23,6.0,10.62,6.92,10.62,6.92,2.31,13.85,13.85,13.85,16.15,12.46,12.92,15.23,16.15,15.23,13.85,35.54,M,35_44
172,592,4880221,9.15,11.58,13.73,7.81,11.58,7.0,9.15,15.35,5.38,2.96,10.77,13.19,9.15,10.77,16.96,25.31,13.19,18.58,9.96,5.38,M,35_44
173,593,1106234,1.54,12.31,6.92,13.08,13.08,10.0,16.15,10.0,6.92,10.0,14.62,12.31,11.54,12.31,11.54,6.92,10.77,6.92,10.77,6.92,M,35_44
174,595,3205704,6.92,13.08,14.62,15.38,16.15,16.15,14.62,14.62,9.23,10.77,3.85,11.54,14.62,13.85,15.38,15.38,15.38,14.62,14.62,10.0,M,35_44
175,602,2402211,8.62,10.77,4.62,8.62,20.0,15.38,27.08,13.85,16.31,17.54,3.08,8.62,21.54,18.46,17.54,17.54,16.92,19.38,10.15,10.15,M,35_44
176,603,6440942,5.38,6.92,10.77,7.69,10.0,6.15,10.77,3.85,7.69,10.77,10.77,10.77,9.23,10.77,9.23,14.62,11.54,11.54,9.23,12.31,M,35_44
177,607,7843274,16.15,2.31,0.0,2.31,3.0,4.62,3.92,16.85,12.23,12.23,7.62,13.85,12.23,16.85,15.46,16.85,12.23,14.54,16.85,9.92,M,35_44
178,609,6260953,0.0,11.31,14.0,0.54,7.54,31.77,11.31,12.92,14.0,8.62,10.23,15.62,10.77,50.62,15.62,15.62,16.15,16.69,16.69,12.38,M,35_44
179,616,6722082,13.08,12.31,10.0,6.92,10.77,10.77,13.85,10.77,13.08,13.85,10.77,9.23,12.31,2.31,10.77,12.31,14.62,13.08,6.92,12.31,M,35_44
180,622,24062570,6.15,7.69,11.54,16.15,13.85,10.0,14.62,6.92,11.54,13.85,14.62,10.0,10.0,4.62,10.0,16.15,12.31,13.85,12.31,10.77,M,35_44
181,628,6007927,0.0,9.23,9.23,13.85,7.69,10.0,1.54,6.92,11.54,13.08,13.08,4.62,10.0,12.31,8.46,10.77,13.08,10.0,5.38,12.31,M,35_44
182,633,1803697,1.62,11.54,11.54,21.46,20.77,14.54,16.15,19.15,12.23,16.15,20.08,10.85,12.23,3.92,15.46,11.54,9.92,16.85,9.92,9.92,M,35_44
183,636,3491892,0.0,6.15,4.0,9.23,10.15,10.77,12.31,4.0,7.69,2.46,7.69,9.23,13.23,15.38,10.77,10.77,16.31,10.15,12.31,10.15,M,35_44
184,643,549625,6.92,10.77,7.69,12.31,12.31,12.31,10.77,11.54,11.54,5.38,12.31,12.31,11.54,12.31,13.08,4.62,14.62,9.23,6.92,9.23,M,35_44
185,654,1482537,10.58,41.46,6.77,13.12,9.31,13.12,12.27,9.31,12.27,0.0,2.12,4.65,10.15,7.62,12.27,10.15,4.65,13.12,13.12,6.77,M,35_44
186,657,78093,13.08,11.54,6.92,9.23,13.85,12.31,15.38,10.77,8.46,10.77,2.31,12.31,13.85,7.69,6.92,11.54,9.23,12.31,11.54,7.69,M,35_44
187,660,1039284,6.15,0.77,16.15,14.62,12.31,14.62,10.77,8.46,10.77,0.77,4.62,10.77,7.69,11.54,10.77,16.15,14.62,10.0,8.46,3.85,M,35_44
188,667,1193251,16.92,10.77,6.92,9.23,14.62,7.69,5.38,13.08,3.08,12.31,4.62,0.0,3.08,14.62,8.46,13.85,13.08,11.54,3.85,10.77,M,35_44
189,668,17402416,1.54,3.08,10.15,10.77,10.15,10.15,11.69,14.77,10.15,12.31,13.85,7.08,16.92,7.69,7.08,10.77,10.15,5.54,3.08,10.77,M,35_44
190,674,2902876,10.77,0.0,0.0,0.0,12.31,13.08,1.54,0.77,12.31,10.0,12.31,13.85,13.08,15.38,16.92,17.69,16.15,14.62,11.54,16.92,M,35_44
191,677,7897771,4.62,2.31,3.08,2.31,4.62,10.0,8.46,10.0,11.54,13.85,10.0,13.85,7.69,7.69,10.77,5.38,15.38,13.08,10.77,10.77,M,35_44
192,698,14804127,8.46,10.77,11.54,17.69,15.38,14.62,12.31,13.85,10.77,11.54,13.85,8.46,13.08,14.62,11.54,14.62,12.31,11.54,10.0,10.77,M,35_44
193,701,6704984,16.85,18.46,13.15,13.15,8.54,9.92,11.54,10.85,9.92,10.85,16.15,17.77,11.54,7.62,14.54,15.46,16.85,11.54,6.92,13.85,M,35_44
194,724,12479579,11.54,5.38,13.85,1.54,6.92,10.0,7.69,3.08,12.31,11.54,13.08,16.15,14.62,9.23,11.54,13.85,11.54,13.08,10.0,7.69,M,35_44
195,731,7875323,1.54,6.15,6.15,5.38,8.46,9.23,10.77,10.77,13.08,9.23,13.08,13.08,11.54,12.31,13.85,15.38,15.38,16.92,16.92,10.0,M,35_44
196,738,5027012,11.54,13.15,2.31,8.54,6.92,10.85,13.15,5.31,12.23,15.46,13.85,19.15,9.92,14.54,13.85,17.77,6.92,9.92,16.15,13.15,M,35_44
197,747,1358223,13.08,10.0,13.08,13.08,12.31,12.31,10.0,16.15,11.54,12.31,10.77,8.46,7.69,10.0,0.0,10.77,15.38,13.08,12.31,11.54,M,35_44
198,750,7822943,9.15,13.73,9.15,13.73,7.0,7.81,8.35,13.19,7.81,7.0,11.58,11.58,6.19,9.96,13.73,13.19,15.35,23.15,19.92,7.0,M,35_44
199,752,1917889,0.0,10.77,24.5,6.19,9.15,12.38,8.35,10.77,13.19,14.54,10.77,11.58,12.38,16.96,7.81,15.35,11.58,11.58,10.77,6.19,M,35_44
200,763,25584200,0.0,8.46,5.38,11.54,13.08,9.23,13.08,15.38,16.92,11.54,16.15,13.08,14.62,14.62,13.08,13.85,13.08,15.38,9.23,9.23,M,35_44
201,765,1405927,5.38,10.77,12.31,10.0,6.15,12.31,13.08,13.85,4.62,13.08,13.85,11.54,0.0,5.38,11.54,1.54,9.23,16.92,13.08,15.38,M,35_44
202,772,16205517,9.23,6.92,16.85,21.46,20.08,9.92,12.23,12.23,2.31,10.85,13.15,9.23,15.46,20.77,9.23,9.23,14.54,13.15,8.54,7.62,M,35_44
203,794,7407875,0.69,6.92,10.85,1.62,3.92,9.23,13.85,13.15,14.54,14.54,11.54,13.85,11.54,14.54,15.46,11.54,12.23,8.54,1.62,11.54,M,35_44
204,854,532498,3.08,12.31,13.85,8.62,10.15,4.62,7.08,4.62,13.85,12.31,10.77,12.31,19.38,28.62,14.77,24.62,14.77,10.15,18.46,7.08,M,35_44
205,1,22392513,2.42,9.15,9.96,0.0,3.77,7.0,13.19,11.58,13.19,8.35,11.58,13.19,14.54,8.35,7.81,11.58,23.15,16.15,14.54,9.15,M,45_54
206,2,239594,5.38,6.92,6.92,12.31,10.77,6.92,7.69,10.77,6.92,12.31,11.54,12.31,8.46,8.46,13.85,10.77,13.85,10.0,10.77,5.38,M,45_54
207,4,1682310,7.69,0.0,13.85,1.54,13.08,0.0,6.92,1.54,2.31,3.08,10.0,3.85,13.08,12.31,13.85,13.85,15.38,16.15,10.77,13.08,M,45_54
208,12,679475,7.69,10.0,10.77,11.54,13.08,10.0,14.62,3.85,6.15,14.62,11.54,13.08,11.54,5.38,13.08,10.77,10.0,9.23,11.54,10.77,M,45_54
209,13,907677,8.46,8.46,11.54,12.31,9.23,8.46,11.54,2.31,3.85,5.38,8.46,14.62,14.62,5.38,11.54,11.54,15.38,11.54,7.69,10.77,M,45_54
210,16,16774027,17.77,9.23,13.85,11.54,9.23,12.23,5.31,11.54,12.23,15.46,17.77,14.54,12.23,11.54,9.92,15.46,11.54,13.85,15.46,10.85,M,45_54
211,18,548400,5.38,0.81,4.58,8.35,7.81,10.77,9.96,15.35,11.58,15.35,15.35,12.38,12.38,12.38,24.5,13.73,13.73,10.77,10.77,7.0,M,45_54
212,23,12710454,0.0,12.23,10.85,0.0,16.15,9.92,16.85,15.46,14.54,15.46,15.46,12.23,15.46,21.46,10.85,16.85,16.15,13.15,15.46,10.85,M,45_54
213,28,14209782,9.23,3.92,5.31,9.92,9.92,8.54,8.54,13.15,11.54,9.92,3.0,11.54,13.15,17.77,13.85,16.15,16.15,13.15,13.85,9.23,M,45_54
214,34,1444207,13.08,11.54,5.38,10.0,6.15,9.23,10.0,13.08,16.15,12.31,10.0,6.15,0.0,1.54,7.69,6.15,11.54,14.62,13.08,6.92,M,45_54
215,46,1316905,2.12,8.46,10.58,12.27,13.96,13.96,6.35,16.08,16.08,7.62,10.15,13.12,13.96,38.5,16.92,19.04,12.27,18.62,16.92,7.62,M,45_54
216,48,1803226,16.31,20.0,7.69,12.31,4.0,10.15,5.54,0.0,8.62,9.23,12.31,9.23,6.15,12.31,12.31,10.15,10.77,11.69,10.15,4.62,M,45_54
217,49,16780820,10.0,10.0,13.85,16.15,13.08,16.92,17.69,9.23,6.15,3.85,9.23,6.92,11.54,11.54,13.85,13.85,10.0,16.92,15.38,9.23,M,45_54
218,55,1853224,0.0,13.85,7.69,12.31,7.69,5.38,4.62,13.08,15.38,13.08,16.92,9.23,18.46,14.62,16.92,6.92,16.15,13.85,14.62,11.54,M,45_54
219,60,43593326,0.0,6.92,6.15,7.69,7.69,10.0,10.0,11.54,10.77,13.85,16.92,0.77,7.69,13.85,10.77,8.46,11.54,13.08,11.54,10.0,M,45_54
220,68,2183361,9.92,16.15,14.54,8.54,13.85,9.92,15.46,16.15,12.23,10.85,13.85,4.62,9.23,8.54,13.15,13.15,16.85,19.15,16.85,12.23,M,45_54
221,77,1047864,2.31,13.08,8.46,12.31,6.92,7.69,13.85,11.54,12.31,6.92,9.23,9.23,13.08,10.77,13.08,6.92,9.23,16.92,13.85,8.46,M,45_54
222,79,16067275,0.0,14.77,10.15,10.15,7.69,2.46,7.69,13.23,10.15,13.85,28.62,10.77,10.15,4.62,12.31,12.31,8.62,11.69,10.77,3.08,M,45_54
223,81,6765833,13.08,8.46,10.0,3.85,10.77,11.54,11.54,14.62,15.38,16.15,14.62,13.08,12.31,2.31,10.77,14.62,15.38,15.38,15.38,12.31,M,45_54
224,99,24314462,10.0,13.08,12.31,0.0,4.62,10.0,10.77,10.0,13.85,10.77,10.77,7.69,12.31,14.62,13.85,13.08,10.77,11.54,13.08,6.92,M,45_54
225,108,556375,10.85,9.23,12.23,3.92,9.92,7.62,12.23,13.15,12.23,11.54,8.54,11.54,12.23,14.54,21.46,11.54,9.92,13.15,13.15,7.62,M,45_54
226,113,291894,0.0,9.23,10.0,8.46,7.69,11.54,13.08,10.77,13.85,13.85,8.46,14.62,13.85,18.46,13.08,16.15,16.15,15.38,15.38,11.54,M,45_54
227,116,1643397,0.0,9.15,3.77,13.73,16.96,7.81,5.38,16.15,19.12,6.19,9.15,18.58,24.5,7.0,9.96,14.54,21.54,11.58,19.12,15.35,M,45_54
228,125,6650,17.77,18.58,19.92,16.15,20.73,16.96,20.73,16.15,18.58,20.73,14.54,19.92,15.35,17.77,19.92,17.77,16.96,16.15,14.54,15.35,M,45_54
229,126,5805383,2.31,4.62,10.85,11.54,9.92,13.85,10.85,9.23,13.15,11.54,15.46,0.0,9.23,13.15,5.31,13.85,9.23,11.54,12.23,12.23,M,45_54
230,132,22213902,0.92,11.69,10.77,2.46,11.69,13.85,2.46,16.92,16.92,13.85,15.38,11.69,12.31,6.15,13.85,27.08,13.23,16.31,12.31,4.62,M,45_54
231,134,1662777,11.54,9.92,10.85,4.62,13.15,14.54,9.23,12.23,17.77,16.85,13.85,17.77,17.77,13.15,13.85,20.08,14.54,9.92,14.54,7.62,M,45_54
232,139,169328,0.69,11.54,13.15,15.46,13.15,6.23,4.62,4.62,6.23,0.0,12.23,15.46,16.85,17.77,19.15,15.46,18.46,18.46,16.85,10.85,M,45_54
233,141,612019,0.77,12.31,12.31,7.69,7.69,11.54,6.92,4.62,14.62,10.0,8.46,5.38,9.23,13.08,13.08,11.54,15.38,12.31,16.92,8.46,M,45_54
234,144,12650473,0.0,11.54,9.23,5.38,6.92,8.46,10.77,8.46,10.77,13.08,12.31,13.08,16.92,9.23,4.62,14.62,14.62,10.77,12.31,8.46,M,45_54
235,148,1299138,10.0,16.0,11.0,16.0,11.0,11.0,9.0,15.0,13.0,6.0,9.0,12.0,15.0,7.0,12.0,13.0,9.0,7.0,8.0,13.0,M,45_54
236,161,7076237,9.23,13.08,10.0,14.62,7.69,10.77,0.0,6.92,6.92,6.92,10.0,14.62,5.38,10.77,10.77,10.77,11.54,10.77,6.15,14.62,M,45_54
237,163,3387676,10.85,8.54,14.54,5.31,12.23,8.54,5.31,12.23,10.85,20.77,10.85,13.85,14.54,13.85,12.23,9.92,14.54,12.23,12.23,6.23,M,45_54
238,165,1866055,13.15,13.85,10.85,20.08,17.77,15.46,14.54,12.23,8.54,16.15,17.77,13.85,10.85,17.77,13.85,14.54,15.46,20.08,13.15,11.54,M,45_54
239,172,25731999,2.31,9.92,9.23,9.23,13.85,6.23,14.54,18.46,10.85,15.46,11.54,17.77,16.85,16.15,14.54,6.92,12.23,18.46,13.15,8.54,M,45_54
240,175,581887,12.38,12.38,26.12,2.42,9.96,6.19,1.62,0.0,7.0,11.58,7.81,9.15,16.15,13.73,9.15,7.0,11.58,10.77,12.38,13.73,M,45_54
241,187,93960,9.23,8.46,10.77,14.62,16.92,13.85,10.0,7.69,9.23,13.08,12.31,11.54,13.08,9.23,6.15,16.15,12.31,14.62,10.0,6.92,M,45_54
242,190,2168241,13.19,11.58,7.81,13.19,9.15,13.19,13.19,7.81,14.54,3.77,5.38,11.58,12.38,12.38,13.19,12.38,10.77,23.15,13.19,7.81,M,45_54
243,206,219644,0.0,1.62,6.92,11.54,13.85,6.23,10.85,13.15,20.08,6.23,14.54,14.54,12.23,6.23,14.54,16.15,8.54,13.85,12.23,9.23,M,45_54
244,209,3877855,11.42,8.31,32.19,4.5,9.35,10.73,11.42,11.42,3.12,14.54,12.46,18.35,13.15,13.85,19.38,16.27,12.46,13.15,12.46,13.85,M,45_54
245,216,13912366,10.0,9.23,11.54,10.77,13.85,14.62,14.62,9.23,11.54,12.31,13.08,13.85,13.85,14.62,12.31,10.77,10.0,6.15,13.08,11.54,M,45_54
246,218,658126,0.0,9.23,11.54,10.77,8.46,11.54,10.77,10.0,11.54,10.0,11.54,15.38,12.31,10.77,12.31,11.54,13.85,11.54,11.54,8.46,M,45_54
247,219,48823533,8.46,10.77,10.0,9.23,12.31,10.0,14.62,6.92,10.0,10.77,12.31,9.23,8.46,10.77,10.77,7.69,1.54,16.15,10.0,10.77,M,45_54
248,220,1607353,5.38,11.54,5.38,12.31,10.0,5.38,9.23,7.69,12.31,3.85,7.69,10.0,13.08,12.31,9.23,15.38,12.31,12.31,3.08,10.77,M,45_54
249,222,33343,14.62,13.08,11.54,8.46,13.85,11.54,16.92,16.15,11.54,12.31,16.92,12.31,15.38,10.77,11.54,11.54,8.46,13.08,12.31,7.69,M,45_54
250,225,442598,12.46,19.38,2.42,10.73,8.31,13.15,11.42,13.15,16.96,10.73,10.04,16.96,16.27,17.65,16.27,16.27,13.85,16.96,11.42,11.42,M,45_54
251,239,1460301,6.92,10.77,13.85,5.38,0.0,5.38,10.0,10.0,13.85,18.46,16.92,5.38,10.0,10.77,12.31,15.38,8.46,13.85,12.31,13.85,M,45_54
252,245,29117423,3.08,25.38,8.46,28.46,27.69,27.69,7.69,26.92,30.77,33.08,8.46,28.46,23.85,36.15,7.69,16.92,16.15,13.85,12.31,8.46,M,45_54
253,248,4882057,7.69,12.31,11.54,6.15,3.85,8.46,10.0,13.85,8.46,13.08,14.62,8.46,7.69,10.0,4.62,14.62,13.08,13.08,10.77,6.92,M,45_54
254,259,313668,14.77,14.15,12.92,3.69,11.08,11.69,12.31,16.0,12.92,14.15,11.08,6.15,11.69,11.69,11.69,9.85,12.92,15.38,15.38,9.85,M,45_54
255,260,36250274,0.77,10.0,6.15,13.08,10.0,7.69,9.23,13.85,0.77,9.23,10.0,13.08,13.08,11.54,13.08,10.0,11.54,14.62,9.23,6.92,M,45_54
256,273,773745,0.0,6.15,11.54,8.46,4.62,11.54,9.23,8.46,10.0,12.31,11.54,11.54,10.77,10.0,9.23,10.77,12.31,14.62,11.54,8.46,M,45_54
257,275,15810665,0.0,10.92,13.65,10.92,2.73,5.46,21.85,10.92,2.73,10.92,21.85,21.85,13.65,13.65,10.92,10.92,5.46,16.38,13.65,5.46,M,45_54
258,282,4603052,2.31,14.54,19.15,12.23,9.92,12.23,4.62,15.46,0.69,10.85,9.23,12.23,13.85,15.46,13.15,7.62,3.0,11.54,9.92,8.54,M,45_54
259,286,24832978,20.0,74.62,12.31,10.77,10.0,13.85,14.62,13.08,11.54,16.15,1.54,2.31,3.08,10.0,13.85,20.0,15.38,11.54,15.38,15.38,M,45_54
260,288,347774,8.54,6.23,9.23,5.31,11.54,9.23,9.92,6.92,22.38,11.54,9.23,9.23,13.85,16.15,15.46,10.85,15.46,13.15,14.54,11.54,M,45_54
261,293,58488,1.54,6.15,11.54,10.77,12.31,6.92,15.38,15.38,13.85,8.46,18.46,13.85,6.92,11.54,14.62,11.54,13.85,10.0,11.54,8.46,M,45_54
262,294,10829388,15.38,11.54,14.62,11.54,15.38,18.46,8.46,11.54,15.38,11.54,11.54,15.38,10.77,12.31,10.0,11.54,14.62,13.85,13.85,15.38,M,45_54
263,301,12495104,2.31,13.08,14.62,13.85,10.77,13.85,10.77,10.77,0.0,8.46,13.08,16.92,16.92,12.31,10.77,13.85,10.77,13.85,13.85,6.15,M,45_54
264,308,33989662,0.77,6.15,9.23,10.77,10.0,13.85,14.62,11.54,14.62,10.0,11.54,10.0,13.85,12.31,15.38,10.77,16.92,11.54,11.54,3.85,M,45_54
265,311,13055528,3.08,13.08,6.92,10.0,10.0,12.31,14.62,13.08,10.0,13.08,14.62,11.54,12.31,3.85,7.69,10.77,16.15,14.62,9.23,8.46,M,45_54
266,317,29182112,7.69,2.31,9.23,1.54,8.46,6.15,12.31,11.54,13.08,9.23,13.08,6.15,10.0,10.0,13.08,11.54,12.31,14.62,13.08,10.0,M,45_54
267,324,72879,3.08,0.0,7.69,13.08,11.54,13.08,12.31,13.08,10.0,6.15,3.08,6.92,10.77,10.77,11.54,5.38,13.08,6.92,3.85,10.77,M,45_54
268,333,12693829,1.54,6.15,10.0,11.54,12.31,9.23,10.0,13.85,10.0,7.69,12.31,5.38,13.08,11.54,12.31,9.23,13.08,11.54,9.23,9.23,M,45_54
269,336,13870517,8.46,7.69,10.0,8.46,10.77,11.54,13.08,11.54,13.08,10.77,9.23,14.62,13.08,7.69,5.38,7.69,14.62,13.08,13.85,6.15,M,45_54
270,343,21858685,0.0,9.15,4.58,2.96,12.38,7.0,7.81,7.81,16.15,10.77,10.77,12.38,11.58,10.77,13.73,12.38,13.19,9.15,10.77,8.35,M,45_54
271,344,14372950,7.08,10.77,10.15,10.77,15.38,9.23,13.85,12.31,7.69,15.38,2.46,4.0,10.15,13.85,12.31,16.31,7.69,28.62,4.62,6.15,M,45_54
272,345,5487038,9.23,7.69,8.46,8.46,13.08,8.46,11.54,12.31,10.0,10.0,12.31,10.0,10.77,14.62,11.54,11.54,10.77,11.54,11.54,10.0,M,45_54
273,346,3539874,0.77,11.54,11.54,15.38,14.62,15.38,16.15,10.77,10.0,9.23,3.08,6.15,6.15,3.08,13.85,11.54,5.38,9.23,13.85,10.0,M,45_54
274,349,31235468,2.31,10.77,18.46,6.92,11.54,0.0,3.08,3.08,10.77,10.77,12.31,6.15,18.46,13.85,12.31,3.85,11.54,15.38,7.69,6.92,M,45_54
275,351,774389,0.0,3.08,12.31,12.31,13.08,12.31,6.15,11.54,3.85,14.62,9.23,11.54,6.15,16.15,6.92,15.38,4.62,14.62,6.92,6.92,M,45_54
276,353,17451151,1.62,18.46,14.54,20.08,16.15,11.54,11.54,3.92,6.92,12.23,13.15,6.23,7.62,12.23,13.85,16.15,14.54,13.15,8.54,11.54,M,45_54
277,373,4243389,11.54,9.23,10.0,10.77,9.23,6.92,13.08,7.69,13.08,7.69,16.15,13.08,8.46,10.0,13.85,11.54,3.08,10.77,10.77,13.85,M,45_54
278,378,9594718,3.92,6.23,13.85,16.85,16.15,10.85,13.85,11.54,12.23,2.31,12.23,16.15,19.15,13.15,14.54,10.85,14.54,15.46,16.15,15.46,M,45_54
279,398,2262397,3.85,3.85,6.15,6.15,6.15,2.31,10.77,10.77,15.38,15.38,18.46,1.54,10.0,8.46,13.08,16.92,14.62,12.31,6.15,10.0,M,45_54
280,400,3524946,19.15,15.46,13.15,13.85,16.85,14.54,13.15,16.15,13.15,18.46,17.77,20.08,16.85,16.15,20.77,19.15,14.54,17.77,14.54,13.15,M,45_54
281,404,390190,4.62,3.92,16.15,13.85,11.54,7.62,0.0,6.92,9.23,10.85,10.85,10.85,14.54,10.85,13.85,13.15,15.46,13.85,11.54,5.31,M,45_54
282,422,7352378,0.69,9.92,9.92,9.23,11.54,16.85,0.0,7.62,10.85,10.85,10.85,12.23,13.15,10.85,15.46,10.85,13.85,10.85,8.54,6.92,M,45_54
283,424,1895036,7.81,16.96,12.38,16.96,9.96,13.19,19.12,10.77,7.81,15.35,4.58,9.15,6.19,19.12,17.77,13.73,0.0,16.96,18.58,16.15,M,45_54
284,425,350088,0.77,10.0,16.92,15.38,18.46,15.38,16.92,0.0,6.92,18.46,17.69,8.46,11.54,0.0,0.0,16.15,16.92,17.69,12.31,8.46,M,45_54
285,426,15838242,4.62,14.77,11.69,29.23,13.23,8.62,1.54,8.62,7.69,10.15,11.69,7.69,11.69,15.38,11.69,3.08,5.54,13.23,12.31,7.08,M,45_54
286,430,1616591,13.85,3.08,0.0,3.85,9.23,12.31,13.08,11.54,16.15,14.62,16.92,11.54,6.92,16.15,14.62,13.85,6.92,5.38,10.0,8.46,M,45_54
287,431,36127,15.38,13.85,13.85,13.85,6.92,11.54,18.46,16.15,13.08,16.15,15.38,8.46,11.54,1.54,8.46,13.08,16.15,15.38,10.0,13.08,M,45_54
288,453,1078847,12.23,16.15,10.85,9.92,5.31,11.54,3.92,7.62,7.62,3.92,11.54,11.54,16.15,8.54,13.85,13.15,16.15,13.15,12.23,9.23,M,45_54
289,455,9735307,0.0,9.35,12.46,2.42,10.04,11.42,1.38,1.38,9.35,10.73,10.04,11.42,11.42,10.73,10.04,9.35,3.12,4.5,12.46,10.73,M,45_54
290,456,6465642,1.62,2.31,9.23,12.23,10.85,13.15,11.54,15.46,13.85,14.54,16.85,18.46,18.46,13.15,20.77,16.15,17.77,16.85,16.15,5.31,M,45_54
291,457,310391,10.15,3.81,2.96,12.27,2.12,4.65,10.15,19.04,11.42,38.5,10.58,7.62,6.35,16.92,16.08,6.77,12.27,13.96,28.35,7.62,M,45_54
292,499,3475464,0.0,9.23,9.23,3.85,6.15,2.31,10.0,3.08,10.0,11.54,16.15,13.08,13.85,13.08,17.69,13.08,12.31,15.38,4.62,17.69,M,45_54
293,515,1649678,10.0,3.85,10.0,8.46,7.69,7.69,14.62,14.62,13.08,9.23,16.92,14.62,3.85,11.54,17.69,18.46,16.92,11.54,11.54,12.31,M,45_54
294,530,1865688,8.04,10.23,13.88,13.15,10.96,8.77,12.42,10.23,6.58,18.27,16.08,12.42,19.0,10.96,69.42,16.81,6.58,8.77,0.73,3.65,M,45_54
295,542,21719408,0.77,7.69,7.69,7.69,11.54,6.15,7.69,5.38,13.85,6.92,5.38,14.62,12.31,13.08,13.85,13.08,12.31,12.31,13.85,8.46,M,45_54
296,7,13112175,13.85,13.85,14.62,14.62,8.46,12.31,18.46,11.54,13.08,6.92,12.31,15.38,13.85,8.46,13.85,11.54,13.85,13.85,15.38,10.77,M,55_64
297,8,14059867,10.77,10.77,15.38,15.38,15.38,15.38,5.38,8.46,12.31,12.31,9.23,6.15,15.38,15.38,18.46,10.77,18.46,17.69,16.15,10.0,M,55_64
298,9,29276335,9.23,11.54,9.92,11.54,9.92,9.23,10.85,13.15,12.23,9.92,9.92,14.54,6.92,13.85,14.54,13.15,6.23,15.46,11.54,16.85,M,55_64
299,14,4243389,14.62,6.15,6.15,9.23,11.54,12.31,10.77,12.31,7.69,14.62,14.62,12.31,13.08,8.46,13.08,10.77,3.85,10.0,9.23,7.69,M,55_64
300,20,3753072,0.0,6.92,11.54,9.23,6.15,9.23,9.23,10.77,12.31,10.0,12.31,15.38,7.69,9.23,10.77,6.15,12.31,10.77,13.08,11.54,M,55_64
301,24,10829388,13.08,13.08,13.08,17.69,13.85,15.38,18.46,7.69,13.08,13.85,15.38,12.31,15.38,7.69,11.54,12.31,14.62,14.62,16.15,8.46,M,55_64
302,30,2866241,0.69,9.92,9.23,3.92,9.92,1.62,10.85,7.62,9.23,9.92,10.85,14.54,13.85,11.54,7.62,13.15,13.85,13.85,13.85,15.46,M,55_64
303,33,215873,16.85,14.54,14.54,13.85,9.92,6.23,13.15,15.46,12.23,18.46,16.15,12.23,13.85,11.54,16.85,19.15,10.85,12.23,14.54,8.54,M,55_64
304,36,3049193,4.62,5.31,8.54,13.15,11.54,10.85,6.23,9.92,13.85,15.46,19.15,16.15,14.54,11.54,13.15,7.62,16.15,6.92,3.0,9.23,M,55_64
305,42,26655347,0.0,6.23,13.85,10.85,15.46,11.54,9.23,3.0,12.23,16.15,15.46,12.23,3.0,4.62,16.15,18.46,16.15,13.15,12.23,10.85,M,55_64
306,49,15289570,7.69,3.08,5.38,6.15,13.08,2.31,6.15,16.92,12.31,18.46,13.08,15.38,16.15,10.0,10.77,11.54,13.08,7.69,10.0,12.31,M,55_64
307,51,18822894,3.08,3.08,6.15,5.38,8.46,6.92,7.69,12.31,9.23,10.0,10.77,14.62,10.0,14.62,15.38,14.62,15.38,15.38,15.38,8.46,M,55_64
308,52,1897539,11.42,5.54,11.42,11.42,9.35,9.35,12.46,10.04,10.73,11.42,12.46,8.31,12.46,8.31,7.62,6.23,13.15,4.5,10.04,12.46,M,55_64
309,56,1412045,9.23,10.77,18.46,6.92,10.0,7.69,9.23,10.77,12.31,15.38,15.38,7.69,12.31,6.92,10.0,12.31,11.54,11.54,6.92,13.08,M,55_64
310,57,777732,11.54,12.23,13.15,9.92,9.92,21.46,13.85,9.23,9.92,7.62,11.54,13.15,9.92,9.92,11.54,4.62,13.85,20.77,14.54,9.23,M,55_64
311,62,3345410,3.85,10.0,11.54,12.31,10.77,8.46,10.77,14.62,12.31,14.62,8.46,13.08,16.15,15.38,6.92,14.62,13.08,13.08,15.38,8.46,M,55_64
312,66,1735582,0.77,13.08,4.62,10.0,5.38,10.77,10.77,12.31,6.15,6.92,3.85,13.85,10.77,12.31,5.38,15.38,16.15,6.15,10.0,6.15,M,55_64
313,72,14379767,0.0,7.69,12.31,0.0,8.46,6.92,11.54,11.54,14.62,14.62,12.31,11.54,11.54,10.0,11.54,6.15,13.08,15.38,15.38,9.23,M,55_64
314,74,617572,6.92,3.08,7.69,4.62,12.31,12.31,12.31,16.15,15.38,16.92,7.69,13.08,17.69,13.85,13.08,13.85,15.38,15.38,7.69,11.54,M,55_64
315,75,7533523,4.62,10.0,10.77,8.46,17.69,13.85,9.23,6.92,11.54,14.62,12.31,7.69,7.69,13.85,11.54,6.92,13.08,16.15,13.85,11.54,M,55_64
316,79,12558975,16.92,5.38,6.92,10.0,16.15,6.92,10.0,14.62,8.46,11.54,14.62,15.38,9.23,10.0,16.15,14.62,14.62,13.85,9.23,12.31,M,55_64
317,81,9009748,6.15,2.31,6.15,6.92,8.46,9.23,11.54,11.54,11.54,12.31,11.54,10.77,7.69,11.54,15.38,16.92,16.15,16.15,8.46,6.92,M,55_64
318,88,6216977,13.15,14.54,13.15,3.92,8.54,9.92,16.15,18.46,17.77,19.15,17.77,19.15,15.46,20.77,19.15,19.15,20.08,16.15,11.54,13.85,M,55_64
319,89,1066740,1.54,10.77,10.77,3.08,9.23,8.46,11.54,10.77,11.54,9.23,12.31,8.46,13.85,9.23,13.85,13.85,12.31,11.54,12.31,11.54,M,55_64
320,92,717986,7.69,14.62,7.69,8.46,7.69,8.46,10.0,8.46,10.0,5.38,16.15,12.31,10.77,13.08,0.0,1.54,13.08,11.54,13.08,11.54,M,55_64
321,98,11270697,13.73,9.96,17.77,13.73,10.77,7.0,3.77,12.38,8.35,15.35,14.54,23.15,13.19,13.73,12.38,9.15,10.77,9.96,10.77,10.77,M,55_64
322,110,11046888,7.62,9.23,8.54,6.23,14.54,6.23,8.54,14.54,12.23,10.85,9.92,13.85,13.15,10.85,13.85,11.54,11.54,8.54,20.77,10.85,M,55_64
323,111,10964854,5.5,16.08,15.23,19.04,14.81,18.62,0.0,6.77,23.27,19.88,19.04,12.27,8.46,19.04,13.96,11.42,0.85,16.92,10.58,13.96,M,55_64
324,114,783568,10.77,12.38,9.15,13.19,8.35,9.15,9.15,13.19,12.38,9.96,12.38,9.96,9.96,12.38,7.0,12.38,10.77,23.96,13.19,9.96,M,55_64
325,117,1391333,11.54,8.46,10.77,6.15,13.85,13.85,15.38,7.69,17.69,6.15,10.0,10.77,7.69,10.0,9.23,9.23,12.31,11.54,12.31,4.62,M,55_64
326,137,2099651,12.23,11.54,9.92,5.31,6.23,13.15,14.54,13.85,6.92,12.23,16.85,16.15,9.23,16.15,9.92,7.62,12.23,20.77,15.46,8.54,M,55_64
327,145,10711021,13.73,24.5,7.0,9.96,9.96,12.38,7.81,26.12,11.58,20.73,8.35,2.96,14.54,15.35,13.73,16.96,15.35,13.19,17.77,7.81,M,55_64
328,146,9185601,0.77,12.31,13.08,14.62,15.38,8.46,8.46,10.77,5.38,8.46,10.77,12.31,10.77,6.92,10.77,13.85,7.69,13.85,13.08,5.38,M,55_64
329,149,13802754,11.54,20.08,19.15,21.46,20.08,17.77,16.15,6.92,18.46,5.31,8.54,11.54,13.15,15.46,16.15,22.38,9.92,20.08,5.31,7.62,M,55_64
330,10,2467292,10.77,0.77,0.0,7.69,9.23,12.31,10.0,0.0,1.54,3.08,11.54,7.69,12.31,17.69,16.92,11.54,13.85,13.85,11.54,5.38,M,65_69
331,13,5928421,8.35,15.35,10.77,13.73,13.73,13.19,15.35,11.58,8.35,12.38,4.58,11.58,9.96,14.54,13.73,9.15,16.96,7.0,14.54,9.15,M,65_69
332,14,7281857,0.0,1.54,6.15,10.0,10.0,7.69,11.54,11.54,10.77,9.23,13.08,10.77,10.0,10.77,15.38,14.62,13.85,10.0,10.77,6.92,M,65_69
333,15,1244257,0.0,7.81,14.54,9.96,2.42,13.19,16.15,17.77,10.77,19.12,19.12,9.15,13.19,1.62,3.77,24.5,9.96,10.77,22.35,9.96,M,65_69
334,17,5270002,9.23,10.77,10.77,28.62,6.15,13.85,14.77,13.85,13.85,18.46,12.31,7.08,8.62,10.77,9.23,13.85,13.23,10.77,13.85,9.23,M,65_69
335,2,14347335,19.92,10.77,10.77,8.35,24.5,8.35,13.19,1.62,8.35,8.35,20.73,8.35,13.19,13.73,16.15,15.35,12.38,11.58,11.58,4.58,M,70_74
336,4,5928421,0.0,7.81,15.35,1.62,12.38,8.35,9.96,9.96,9.96,14.54,13.19,7.81,11.58,14.54,9.96,12.38,13.73,16.96,16.96,13.73,M,70_74
337,1,1411743,7.62,6.92,6.23,11.54,13.85,10.85,14.54,14.54,17.77,20.77,20.08,9.92,12.23,2.31,11.54,19.15,19.15,17.77,10.85,10.85,M,75_plus
