,id,Week1,Week2,Week3,Week4,Week5,Week6,Week7,Week8,Week9,Week10,Week11,Week12,Week13,Week14,Week15,Week16,Week17,Week18,Week19,Week20,Gender,Age_Group
0,14347335,0.57,0.85,1.0,0.57,0.85,0.36,0.57,0.7,0.64,0.06,0.14,0.42,0.64,0.79,0.42,0.0,0.21,0.27,0.57,0.49,M,70_74
1,2373495,0.0,0.0,0.0,1.0,0.0,1.0,0.0,0.0,0.0,0.0,0.0,0.0,0.0,0.0,0.0,0.0,0.0,0.0,0.0,0.0,M,70_74
2,12545730,0.0,0.39,0.59,0.18,0.0,0.39,0.18,0.0,0.0,0.0,0.18,0.0,0.39,0.18,0.0,0.0,0.0,1.0,0.39,0.0,M,70_74
3,8690428,1.0,0.39,0.0,0.59,0.8,0.39,0.0,0.18,0.0,0.8,0.0,0.18,0.0,0.0,0.0,0.0,0.0,0.0,0.0,0.0,M,70_74
