,id,Week1,Week2,Week3,Week4,Week5,Week6,Week7,Week8,Week9,Week10,Week11,Week12,Week13,Week14,Week15,Week16,Week17,Week18,Week19,Week20,Gender,Age_Group
0,1115094,0.0,0.0,0.0,0.19,0.6,1.0,0.29,0.39,0.49,0.6,0.0,0.6,0.8,0.7,0.19,0.8,0.39,0.8,0.29,0.0,F,65_69
1,13204733,0.49,1.0,0.09,0.6,0.39,0.8,0.19,0.9,0.29,0.29,0.0,0.39,1.0,0.7,0.8,0.19,0.6,0.8,0.9,0.29,F,65_69
2,1289508,0.19,0.0,0.09,0.49,0.7,0.0,0.29,0.39,0.6,0.0,0.39,0.8,0.7,0.49,0.6,0.09,0.0,0.0,1.0,0.0,F,65_69
3,2571326,0.0,1.0,0.0,0.0,0.0,0.0,0.0,0.0,0.0,0.51,0.0,0.0,0.0,0.0,0.0,0.0,0.0,1.0,0.51,0.0,F,65_69
4,1924229,0.0,0.0,0.0,0.0,0.0,0.0,0.0,0.0,0.0,0.0,0.0,0.0,0.0,0.0,0.0,0.0,0.0,0.0,0.0,0.0,F,65_69
