,id,Week1,Week2,Week3,Week4,Week5,Week6,Week7,Week8,Week9,Week10,Week11,Week12,Week13,Week14,Week15,Week16,Week17,Week18,Week19,Week20,Gender,Age_Group
0,356358,0.26,0.73,0.35,0.54,0.54,0.26,0.0,0.35,0.81,0.54,0.89,0.81,0.73,0.89,1.0,1.0,1.0,0.89,0.73,0.89,F,35_44
1,8370121,0.0,0.06,0.06,0.42,0.79,0.36,0.79,0.0,0.7,0.91,1.0,0.0,0.0,0.49,0.0,0.0,0.0,0.0,0.0,0.0,F,35_44
2,8149665,0.22,0.15,0.22,0.38,0.3,0.38,0.07,0.54,1.0,0.3,0.54,1.0,0.22,0.22,0.07,0.07,0.0,0.0,0.0,0.0,F,35_44
3,7857123,0.0,0.0,0.0,0.0,0.0,0.0,0.0,0.0,0.0,0.0,0.0,0.0,0.0,0.0,0.0,0.0,0.0,0.0,0.0,0.0,F,35_44
4,14721337,0.66,0.78,1.0,0.33,0.0,0.21,0.0,0.33,0.0,1.0,1.0,0.33,0.0,0.33,0.33,0.1,0.21,0.0,0.0,0.0,F,35_44
5,148287,0.0,1.0,0.17,0.12,0.0,0.0,0.52,0.0,0.05,0.05,0.0,0.29,0.52,0.0,0.4,0.12,0.17,0.35,0.0,0.35,F,35_44
6,182287,0.25,0.67,0.12,0.53,0.37,0.45,0.08,1.0,0.83,0.12,0.42,0.2,0.17,0.53,0.0,0.37,0.17,0.28,0.42,0.33,F,35_44
7,27492965,0.0,0.15,0.3,0.07,0.0,0.38,0.22,0.46,0.69,0.54,0.77,0.84,0.84,0.84,0.15,0.0,0.0,0.54,1.0,0.0,F,35_44
8,4412469,0.1,0.44,0.66,0.66,0.44,0.78,0.44,0.1,0.0,0.89,1.0,0.44,0.78,0.78,0.21,0.66,0.0,0.21,0.33,0.0,F,35_44
9,349170,0.44,0.12,0.0,0.0,0.0,0.0,0.0,0.12,0.8,1.0,0.0,0.0,0.56,0.32,0.0,0.56,0.0,0.12,0.0,0.2,F,35_44
10,4218798,0.66,0.58,0.92,0.08,0.16,0.16,0.0,0.41,0.5,0.24,0.83,0.75,0.5,1.0,0.24,0.33,0.41,0.92,0.92,0.5,F,35_44
11,124425,0.4,0.25,0.19,1.0,0.05,0.6,1.0,0.74,0.86,0.74,0.4,0.8,0.4,0.6,0.6,0.13,0.0,0.0,0.19,0.0,F,35_44
12,18180125,0.19,0.4,0.31,0.24,0.47,0.19,0.47,0.43,0.35,0.12,0.05,1.0,0.5,0.43,0.19,0.4,0.35,0.0,0.47,0.16,F,35_44
13,12752415,0.61,0.54,0.3,0.22,0.3,0.54,0.92,0.54,0.77,0.84,0.46,0.77,1.0,0.3,0.84,0.92,0.54,0.54,0.46,0.0,F,35_44
14,25921774,0.0,0.0,0.07,0.38,0.46,0.38,1.0,0.46,0.84,0.69,0.61,0.3,0.54,0.22,0.3,0.54,0.38,0.69,0.77,0.15,F,35_44
15,4023266,0.72,0.66,0.5,0.83,0.33,0.88,0.0,0.28,0.28,0.5,0.78,0.66,0.95,0.5,0.61,0.05,0.72,0.21,1.0,0.38,F,35_44
16,3487920,0.91,0.73,1.0,0.36,0.0,0.73,0.36,0.17,0.54,0.08,0.17,0.0,0.63,0.82,0.36,0.45,0.0,0.0,0.0,0.63,F,35_44
17,1886022,0.06,0.0,0.6,0.6,0.4,0.8,1.0,0.66,0.53,0.4,0.0,0.0,0.0,0.19,0.33,0.06,0.0,0.73,1.0,0.46,F,35_44
18,6066,0.0,0.9,0.49,0.9,0.7,0.9,0.49,0.09,0.8,0.39,0.0,0.39,0.29,0.29,0.39,0.0,1.0,0.0,0.39,0.0,F,35_44
19,13304647,0.58,0.58,0.75,0.33,0.66,0.33,0.33,0.5,0.66,1.0,0.66,0.33,0.33,0.33,0.16,0.0,0.0,0.0,0.0,0.08,F,35_44
20,200428,0.0,0.0,0.0,1.0,0.0,0.0,0.0,0.07,0.22,0.0,0.0,0.0,0.07,0.0,0.0,0.0,0.15,0.0,0.0,0.0,F,35_44
21,29204019,0.0,0.0,0.0,0.0,0.0,0.51,0.0,1.0,0.0,0.0,0.0,0.0,0.0,0.0,0.0,0.0,1.0,0.0,0.0,0.0,F,35_44
22,1460905,0.41,0.41,0.16,0.0,0.5,0.16,0.0,0.16,0.66,1.0,0.08,0.75,0.08,0.41,0.33,0.08,0.08,0.08,0.08,0.0,F,35_44
23,5502085,0.0,0.0,0.0,0.0,0.0,0.0,0.0,0.0,0.0,0.0,0.0,0.0,0.0,0.0,0.0,0.0,0.0,0.0,0.0,0.0,F,35_44
24,739881,0.0,0.0,0.0,0.0,0.64,0.64,0.64,0.0,0.0,1.0,1.0,0.0,0.33,0.33,0.0,0.64,0.33,0.0,0.0,0.0,F,35_44
25,15301435,0.0,0.0,1.0,0.51,0.0,1.0,0.0,0.0,0.0,0.0,0.0,0.0,0.0,0.0,0.0,0.0,0.0,0.0,0.0,0.0,F,35_44
26,2325742,0.05,0.05,0.17,0.22,0.43,0.57,1.0,0.43,0.08,0.17,0.0,0.0,0.0,0.12,0.17,0.12,0.12,0.17,0.17,0.0,F,35_44
27,2483782,0.73,1.0,0.89,0.35,0.35,0.89,0.0,0.73,0.26,0.46,0.62,0.62,0.54,0.46,0.46,0.18,0.26,0.62,0.07,0.0,F,35_44
28,4269490,0.58,0.82,0.65,0.7,0.75,0.75,0.29,0.0,0.52,0.58,0.4,0.88,1.0,0.82,0.65,0.29,0.88,0.93,0.82,0.52,F,35_44
29,527871,0.0,0.0,0.0,0.0,0.0,0.0,0.0,1.0,0.0,0.0,0.0,0.0,0.0,0.0,0.0,0.0,0.0,0.6,0.0,0.0,F,35_44
30,343219,0.18,0.0,0.59,0.59,0.0,0.0,0.0,0.0,0.0,0.0,0.18,0.8,0.18,0.59,0.0,0.0,1.0,0.0,0.18,0.0,F,35_44
31,179268,0.17,0.45,0.91,0.82,0.54,0.45,0.82,0.0,0.0,0.17,1.0,0.82,0.0,0.36,0.45,0.27,0.0,0.36,0.54,1.0,F,35_44
32,36497661,0.25,0.08,0.0,0.33,0.33,0.0,0.33,0.42,0.67,0.5,0.25,0.0,0.67,0.75,0.67,0.75,0.17,0.92,1.0,0.25,F,35_44
33,2815256,0.0,0.0,0.18,0.0,0.0,0.18,0.39,0.18,1.0,0.59,1.0,0.18,0.59,1.0,1.0,0.0,0.0,0.39,0.8,0.0,F,35_44
34,12000976,0.0,0.0,0.0,0.0,0.0,0.0,0.0,1.0,0.0,0.0,0.0,0.0,0.0,0.0,0.0,0.0,0.0,0.0,0.0,0.0,F,35_44
35,3473874,0.0,0.0,0.0,0.0,0.0,0.0,0.0,0.0,0.0,1.0,0.0,0.0,0.0,0.0,0.0,0.0,0.0,0.0,0.0,0.0,F,35_44
36,4692420,0.14,0.14,0.14,0.0,1.0,0.14,0.14,0.0,0.0,0.14,0.0,0.0,0.0,0.0,0.0,0.14,0.0,0.0,0.0,0.0,F,35_44
37,26117807,0.15,0.32,0.49,0.49,0.32,0.15,0.32,0.32,0.0,0.66,0.15,0.15,0.32,0.66,1.0,0.83,1.0,0.0,0.0,0.0,F,35_44
38,12056171,0.0,0.0,0.0,0.0,0.0,0.0,0.11,0.0,0.11,0.0,0.0,0.11,0.49,1.0,0.0,0.37,0.24,0.24,0.0,0.0,F,35_44
