,id,Week1,Week2,Week3,Week4,Week5,Week6,Week7,Week8,Week9,Week10,Week11,Week12,Week13,Week14,Week15,Week16,Week17,Week18,Week19,Week20,Gender,Age_Group
0,22403893,3.77,11.58,9.96,4.58,11.58,3.77,12.38,14.54,14.54,14.54,2.96,3.77,6.19,16.96,11.58,10.77,9.15,13.73,14.54,7.0,M,20_24
1,3702784,7.0,7.0,11.58,13.73,15.35,11.58,16.96,14.54,7.81,8.35,18.58,16.15,12.38,7.0,6.19,13.19,13.19,13.73,1.62,5.38,M,20_24
2,3875548,9.23,12.31,13.85,10.0,9.23,10.0,17.69,12.31,6.92,17.69,18.46,13.85,10.0,9.23,9.23,10.0,8.46,6.15,5.38,5.38,M,20_24
3,5387786,23.08,15.38,14.77,22.46,23.08,15.38,10.77,9.23,13.23,9.23,20.92,20.0,13.85,14.77,24.0,22.46,19.38,10.77,13.23,16.31,M,20_24
4,4379028,9.92,15.46,13.85,12.23,7.62,8.54,14.54,18.46,9.23,8.54,22.38,15.46,11.54,7.62,12.23,10.85,8.54,8.54,15.46,11.54,M,20_24
5,12485408,6.19,4.58,7.81,6.19,11.58,14.54,8.35,13.19,15.35,13.73,17.77,9.15,17.77,20.73,14.54,17.77,19.92,18.58,13.73,13.73,M,20_24
6,2199983,16.15,5.38,7.0,16.96,17.77,18.58,13.73,19.12,19.92,13.19,13.73,8.35,18.58,16.96,15.35,18.58,19.92,12.38,15.35,16.15,M,20_24
7,430673,12.31,13.85,10.15,21.54,21.54,16.92,10.77,1.54,22.46,22.46,25.54,20.0,21.54,24.62,16.92,24.62,24.0,11.69,13.23,18.46,M,25_34
8,5387978,17.77,6.92,7.62,15.46,17.77,15.46,15.46,5.31,12.23,6.92,6.92,16.15,15.46,16.85,16.85,9.92,11.54,8.54,12.23,14.54,M,25_34
9,3265678,16.85,18.46,21.46,12.23,16.15,15.46,14.54,11.54,5.31,13.15,3.92,14.54,16.15,11.54,16.15,13.85,20.77,17.77,18.46,7.62,M,25_34
10,7134796,21.46,5.31,17.77,7.62,10.85,1.62,12.23,11.54,18.46,16.15,1.62,6.92,13.85,13.15,12.23,15.46,22.38,19.15,13.85,7.62,M,25_34
11,10342404,8.54,9.23,9.92,9.23,9.23,20.08,13.85,15.46,13.15,13.15,14.54,13.85,13.85,10.85,13.15,11.54,13.85,7.62,1.62,4.62,M,25_34
12,12485408,6.19,4.58,7.81,6.19,11.58,14.54,8.35,13.19,15.35,13.73,17.77,9.15,17.77,20.73,14.54,17.77,19.92,18.58,13.73,13.73,M,25_34
13,1075424,6.23,13.85,16.85,14.54,13.85,14.54,9.92,6.92,10.85,13.85,21.46,13.85,7.62,8.54,13.15,7.62,9.23,10.85,20.77,4.62,M,25_34
14,7662564,10.0,9.23,10.77,9.23,10.77,8.46,7.69,11.54,11.54,10.0,9.23,8.46,13.85,12.31,11.54,12.31,10.77,7.69,12.31,8.46,M,25_34
15,6940559,11.54,4.62,11.54,3.08,9.23,5.38,1.54,8.46,15.38,10.77,10.0,9.23,11.54,13.85,10.0,10.77,13.85,17.69,15.38,7.69,M,25_34
16,677855,12.23,14.54,13.85,10.85,20.77,11.54,15.46,17.77,10.85,6.92,13.15,16.85,16.15,11.54,14.54,13.15,6.92,12.23,14.54,16.15,M,25_34
17,4805223,7.69,10.77,9.23,14.62,9.23,13.85,16.15,11.54,11.54,12.31,12.31,16.15,10.77,13.85,13.08,10.0,13.08,15.38,15.38,6.92,M,25_34
18,11233206,12.46,16.27,13.15,9.35,11.42,2.42,10.04,8.31,30.81,16.27,13.15,9.35,11.42,6.23,10.04,9.35,14.54,11.42,10.73,11.42,M,25_34
19,1011771,13.85,9.23,6.15,12.31,13.85,13.85,13.08,11.54,7.69,11.54,2.31,11.54,10.77,11.54,9.23,6.92,9.23,11.54,10.77,6.15,M,25_34
20,3842113,15.35,14.54,11.58,8.35,16.15,13.19,11.58,2.42,10.77,11.58,14.54,13.19,9.15,9.96,12.38,9.15,7.0,2.96,2.96,4.58,M,25_34
21,714106,6.92,6.15,7.69,10.77,10.77,5.38,13.85,6.15,7.69,10.77,12.31,12.31,11.54,10.77,12.31,12.31,6.92,6.15,11.54,7.69,M,25_34
22,21915073,22.35,19.92,16.96,22.35,11.58,23.15,13.73,9.96,19.12,23.15,23.96,19.92,20.73,25.31,23.96,17.77,13.73,14.54,14.54,19.12,M,25_34
23,2253067,5.38,10.23,8.62,5.92,11.31,12.92,10.23,5.92,16.15,7.54,12.92,16.69,18.31,23.15,9.15,12.92,5.92,10.77,9.15,8.62,M,25_34
24,342699,10.77,9.23,9.23,10.0,6.92,10.77,10.77,13.08,13.08,11.54,11.54,10.0,6.15,13.85,13.85,14.62,14.62,15.38,14.62,10.0,M,25_34
25,2493685,12.23,16.85,6.23,10.85,11.54,3.92,11.54,12.23,17.77,13.15,17.77,14.54,16.15,9.92,16.15,9.23,12.23,13.85,6.92,9.23,M,25_34
26,15381873,15.38,13.85,10.15,16.31,13.85,15.38,16.31,20.0,16.92,19.38,20.0,19.38,10.77,24.0,16.31,19.38,16.92,14.77,12.31,20.92,M,25_34
27,28975199,6.23,9.23,10.85,5.31,3.0,19.15,10.85,14.54,9.23,9.92,11.54,12.23,6.92,11.54,13.85,5.31,13.15,13.85,11.54,6.23,M,25_34
28,18004753,16.31,19.38,22.46,27.08,14.77,13.85,13.23,10.15,13.23,13.85,14.77,21.54,16.92,14.77,13.23,19.38,24.0,19.38,24.0,23.08,M,25_34
29,800035,10.77,12.31,11.54,10.77,11.54,11.54,12.31,11.54,10.0,13.08,11.54,10.77,10.77,11.54,11.54,9.23,9.23,6.92,9.23,9.23,M,25_34
30,4867712,9.23,2.31,10.0,10.77,9.23,4.62,10.77,7.69,11.54,7.69,12.31,7.69,10.0,13.85,8.46,12.31,10.77,13.08,12.31,8.46,M,25_34
31,16636152,17.77,5.31,12.23,13.85,22.38,16.15,14.54,14.54,16.15,17.77,13.15,15.46,17.77,15.46,11.54,12.23,13.15,17.77,16.85,11.54,M,25_34
32,2061161,12.31,12.31,11.54,11.54,13.08,18.46,13.08,13.85,9.23,16.15,13.08,10.77,13.85,16.15,14.62,12.31,11.54,16.92,12.31,10.77,M,25_34
33,22103583,11.54,16.15,11.54,10.77,14.62,5.38,8.46,10.77,7.69,10.77,9.23,12.31,14.62,18.46,9.23,12.31,12.31,11.54,10.0,12.31,M,25_34
34,3293985,18.46,11.54,15.46,3.0,3.92,9.23,15.46,17.77,16.15,17.77,20.08,10.85,0.69,12.23,11.54,14.54,10.85,8.54,16.15,14.54,M,25_34
35,14069408,10.77,9.23,10.77,9.23,14.62,13.85,8.46,8.46,10.0,10.77,14.62,13.85,9.23,11.54,3.08,12.31,13.85,13.85,11.54,10.77,M,25_34
36,1086043,10.0,11.54,13.08,9.23,9.23,12.31,3.85,10.0,10.0,10.0,13.08,13.85,11.54,15.38,11.54,10.0,12.31,9.23,10.77,6.92,M,25_34
37,2140910,7.62,6.92,4.62,9.92,12.23,7.62,8.54,10.85,12.23,12.23,13.85,7.62,6.92,7.62,12.23,13.15,10.85,11.54,9.92,10.85,M,25_34
38,5906838,12.31,16.15,9.23,10.0,13.08,10.0,13.08,10.77,12.31,13.08,8.46,12.31,13.85,8.46,9.23,6.15,14.62,13.85,6.92,16.15,M,25_34
39,8404330,27.08,7.69,7.08,8.62,16.31,12.31,24.0,3.08,14.77,14.77,9.23,8.62,8.62,20.0,14.77,7.69,13.85,16.92,11.69,9.23,M,25_34
40,17430899,9.23,9.23,9.23,11.54,13.08,9.23,9.23,6.15,13.08,13.08,13.08,14.62,14.62,15.38,14.62,12.31,13.85,13.08,12.31,8.46,M,25_34
41,3216623,6.92,4.62,3.08,8.46,9.23,10.0,5.38,10.77,13.08,12.31,10.77,15.38,6.92,16.92,16.92,7.69,15.38,18.46,16.92,8.46,M,25_34
42,1917123,19.15,13.15,14.54,20.08,9.23,11.54,12.23,18.46,20.77,8.54,17.77,14.54,12.23,1.62,16.85,16.85,13.85,12.23,14.54,11.54,M,25_34
43,20222989,13.85,10.73,11.42,12.46,8.31,9.35,13.85,9.35,13.15,16.96,13.85,13.85,7.62,13.85,9.35,6.92,7.62,10.73,7.62,5.54,M,25_34
44,1008128,12.23,8.54,9.92,9.92,10.85,3.92,9.92,6.92,13.15,11.54,13.15,8.54,13.85,12.23,12.23,9.92,13.15,6.23,13.85,5.31,M,25_34
45,29056944,11.58,9.96,12.38,14.54,13.73,11.58,12.38,2.42,9.15,12.38,10.77,9.96,10.77,9.15,10.77,9.96,11.58,13.73,7.81,10.77,M,25_34
46,2713151,9.23,16.15,13.85,13.15,3.0,11.54,8.54,6.23,16.85,15.46,17.77,18.46,17.77,17.77,21.46,13.15,16.85,19.15,17.77,10.85,M,25_34
47,11584075,3.85,8.46,2.31,5.38,5.38,8.46,11.54,12.31,14.62,11.54,10.0,14.62,14.62,15.38,15.38,12.31,10.0,12.31,6.15,1.54,M,25_34
48,26962410,14.54,14.54,15.46,14.54,9.23,9.92,14.54,13.15,15.46,21.46,12.23,16.85,14.54,17.77,16.15,16.85,17.77,13.85,13.85,9.23,M,25_34
49,2989170,15.38,15.38,9.23,16.92,15.38,16.92,15.38,13.85,8.62,27.69,9.23,16.31,15.38,14.77,10.77,10.15,8.62,12.31,7.08,5.54,M,25_34
50,10495579,13.15,17.77,9.92,13.15,9.92,7.62,10.85,11.54,5.31,11.54,12.23,9.92,10.85,6.23,9.92,14.54,13.85,16.15,10.85,12.23,M,25_34
51,12672478,6.23,20.77,17.65,13.15,27.0,20.77,29.08,33.92,17.65,20.77,15.23,21.46,20.77,20.77,19.38,16.96,10.04,19.38,19.38,9.35,M,25_34
52,1283977,6.92,15.38,10.0,6.92,6.15,16.92,7.69,26.92,8.46,8.46,10.77,28.46,10.77,8.46,11.54,14.62,10.77,11.54,10.0,10.0,M,25_34
53,23348995,9.23,10.0,10.0,7.69,10.0,10.77,10.0,10.77,8.46,11.54,10.77,12.31,13.08,13.08,14.62,7.69,10.0,13.08,6.15,14.62,M,25_34
54,12553623,12.23,6.23,7.62,5.31,13.15,5.31,3.92,10.85,5.31,16.15,11.54,15.46,14.54,13.15,12.23,8.54,15.46,20.08,9.23,13.15,M,25_34
55,306708,2.31,5.38,7.69,10.0,12.31,15.38,11.54,8.46,13.08,7.69,13.08,9.23,11.54,3.85,10.0,13.08,11.54,13.08,13.08,7.69,M,25_34
56,25246087,5.38,14.62,9.23,12.31,13.08,12.31,7.69,11.54,2.31,1.54,6.92,11.54,10.77,12.31,13.08,10.77,9.23,9.23,10.77,8.46,M,25_34
57,2449033,11.54,15.38,9.23,12.31,12.31,10.0,2.31,9.23,11.54,10.77,14.62,9.23,14.62,13.08,11.54,16.15,15.38,9.23,6.92,10.77,M,25_34
58,2805456,7.08,10.15,11.69,13.23,10.15,12.31,15.38,7.08,15.38,10.77,14.77,13.23,9.23,11.69,8.62,10.15,9.23,7.08,12.31,3.08,M,25_34
59,4650480,10.85,16.15,13.85,13.85,17.77,12.23,13.15,15.46,17.77,13.15,13.15,6.23,9.92,3.0,11.54,16.15,16.15,15.46,13.15,13.15,M,25_34
60,117006,14.54,16.85,7.62,10.85,14.54,16.15,16.85,16.15,17.77,13.85,16.15,14.54,16.15,12.23,14.54,12.23,13.85,13.85,12.23,12.23,M,25_34
61,8021300,11.42,6.92,6.23,10.04,13.15,10.04,12.46,7.62,4.5,14.54,5.54,8.31,9.35,31.5,15.23,13.15,11.42,13.15,13.85,6.23,M,25_34
62,15183868,14.54,13.15,9.23,16.15,13.15,16.15,9.23,12.23,4.62,14.54,16.15,15.46,16.15,6.23,18.46,16.15,19.15,15.46,13.85,12.23,M,25_34
63,12256657,13.15,9.23,15.46,2.31,3.92,3.92,8.54,8.54,21.46,10.85,9.23,12.23,11.54,7.62,13.85,10.85,10.85,11.54,13.85,7.62,M,25_34
64,2199983,16.15,5.38,7.0,16.96,17.77,18.58,13.73,19.12,19.92,13.19,13.73,8.35,18.58,16.96,15.35,18.58,19.92,12.38,15.35,16.15,M,25_34
65,2395497,12.31,16.92,12.31,13.85,8.46,9.23,1.54,8.46,9.23,11.54,11.54,11.54,10.0,13.08,5.38,6.15,2.31,10.0,10.0,8.46,M,25_34
66,753343,10.0,9.23,7.69,10.0,8.46,4.62,10.0,10.77,10.77,10.0,10.77,12.31,12.31,14.62,14.62,9.23,15.38,10.0,8.46,14.62,M,25_34
67,8785122,11.54,5.31,13.85,16.85,13.85,18.46,19.15,13.15,14.54,16.85,17.77,9.92,13.85,10.85,20.08,10.85,9.23,16.15,14.54,9.92,M,25_34
68,9298184,13.08,9.23,16.92,10.0,12.31,10.0,6.92,11.54,4.62,8.46,11.54,9.23,11.54,10.77,13.08,10.77,13.08,11.54,10.0,4.62,M,25_34
69,2495425,14.54,9.96,11.58,3.77,11.58,8.35,10.77,10.77,10.77,8.35,9.15,16.15,15.35,13.73,7.81,10.77,23.96,18.58,15.35,14.54,M,25_34
70,4501143,9.23,9.23,10.0,9.23,4.62,10.0,10.77,9.23,7.69,12.31,11.54,10.0,10.0,11.54,11.54,6.92,13.85,13.08,10.0,8.46,M,25_34
71,1217774,12.31,14.62,7.69,6.92,12.31,9.23,10.0,11.54,10.77,10.0,6.92,10.0,10.77,11.54,9.23,13.08,13.85,8.46,12.31,8.46,M,25_34
72,13607635,34.62,9.23,9.23,11.54,5.38,10.0,12.31,13.08,10.77,11.54,10.77,12.31,13.08,12.31,10.0,11.54,12.31,2.31,9.23,3.85,M,25_34
73,14286567,6.15,10.0,4.62,10.0,10.0,4.62,3.85,10.0,10.77,11.54,6.92,10.77,13.85,15.38,8.46,11.54,14.62,13.85,7.69,3.85,M,25_34
74,38863102,6.92,8.46,2.31,3.85,12.31,9.23,10.77,5.38,3.08,12.31,12.31,13.08,6.92,11.54,8.46,13.08,17.69,7.69,18.46,11.54,M,25_34
75,19994050,21.54,15.38,19.23,11.54,8.46,12.31,1.54,6.92,1.54,35.38,4.62,11.54,14.62,11.54,11.54,7.69,4.62,12.31,20.77,3.85,F,20_24
76,27519401,11.54,11.54,10.77,10.0,13.85,10.77,8.46,11.54,14.62,13.08,12.31,12.31,10.0,13.08,11.54,14.62,11.54,9.23,8.46,8.46,F,20_24
77,22498406,15.38,16.15,15.38,16.92,9.23,14.62,14.62,10.77,8.46,12.31,6.15,12.31,8.46,12.31,16.15,10.0,10.0,10.77,10.0,8.46,F,20_24
78,23875718,7.81,12.38,10.77,12.38,16.96,16.96,20.73,13.73,11.58,17.77,7.0,10.77,10.77,11.58,9.15,10.77,14.54,13.19,13.73,15.35,F,20_24
79,7560433,13.15,13.15,14.54,18.46,13.15,16.85,16.15,10.85,11.54,17.77,15.46,19.15,20.08,12.23,14.54,13.85,8.54,14.54,17.77,13.15,F,25_34
80,25165601,12.31,6.92,10.77,12.31,10.77,10.77,10.77,6.92,11.54,10.0,1.54,12.31,12.31,13.85,16.15,13.85,12.31,16.92,13.08,10.0,F,25_34
81,27479916,14.62,6.15,1.54,10.77,11.54,13.85,12.31,14.62,14.62,14.62,13.08,12.31,16.15,13.85,10.77,16.92,18.46,18.46,10.77,14.62,F,25_34
82,7726458,7.69,11.54,4.62,14.62,13.08,16.15,16.15,5.38,11.54,13.85,15.38,18.46,13.08,15.38,9.23,12.31,12.31,15.38,13.85,12.31,F,25_34
83,6962263,9.23,9.23,11.54,15.38,15.38,11.54,16.15,13.85,9.23,16.92,18.46,18.46,16.15,8.46,10.77,17.69,18.46,13.08,12.31,17.69,F,25_34
84,7680101,16.92,15.38,14.62,13.85,12.31,5.38,14.62,10.77,11.54,15.38,16.92,13.85,11.54,3.85,7.69,10.77,12.31,15.38,6.15,9.23,F,25_34
85,2738510,8.46,16.15,10.0,13.08,13.08,0.77,7.69,11.54,13.85,10.0,16.15,10.77,15.38,10.0,3.08,16.15,16.92,16.92,10.0,11.54,F,25_34
86,1829263,9.23,10.85,7.62,10.85,9.92,9.92,13.15,13.85,10.85,13.85,10.85,13.85,10.85,8.54,10.85,5.31,3.92,5.31,6.23,7.62,F,25_34
87,10721665,12.31,13.08,13.85,10.0,13.85,3.08,8.46,10.77,12.31,13.08,13.85,10.0,10.77,11.54,13.08,9.23,8.46,9.23,13.08,5.38,F,25_34
88,37919528,12.31,12.31,7.69,8.46,13.85,16.15,10.0,8.46,4.62,17.69,14.62,12.31,13.08,10.0,14.62,8.46,7.69,18.46,17.69,9.23,F,25_34
89,8977117,14.54,1.62,6.92,8.54,6.92,3.0,4.62,6.92,12.23,14.54,13.85,13.85,16.15,14.54,15.46,14.54,14.54,12.23,0.69,0.69,F,25_34
90,8272718,6.92,17.69,10.77,7.69,6.92,13.08,7.69,8.46,8.46,10.77,10.0,13.08,10.0,6.15,11.54,9.23,12.31,15.38,12.31,3.85,F,25_34
91,3965607,0.69,2.31,9.23,9.92,9.23,13.15,10.85,13.15,9.92,13.85,8.54,12.23,12.23,13.85,16.85,10.85,11.54,22.38,9.92,14.54,F,25_34
92,12615113,13.5,14.54,13.5,13.5,14.54,13.5,4.15,13.5,21.81,14.54,16.62,17.65,1.04,10.38,14.54,13.5,8.31,16.62,11.42,7.27,F,25_34
