,id,Week1,Week2,Week3,Week4,Week5,Week6,Week7,Week8,Week9,Week10,Week11,Week12,Week13,Week14,Week15,Week16,Week17,Week18,Week19,Week20,Gender,Age_Group
0,19994050,21.54,15.38,19.23,11.54,8.46,12.31,1.54,6.92,1.54,35.38,4.62,11.54,14.62,11.54,11.54,7.69,4.62,12.31,20.77,3.85,F,20_24
1,27519401,11.54,11.54,10.77,10.0,13.85,10.77,8.46,11.54,14.62,13.08,12.31,12.31,10.0,13.08,11.54,14.62,11.54,9.23,8.46,8.46,F,20_24
2,22498406,15.38,16.15,15.38,16.92,9.23,14.62,14.62,10.77,8.46,12.31,6.15,12.31,8.46,12.31,16.15,10.0,10.0,10.77,10.0,8.46,F,20_24
3,23875718,7.81,12.38,10.77,12.38,16.96,16.96,20.73,13.73,11.58,17.77,7.0,10.77,10.77,11.58,9.15,10.77,14.54,13.19,13.73,15.35,F,20_24
4,7560433,13.15,13.15,14.54,18.46,13.15,16.85,16.15,10.85,11.54,17.77,15.46,19.15,20.08,12.23,14.54,13.85,8.54,14.54,17.77,13.15,F,25_34
5,25165601,12.31,6.92,10.77,12.31,10.77,10.77,10.77,6.92,11.54,10.0,1.54,12.31,12.31,13.85,16.15,13.85,12.31,16.92,13.08,10.0,F,25_34
6,27479916,14.62,6.15,1.54,10.77,11.54,13.85,12.31,14.62,14.62,14.62,13.08,12.31,16.15,13.85,10.77,16.92,18.46,18.46,10.77,14.62,F,25_34
7,7726458,7.69,11.54,4.62,14.62,13.08,16.15,16.15,5.38,11.54,13.85,15.38,18.46,13.08,15.38,9.23,12.31,12.31,15.38,13.85,12.31,F,25_34
8,6962263,9.23,9.23,11.54,15.38,15.38,11.54,16.15,13.85,9.23,16.92,18.46,18.46,16.15,8.46,10.77,17.69,18.46,13.08,12.31,17.69,F,25_34
9,7680101,16.92,15.38,14.62,13.85,12.31,5.38,14.62,10.77,11.54,15.38,16.92,13.85,11.54,3.85,7.69,10.77,12.31,15.38,6.15,9.23,F,25_34
10,2738510,8.46,16.15,10.0,13.08,13.08,0.77,7.69,11.54,13.85,10.0,16.15,10.77,15.38,10.0,3.08,16.15,16.92,16.92,10.0,11.54,F,25_34
11,1829263,9.23,10.85,7.62,10.85,9.92,9.92,13.15,13.85,10.85,13.85,10.85,13.85,10.85,8.54,10.85,5.31,3.92,5.31,6.23,7.62,F,25_34
12,10721665,12.31,13.08,13.85,10.0,13.85,3.08,8.46,10.77,12.31,13.08,13.85,10.0,10.77,11.54,13.08,9.23,8.46,9.23,13.08,5.38,F,25_34
13,37919528,12.31,12.31,7.69,8.46,13.85,16.15,10.0,8.46,4.62,17.69,14.62,12.31,13.08,10.0,14.62,8.46,7.69,18.46,17.69,9.23,F,25_34
14,8977117,14.54,1.62,6.92,8.54,6.92,3.0,4.62,6.92,12.23,14.54,13.85,13.85,16.15,14.54,15.46,14.54,14.54,12.23,0.69,0.69,F,25_34
15,8272718,6.92,17.69,10.77,7.69,6.92,13.08,7.69,8.46,8.46,10.77,10.0,13.08,10.0,6.15,11.54,9.23,12.31,15.38,12.31,3.85,F,25_34
16,3965607,0.69,2.31,9.23,9.92,9.23,13.15,10.85,13.15,9.92,13.85,8.54,12.23,12.23,13.85,16.85,10.85,11.54,22.38,9.92,14.54,F,25_34
17,12615113,13.5,14.54,13.5,13.5,14.54,13.5,4.15,13.5,21.81,14.54,16.62,17.65,1.04,10.38,14.54,13.5,8.31,16.62,11.42,7.27,F,25_34
